degree distribution (probability density function of the degree in logarithmic bins) 
10	2.87908
11	0.524461
12	0.251359
13	0.0161655

degree distribution (degree-occurrences) 
10	0.765363
11	0.150838
12	0.0782123
13	0.00558659


--------------------------------------
community distribution (size-occurrences)
10	0.285714
11	0.142857
13	0.142857
14	0.0714286
15	0.214286
16	0.142857


--------------------------------------
mixing parameter
0.3	0.00558659
0.4	0.201117
0.416667	0.0335196
0.454545	0.106145
0.461538	0.00558659
0.5	0.603352
0.545455	0.0446927

--------------------------------------
