1	25
1	30
2	24
2	33
3	30
3	32
4	26
4	34
5	30
5	34
6	31
6	33
7	11
7	25
8	27
8	32
9	33
9	34
10	21
10	30
11	7
11	26
12	17
12	31
13	14
13	22
13	32
14	13
14	21
14	34
15	28
15	31
15	33
16	20
16	31
16	33
17	12
17	20
17	31
18	19
18	24
18	31
19	18
19	24
19	33
20	16
20	17
20	33
21	10
21	14
21	28
21	29
22	13
22	25
22	27
22	34
23	26
23	28
23	29
23	34
24	2
24	18
24	19
24	31
24	33
25	1
25	7
25	22
25	30
25	34
26	4
26	11
26	23
26	32
26	34
27	8
27	22
27	28
27	30
27	34
28	15
28	21
28	23
28	27
28	32
28	34
29	21
29	23
29	30
29	32
29	34
30	1
30	3
30	5
30	10
30	25
30	27
30	29
30	34
31	6
31	12
31	15
31	16
31	17
31	18
31	24
31	32
31	33
32	3
32	8
32	13
32	26
32	28
32	29
32	31
32	33
32	34
33	2
33	6
33	9
33	15
33	16
33	19
33	20
33	24
33	31
33	32
34	4
34	5
34	9
34	14
34	22
34	23
34	25
34	26
34	27
34	28
34	29
34	30
34	32
