1	36
1	43
1	45
1	61
1	72
1	81
1	90
1	94
1	111
1	171
2	16
2	50
2	76
2	95
2	106
2	128
2	143
2	144
2	151
2	169
3	27
3	40
3	66
3	101
3	133
3	144
3	158
3	163
3	171
3	173
4	5
4	36
4	43
4	82
4	96
4	103
4	107
4	171
4	172
4	177
5	4
5	7
5	46
5	56
5	68
5	101
5	150
5	164
5	172
5	177
6	49
6	53
6	64
6	103
6	104
6	110
6	152
6	154
6	159
6	179
7	5
7	15
7	30
7	56
7	76
7	78
7	96
7	123
7	134
7	136
8	14
8	29
8	32
8	35
8	48
8	51
8	62
8	106
8	137
8	160
9	18
9	30
9	40
9	67
9	85
9	87
9	99
9	117
9	160
9	162
10	16
10	28
10	38
10	68
10	72
10	91
10	115
10	124
10	128
10	148
11	20
11	41
11	44
11	45
11	82
11	96
11	141
11	159
11	164
11	173
12	19
12	62
12	124
12	129
12	130
12	138
12	144
12	152
12	157
12	170
13	39
13	65
13	81
13	91
13	99
13	107
13	128
13	148
13	160
13	173
14	8
14	19
14	33
14	35
14	37
14	53
14	55
14	129
14	142
14	155
15	7
15	30
15	56
15	59
15	90
15	101
15	106
15	141
15	143
15	160
16	2
16	10
16	38
16	60
16	86
16	87
16	95
16	127
16	132
16	169
17	21
17	30
17	69
17	113
17	121
17	129
17	161
17	177
17	178
17	179
18	9
18	27
18	31
18	39
18	48
18	52
18	77
18	79
18	89
18	150
19	12
19	14
19	57
19	62
19	97
19	101
19	110
19	129
19	156
19	170
20	11
20	22
20	23
20	35
20	109
20	119
20	129
20	161
20	163
20	174
21	17
21	29
21	46
21	103
21	107
21	119
21	136
21	137
21	147
21	168
22	20
22	31
22	53
22	55
22	66
22	108
22	114
22	115
22	119
22	153
23	20
23	25
23	37
23	47
23	64
23	104
23	112
23	117
23	118
23	126
24	25
24	48
24	52
24	113
24	125
24	127
24	153
24	162
24	165
24	166
25	23
25	24
25	33
25	50
25	97
25	98
25	104
25	127
25	148
25	162
26	36
26	40
26	77
26	95
26	104
26	121
26	140
26	159
26	177
26	179
27	3
27	18
27	34
27	50
27	55
27	70
27	79
27	89
27	157
27	158
28	10
28	38
28	49
28	63
28	65
28	71
28	75
28	84
28	85
28	148
29	8
29	21
29	48
29	56
29	63
29	88
29	109
29	142
29	155
29	167
30	7
30	9
30	15
30	17
30	40
30	47
30	70
30	85
30	156
30	169
31	18
31	22
31	39
31	52
31	81
31	88
31	94
31	140
31	158
31	171
32	8
32	35
32	48
32	84
32	105
32	142
32	152
32	154
32	166
32	174
33	14
33	25
33	50
33	73
33	96
33	97
33	109
33	149
33	151
33	165
34	27
34	38
34	70
34	89
34	131
34	142
34	149
34	151
34	167
34	177
35	8
35	14
35	20
35	32
35	55
35	63
35	86
35	100
35	126
35	166
36	1
36	4
36	26
36	43
36	45
36	140
36	156
36	167
36	170
36	171
37	14
37	23
37	60
37	83
37	110
37	117
37	118
37	126
37	138
37	146
38	10
38	16
38	28
38	34
38	51
38	58
38	65
38	71
38	122
38	124
39	13
39	18
39	31
39	42
39	71
39	80
39	99
39	118
39	154
39	157
40	3
40	9
40	26
40	30
40	49
40	67
40	108
40	134
40	138
40	160
41	11
41	65
41	68
41	69
41	77
41	82
41	93
41	108
41	141
41	176
42	39
42	46
42	47
42	60
42	82
42	103
42	105
42	147
42	170
42	172
43	1
43	4
43	36
43	45
43	83
43	88
43	94
43	143
43	145
43	171
44	11
44	60
44	61
44	73
44	87
44	100
44	103
44	144
44	169
44	179
45	1
45	11
45	36
45	43
45	88
45	94
45	117
45	147
45	164
45	175
46	5
46	21
46	42
46	55
46	77
46	79
46	84
46	86
46	107
46	119
47	23
47	30
47	42
47	79
47	83
47	118
47	130
47	146
47	152
47	168
48	8
48	18
48	24
48	29
48	32
48	98
48	123
48	152
48	166
48	167
49	6
49	28
49	40
49	52
49	67
49	72
49	85
49	136
49	151
49	172
50	2
50	25
50	27
50	33
50	97
50	116
50	153
50	165
50	168
50	178
51	8
51	38
51	93
51	97
51	99
51	111
51	120
51	153
51	159
51	178
52	18
52	24
52	31
52	49
52	70
52	84
52	89
52	104
52	131
52	158
53	6
53	14
53	22
53	54
53	69
53	74
53	98
53	132
53	174
53	176
54	53
54	62
54	63
54	78
54	100
54	110
54	121
54	123
54	138
54	170
55	14
55	22
55	27
55	35
55	46
55	150
55	154
55	155
55	167
55	174
56	5
56	7
56	15
56	29
56	78
56	130
56	134
56	136
56	160
56	173
57	19
57	64
57	78
57	96
57	103
57	110
57	121
57	129
57	138
57	152
58	38
58	72
58	101
58	116
58	134
58	145
58	163
58	165
58	173
58	174
59	15
59	86
59	112
59	117
59	118
59	145
59	146
59	149
59	166
59	168
60	16
60	37
60	42
60	44
60	87
60	106
60	108
60	138
60	169
60	175
61	1
61	44
61	86
61	106
61	126
61	133
61	135
61	144
61	159
61	167
62	8
62	12
62	19
62	54
62	100
62	118
62	130
62	137
62	139
62	170
63	28
63	29
63	35
63	54
63	91
63	142
63	145
63	154
63	155
63	169
64	6
64	23
64	57
64	82
64	93
64	113
64	152
64	163
64	167
64	177
65	13
65	28
65	38
65	41
65	111
65	122
65	128
65	143
65	157
65	179
66	3
66	22
66	92
66	114
66	137
66	141
66	145
66	155
66	163
66	173
67	9
67	40
67	49
67	87
67	118
67	123
67	129
67	130
67	151
67	156
68	5
68	10
68	41
68	82
68	84
68	104
68	137
68	160
68	164
68	177
69	17
69	41
69	53
69	74
69	89
69	98
69	105
69	108
69	114
69	115
70	27
70	30
70	34
70	52
70	87
70	89
70	120
70	127
70	149
70	158
71	28
71	38
71	39
71	75
71	80
71	90
71	97
71	109
71	128
71	144
72	1
72	10
72	49
72	58
72	92
72	102
72	125
72	139
72	150
72	153
73	33
73	44
73	89
73	94
73	127
73	140
73	147
73	153
73	162
73	165
74	53
74	69
74	80
74	98
74	109
74	115
74	135
74	153
74	162
74	169
75	28
75	71
75	80
75	99
75	102
75	109
75	132
75	148
75	157
75	170
76	2
76	7
76	81
76	83
76	85
76	90
76	93
76	96
76	136
76	156
77	18
77	26
77	41
77	46
77	79
77	94
77	131
77	136
77	149
77	158
78	7
78	54
78	56
78	57
78	94
78	100
78	110
78	119
78	129
78	166
79	18
79	27
79	46
79	47
79	77
79	80
79	89
79	131
79	146
79	149
80	39
80	71
80	74
80	75
80	79
80	91
80	121
80	132
80	149
80	157
81	1
81	13
81	31
81	76
81	82
81	88
81	90
81	140
81	171
81	179
82	4
82	11
82	41
82	42
82	64
82	68
82	81
82	87
82	143
82	162
83	37
83	43
83	47
83	76
83	99
83	112
83	117
83	161
83	168
83	172
84	28
84	32
84	46
84	52
84	68
84	107
84	132
84	141
84	151
84	172
85	9
85	28
85	30
85	49
85	76
85	113
85	134
85	160
85	164
85	178
86	16
86	35
86	46
86	59
86	61
86	87
86	135
86	142
86	144
86	175
87	9
87	16
87	44
87	60
87	67
87	70
87	82
87	86
87	135
87	169
88	29
88	31
88	43
88	45
88	81
88	140
88	157
88	158
88	171
88	179
89	18
89	27
89	34
89	52
89	69
89	70
89	73
89	79
89	112
89	170
90	1
90	15
90	71
90	76
90	81
90	134
90	137
90	147
90	151
90	156
91	10
91	13
91	63
91	80
91	111
91	122
91	148
91	154
91	157
91	159
92	66
92	72
92	102
92	107
92	116
92	117
92	131
92	135
92	136
92	139
93	41
93	51
93	64
93	76
93	113
93	120
93	159
93	172
93	173
93	178
94	1
94	31
94	43
94	45
94	73
94	77
94	78
94	107
94	140
94	178
95	2
95	16
95	26
95	106
95	112
95	143
95	156
95	175
95	176
95	179
96	4
96	7
96	11
96	33
96	57
96	76
96	105
96	141
96	172
96	176
97	19
97	25
97	33
97	50
97	51
97	71
97	99
97	123
97	127
97	162
98	25
98	48
98	53
98	69
98	74
98	119
98	121
98	147
98	154
98	161
99	9
99	13
99	39
99	51
99	75
99	83
99	97
99	122
99	128
99	148
100	35
100	44
100	54
100	62
100	78
100	110
100	138
100	140
100	148
100	173
101	3
101	5
101	15
101	19
101	58
101	102
101	103
101	112
101	133
101	139
102	72
102	75
102	92
102	101
102	133
102	144
102	150
102	151
102	173
102	176
103	4
103	6
103	21
103	42
103	44
103	57
103	101
103	143
103	147
103	164
104	6
104	23
104	25
104	26
104	52
104	68
104	113
104	159
104	161
104	177
105	32
105	42
105	69
105	96
105	110
105	147
105	164
105	171
105	172
105	176
106	2
106	8
106	15
106	60
106	61
106	95
106	125
106	143
106	154
106	164
107	4
107	13
107	21
107	46
107	84
107	92
107	94
107	115
107	176
107	178
108	22
108	40
108	41
108	60
108	69
108	114
108	119
108	161
108	172
108	174
109	20
109	29
109	33
109	71
109	74
109	75
109	114
109	115
109	124
109	132
110	6
110	19
110	37
110	54
110	57
110	78
110	100
110	105
110	130
110	134
111	1
111	51
111	65
111	91
111	116
111	120
111	152
111	159
111	168
111	177
112	23
112	59
112	83
112	89
112	95
112	101
112	117
112	131
112	138
112	168
113	17
113	24
113	64
113	85
113	93
113	104
113	116
113	120
113	121
113	148
114	22
114	66
114	69
114	108
114	109
114	132
114	133
114	144
114	158
114	166
115	10
115	22
115	69
115	74
115	107
115	109
115	124
115	127
115	142
115	174
116	50
116	58
116	92
116	111
116	113
116	133
116	150
116	157
116	163
116	173
117	9
117	23
117	37
117	45
117	59
117	83
117	92
117	112
117	146
117	156
118	23
118	37
118	39
118	47
118	59
118	62
118	67
118	126
118	145
118	161
119	20
119	21
119	22
119	46
119	78
119	98
119	108
119	121
119	124
119	161
120	51
120	70
120	93
120	111
120	113
120	122
120	125
120	152
120	169
120	179
121	17
121	26
121	54
121	57
121	80
121	98
121	113
121	119
121	178
121	179
122	38
122	65
122	91
122	99
122	120
122	127
122	128
122	146
122	157
122	175
123	7
123	48
123	54
123	67
123	97
123	127
123	134
123	153
123	162
123	165
124	10
124	12
124	38
124	109
124	115
124	119
124	132
124	158
124	161
124	174
125	24
125	72
125	106
125	120
125	133
125	139
125	150
125	163
125	176
125	178
126	23
126	35
126	37
126	61
126	118
126	135
126	136
126	146
126	168
126	171
127	16
127	24
127	25
127	70
127	73
127	97
127	115
127	122
127	123
127	155
128	2
128	10
128	13
128	65
128	71
128	99
128	122
128	133
128	150
128	165
129	12
129	14
129	17
129	19
129	20
129	57
129	67
129	78
129	163
129	170
130	12
130	47
130	56
130	62
130	67
130	110
130	138
130	165
130	168
130	170
131	34
131	52
131	77
131	79
131	92
131	112
131	137
131	149
131	158
131	160
132	16
132	53
132	75
132	80
132	84
132	109
132	114
132	124
132	161
132	174
133	3
133	61
133	101
133	102
133	114
133	116
133	125
133	128
133	145
133	155
134	7
134	40
134	56
134	58
134	85
134	90
134	110
134	123
134	142
134	150
135	61
135	74
135	86
135	87
135	92
135	126
135	143
135	165
135	174
135	175
136	7
136	21
136	49
136	56
136	76
136	77
136	92
136	126
136	151
136	178
137	8
137	21
137	62
137	66
137	68
137	90
137	131
137	141
137	147
137	172
138	12
138	37
138	40
138	54
138	57
138	60
138	100
138	112
138	130
138	141
139	62
139	72
139	92
139	101
139	125
139	141
139	145
139	157
139	159
139	177
140	26
140	31
140	36
140	73
140	81
140	88
140	94
140	100
140	163
140	171
140	179
141	11
141	15
141	41
141	66
141	84
141	96
141	137
141	138
141	139
141	146
141	176
142	14
142	29
142	32
142	34
142	63
142	86
142	115
142	134
142	154
142	155
142	164
143	2
143	15
143	43
143	65
143	82
143	95
143	103
143	106
143	135
143	144
143	175
144	2
144	3
144	12
144	44
144	61
144	71
144	86
144	102
144	114
144	143
144	175
145	43
145	58
145	59
145	63
145	66
145	118
145	133
145	139
145	150
145	155
145	173
146	37
146	47
146	59
146	79
146	117
146	122
146	126
146	141
146	148
146	149
146	168
147	21
147	42
147	45
147	73
147	90
147	98
147	103
147	105
147	137
147	162
147	176
148	10
148	13
148	25
148	28
148	75
148	91
148	99
148	100
148	113
148	146
148	173
149	33
149	34
149	59
149	70
149	77
149	79
149	80
149	131
149	146
149	158
149	169
150	5
150	18
150	55
150	72
150	102
150	116
150	125
150	128
150	134
150	145
150	163
151	2
151	33
151	34
151	49
151	67
151	84
151	90
151	102
151	136
151	156
151	162
152	6
152	12
152	32
152	47
152	48
152	57
152	64
152	111
152	120
152	178
152	179
153	22
153	24
153	50
153	51
153	72
153	73
153	74
153	123
153	161
153	162
153	165
154	6
154	32
154	39
154	55
154	63
154	91
154	98
154	106
154	142
154	166
154	167
155	14
155	29
155	55
155	63
155	66
155	127
155	133
155	142
155	145
155	166
155	167
156	19
156	30
156	36
156	67
156	76
156	90
156	95
156	117
156	151
156	160
156	165
157	12
157	27
157	39
157	65
157	75
157	80
157	88
157	91
157	116
157	122
157	139
158	3
158	27
158	31
158	52
158	70
158	77
158	88
158	114
158	124
158	131
158	149
159	6
159	11
159	26
159	51
159	61
159	91
159	93
159	104
159	111
159	139
159	167
160	8
160	9
160	13
160	15
160	40
160	56
160	68
160	85
160	131
160	156
160	164
161	17
161	20
161	83
161	98
161	104
161	108
161	118
161	119
161	124
161	132
161	153
162	9
162	24
162	25
162	73
162	74
162	82
162	97
162	123
162	147
162	151
162	153
163	3
163	20
163	58
163	64
163	66
163	116
163	125
163	129
163	140
163	150
163	174
164	5
164	11
164	45
164	68
164	85
164	103
164	105
164	106
164	142
164	160
164	176
165	24
165	33
165	50
165	58
165	73
165	123
165	128
165	130
165	135
165	153
165	156
166	24
166	32
166	35
166	48
166	59
166	78
166	114
166	154
166	155
166	167
166	175
167	29
167	34
167	36
167	48
167	55
167	61
167	64
167	154
167	155
167	159
167	166
168	21
168	47
168	50
168	59
168	83
168	111
168	112
168	126
168	130
168	146
168	175
169	2
169	16
169	30
169	44
169	60
169	63
169	74
169	87
169	120
169	149
169	175
170	12
170	19
170	36
170	42
170	54
170	62
170	75
170	89
170	129
170	130
170	174
171	1
171	3
171	4
171	31
171	36
171	43
171	81
171	88
171	105
171	126
171	140
171	176
172	4
172	5
172	42
172	49
172	83
172	84
172	93
172	96
172	105
172	108
172	137
172	177
173	3
173	11
173	13
173	56
173	58
173	66
173	93
173	100
173	102
173	116
173	145
173	148
174	20
174	32
174	53
174	55
174	58
174	108
174	115
174	124
174	132
174	135
174	163
174	170
175	45
175	60
175	86
175	95
175	122
175	135
175	143
175	144
175	166
175	168
175	169
175	176
176	41
176	53
176	95
176	96
176	102
176	105
176	107
176	125
176	141
176	147
176	164
176	171
176	175
177	4
177	5
177	17
177	26
177	34
177	64
177	68
177	104
177	111
177	139
177	172
177	178
177	179
178	17
178	50
178	51
178	85
178	93
178	94
178	107
178	121
178	125
178	136
178	152
178	177
178	179
179	6
179	17
179	26
179	44
179	65
179	81
179	88
179	95
179	120
179	121
179	140
179	152
179	177
179	178
