1	1 
2	2 
3	11 
4	1 
5	9 
6	6 
7	6 
8	12 
9	6 
10	5 
11	10 
12	3 
13	7 
14	13 
15	11 
16	1 
17	8 
18	4 
19	8 
20	2 
21	6 
22	5 
23	10 
24	1 
25	13 
26	12 
27	11 
28	5 
29	4 
30	11 
31	3 
32	5 
33	5 
34	10 
35	5 
36	13 
37	1 
38	11 
39	8 
40	8 
41	5 
42	4 
43	7 
44	1 
45	13 
46	3 
47	9 
48	7 
49	11 
50	5 
51	13 
52	8 
53	6 
54	3 
55	9 
56	12 
57	4 
58	3 
59	6 
60	13 
61	13 
62	2 
63	9 
64	4 
65	8 
66	3 
67	7 
68	6 
69	8 
70	10 
71	7 
72	10 
73	13 
74	10 
75	7 
76	5 
77	4 
78	6 
79	8 
80	11 
81	12 
82	4 
83	5 
84	13 
85	12 
86	5 
87	9 
88	5 
89	5 
90	9 
91	6 
92	6 
93	7 
94	4 
95	7 
96	8 
97	11 
98	6 
99	13 
100	9 
101	5 
102	12 
103	12 
104	4 
105	3 
106	12 
107	1 
108	2 
109	11 
110	10 
111	11 
112	2 
113	5 
114	1 
115	11 
116	8 
117	11 
118	3 
119	1 
120	2 
121	9 
122	7 
123	7 
124	12 
125	9 
126	12 
127	1 
128	4 
129	5 
130	3 
131	13 
132	12 
133	8 
134	6 
135	3 
136	10 
137	4 
138	6 
139	1 
140	5 
141	10 
142	8 
143	11 
144	5 
145	10 
146	11 
147	12 
148	8 
149	9 
150	3 
151	10 
152	11 
153	5 
154	13 
155	5 
156	10 
157	10 
158	2 
159	6 
160	4 
161	2 
162	8 
163	2 
164	2 
165	13 
166	2 
167	9 
168	1 
169	2 
170	2 
171	5 
172	3 
173	4 
174	11 
175	10 
176	5 
177	2 
178	2 
179	5 
