degree distribution (probability density function of the degree in logarithmic bins) 
10	2.13866
11	0.534212
12	0.0827862
13	0.0386992
14	0.0466448

degree distribution (degree-occurrences) 
10	0.731844
11	0.195531
12	0.0335196
13	0.0167598
14	0.0223464


--------------------------------------
community distribution (size-occurrences)
10	0.0714286
11	0.285714
13	0.357143
14	0.0714286
15	0.142857
16	0.0714286


--------------------------------------
mixing parameter
0	0.0111732
0.0996132	0.26257
0.142857	0.0111732
0.153846	0.0167598
0.166667	0.0335196
0.181818	0.184358
0.2	0.463687
0.214286	0.0111732
0.3	0.00558659

--------------------------------------
