1	24
1	29
2	31
2	32
3	10
3	33
4	5
4	26
5	4
5	33
6	31
6	34
7	32
7	33
8	23
8	32
9	12
9	30
10	3
10	33
11	31
11	34
12	9
12	34
13	16
13	34
14	15
14	18
15	14
15	20
15	22
16	13
16	31
16	32
17	19
17	27
17	30
18	14
18	31
18	32
19	17
19	25
19	30
20	15
20	22
20	29
21	30
21	33
21	34
22	15
22	20
22	33
23	8
23	26
23	32
24	1
24	30
24	34
25	19
25	28
25	33
25	34
26	4
26	23
26	28
26	32
27	17
27	29
27	31
27	33
27	34
28	25
28	26
28	29
28	32
28	33
28	34
29	1
29	20
29	27
29	28
29	33
29	34
30	9
30	17
30	19
30	21
30	24
30	33
30	34
31	2
31	6
31	11
31	16
31	18
31	27
31	32
31	34
32	2
32	7
32	8
32	16
32	18
32	23
32	26
32	28
32	31
32	33
32	34
33	3
33	5
33	7
33	10
33	21
33	22
33	25
33	27
33	28
33	29
33	30
33	32
33	34
34	6
34	11
34	12
34	13
34	21
34	24
34	25
34	27
34	28
34	29
34	30
34	31
34	32
34	33
