1	6 
2	7 
3	1 
4	2 
5	5 
6	3 
7	8 
8	6 
9	4 
10	4 
11	2 
12	6 
13	5 
14	7 
15	1 
16	4 
17	4 
18	3 
19	3 
20	4 
21	4 
22	5 
23	8 
24	5 
25	1 
26	6 
27	7 
28	5 
29	6 
30	7 
31	8 
32	7 
33	5 
34	8 
35	4 
36	3 
37	7 
38	5 
39	1 
40	2 
41	1 
42	7 
43	3 
44	3 
45	7 
46	3 
47	4 
48	5 
49	3 
50	1 
51	4 
52	5 
53	4 
54	2 
55	2 
56	8 
57	3 
58	7 
59	8 
60	1 
