1	5
1	27
1	61
1	79
1	85
1	103
1	147
1	150
1	156
1	179
2	18
2	60
2	74
2	80
2	95
2	131
2	133
2	134
2	140
2	173
3	6
3	8
3	72
3	105
3	118
3	138
3	143
3	152
3	169
3	170
4	21
4	24
4	31
4	35
4	38
4	94
4	116
4	117
4	141
4	167
5	1
5	58
5	70
5	74
5	80
5	83
5	134
5	136
5	147
5	163
6	3
6	11
6	81
6	105
6	118
6	119
6	138
6	152
6	154
6	170
7	14
7	15
7	94
7	115
7	143
7	146
7	148
7	171
7	177
7	178
8	3
8	48
8	83
8	97
8	101
8	111
8	115
8	123
8	166
8	174
9	17
9	38
9	48
9	82
9	83
9	101
9	111
9	160
9	163
9	166
10	41
10	56
10	73
10	75
10	110
10	114
10	124
10	149
10	153
10	169
11	6
11	24
11	72
11	100
11	105
11	118
11	119
11	138
11	143
11	170
12	29
12	56
12	68
12	73
12	75
12	114
12	167
12	169
12	175
12	178
13	26
13	40
13	42
13	50
13	61
13	68
13	91
13	113
13	157
13	175
14	7
14	30
14	46
14	55
14	87
14	88
14	146
14	148
14	171
14	177
15	7
15	30
15	37
15	40
15	46
15	122
15	148
15	171
15	177
15	178
16	57
16	78
16	88
16	99
16	104
16	122
16	136
16	153
16	155
16	176
17	9
17	22
17	53
17	82
17	97
17	107
17	120
17	124
17	166
17	174
18	2
18	44
18	49
18	60
18	77
18	81
18	92
18	126
18	154
18	168
19	37
19	49
19	60
19	81
19	86
19	93
19	99
19	113
19	126
19	141
20	45
20	71
20	90
20	102
20	128
20	137
20	139
20	140
20	161
20	168
21	4
21	35
21	36
21	39
21	51
21	89
21	94
21	113
21	116
21	176
22	17
22	48
22	101
22	107
22	108
22	111
22	115
22	160
22	174
22	179
23	25
23	47
23	67
23	86
23	122
23	139
23	150
23	157
23	161
23	172
24	4
24	11
24	26
24	31
24	35
24	38
24	39
24	94
24	99
24	176
25	23
25	55
25	59
25	61
25	69
25	95
25	112
25	125
25	159
25	172
26	13
26	24
26	29
26	32
26	50
26	57
26	68
26	89
26	92
26	113
27	1
27	46
27	79
27	84
27	125
27	137
27	150
27	165
27	168
27	179
28	30
28	46
28	65
28	87
28	114
28	125
28	145
28	146
28	148
28	177
29	12
29	26
29	42
29	50
29	66
29	89
29	91
29	113
29	145
29	170
30	14
30	15
30	28
30	46
30	65
30	72
30	127
30	166
30	171
30	178
31	4
31	24
31	35
31	36
31	39
31	70
31	94
31	111
31	167
31	176
32	26
32	41
32	43
32	78
32	88
32	96
32	108
32	122
32	155
32	156
33	56
33	64
33	73
33	75
33	110
33	124
33	128
33	129
33	149
33	161
34	55
34	72
34	100
34	118
34	123
34	132
34	147
34	151
34	162
34	176
35	4
35	21
35	24
35	31
35	39
35	74
35	82
35	94
35	110
35	176
36	21
36	31
36	51
36	76
36	94
36	106
36	116
36	167
36	171
36	176
37	15
37	19
37	49
37	60
37	66
37	81
37	99
37	126
37	154
37	177
38	4
38	9
38	24
38	51
38	94
38	107
38	116
38	151
38	167
38	176
39	21
39	24
39	31
39	35
39	51
39	63
39	78
39	104
39	167
39	176
40	13
40	15
40	68
40	91
40	92
40	120
40	134
40	145
40	158
40	164
41	10
41	32
41	43
41	53
41	57
41	81
41	96
41	122
41	127
41	165
42	13
42	29
42	61
42	68
42	91
42	101
42	113
42	130
42	160
42	164
43	32
43	41
43	76
43	88
43	95
43	96
43	99
43	104
43	153
43	158
44	18
44	47
44	66
44	70
44	77
44	121
44	141
44	154
44	159
44	168
45	20
45	62
45	64
45	90
45	102
45	128
45	130
45	137
45	161
45	176
46	14
46	15
46	27
46	28
46	30
46	65
46	87
46	96
46	177
46	178
47	23
47	44
47	59
47	84
47	95
47	106
47	108
47	139
47	157
47	172
48	8
48	9
48	22
48	97
48	101
48	115
48	155
48	160
48	162
48	166
49	18
49	19
49	37
49	63
49	66
49	77
49	87
49	116
49	141
49	154
50	13
50	26
50	29
50	68
50	87
50	89
50	92
50	145
50	164
50	173
51	21
51	36
51	38
51	39
51	96
51	116
51	121
51	144
51	167
51	176
52	70
52	80
52	100
52	133
52	134
52	136
52	140
52	154
52	163
52	173
53	17
53	41
53	64
53	69
53	96
53	104
53	120
53	122
53	153
53	158
54	60
54	63
54	84
54	85
54	125
54	137
54	142
54	156
54	165
54	179
55	14
55	25
55	34
55	93
55	100
55	109
55	132
55	135
55	146
55	162
56	10
56	12
56	33
56	73
56	103
56	106
56	114
56	129
56	173
56	174
57	16
57	26
57	41
57	76
57	77
57	78
57	92
57	127
57	155
57	158
58	5
58	65
58	74
58	133
58	136
58	144
58	158
58	163
58	172
58	173
59	25
59	47
59	72
59	86
59	90
59	95
59	139
59	155
59	157
59	159
60	2
60	18
60	19
60	37
60	54
60	66
60	81
60	126
60	154
60	168
61	1
61	13
61	25
61	42
61	65
61	89
61	92
61	113
61	145
61	164
62	45
62	71
62	73
62	98
62	102
62	128
62	130
62	137
62	158
62	161
63	39
63	49
63	54
63	93
63	109
63	123
63	135
63	147
63	151
63	162
64	33
64	45
64	53
64	75
64	106
64	129
64	149
64	159
64	169
64	175
65	28
65	30
65	46
65	58
65	61
65	87
65	128
65	171
65	177
65	178
66	29
66	37
66	44
66	49
66	60
66	77
66	121
66	126
66	149
66	168
67	23
67	88
67	108
67	112
67	117
67	139
67	152
67	157
67	159
67	172
68	12
68	13
68	26
68	40
68	42
68	50
68	78
68	87
68	91
68	164
69	25
69	53
69	86
69	95
69	108
69	112
69	117
69	134
69	157
69	159
70	5
70	31
70	44
70	52
70	131
70	133
70	134
70	140
70	144
70	163
71	20
71	62
71	90
71	93
71	98
71	102
71	128
71	130
71	150
71	172
72	3
72	11
72	30
72	34
72	59
72	118
72	119
72	143
72	152
72	170
73	10
73	12
73	33
73	56
73	62
73	90
73	106
73	107
73	169
73	175
74	2
74	5
74	35
74	58
74	80
74	134
74	140
74	144
74	150
74	173
75	10
75	12
75	33
75	64
75	85
75	91
75	105
75	149
75	169
75	175
76	36
76	43
76	57
76	88
76	104
76	127
76	136
76	155
76	158
76	174
77	18
77	44
77	49
77	57
77	66
77	99
77	101
77	126
77	141
77	168
78	16
78	32
78	39
78	57
78	68
78	104
78	111
78	127
78	153
78	155
79	1
79	27
79	103
79	125
79	139
79	142
79	150
79	156
79	160
79	179
80	2
80	5
80	52
80	74
80	102
80	131
80	143
80	144
80	163
80	173
81	6
81	18
81	19
81	37
81	41
81	60
81	99
81	121
81	141
81	169
82	9
82	17
82	35
82	83
82	107
82	115
82	127
82	153
82	160
82	174
83	5
83	8
83	9
83	82
83	85
83	97
83	101
83	115
83	159
83	174
84	27
84	47
84	54
84	85
84	125
84	150
84	156
84	157
84	165
84	179
85	1
85	54
85	75
85	83
85	84
85	103
85	142
85	150
85	165
85	179
86	19
86	23
86	59
86	69
86	112
86	117
86	157
86	159
86	164
86	177
87	14
87	28
87	46
87	49
87	50
87	65
87	68
87	146
87	177
87	178
88	14
88	16
88	32
88	43
88	67
88	76
88	122
88	145
88	153
88	158
89	21
89	26
89	29
89	50
89	61
89	91
89	98
89	106
89	120
89	164
90	20
90	45
90	59
90	71
90	73
90	98
90	130
90	137
90	161
90	169
91	13
91	29
91	40
91	42
91	68
91	75
91	89
91	120
91	145
91	178
92	18
92	26
92	40
92	50
92	57
92	61
92	113
92	120
92	145
92	164
93	19
93	55
93	63
93	71
93	109
93	132
93	135
93	147
93	151
93	162
94	4
94	7
94	21
94	24
94	31
94	35
94	36
94	38
94	135
94	167
95	2
95	25
95	43
95	47
95	59
95	69
95	108
95	112
95	117
95	139
96	32
96	41
96	43
96	46
96	51
96	53
96	119
96	127
96	155
96	158
97	8
97	17
97	48
97	83
97	101
97	107
97	123
97	148
97	151
97	160
98	62
98	71
98	89
98	90
98	102
98	128
98	130
98	137
98	161
98	170
99	16
99	19
99	24
99	37
99	43
99	77
99	81
99	121
99	154
99	168
100	11
100	34
100	52
100	55
100	109
100	123
100	132
100	135
100	147
100	162
101	8
101	9
101	22
101	42
101	48
101	77
101	83
101	97
101	115
101	174
102	20
102	45
102	62
102	71
102	80
102	98
102	111
102	128
102	130
102	146
103	1
103	56
103	79
103	85
103	125
103	142
103	156
103	161
103	165
103	179
104	16
104	39
104	43
104	53
104	76
104	78
104	127
104	131
104	153
104	155
105	3
105	6
105	11
105	75
105	119
105	138
105	142
105	143
105	152
105	170
106	36
106	47
106	56
106	64
106	73
106	89
106	114
106	124
106	149
106	175
107	17
107	22
107	38
107	73
107	82
107	97
107	111
107	152
107	160
107	166
108	22
108	32
108	47
108	67
108	69
108	95
108	112
108	121
108	157
108	172
109	55
109	63
109	93
109	100
109	123
109	129
109	135
109	148
109	151
109	162
110	10
110	33
110	35
110	114
110	124
110	126
110	129
110	149
110	160
110	169
111	8
111	9
111	22
111	31
111	78
111	102
111	107
111	160
111	166
111	174
112	25
112	67
112	69
112	86
112	95
112	108
112	114
112	117
112	162
112	164
113	13
113	19
113	21
113	26
113	29
113	42
113	61
113	92
113	120
113	145
114	10
114	12
114	28
114	56
114	106
114	110
114	112
114	117
114	124
114	169
115	7
115	8
115	22
115	48
115	82
115	83
115	101
115	120
115	166
115	174
116	4
116	21
116	36
116	38
116	49
116	51
116	133
116	167
116	170
116	176
117	4
117	67
117	69
117	86
117	95
117	112
117	114
117	152
117	159
117	172
118	3
118	6
118	11
118	34
118	72
118	119
118	132
118	138
118	143
118	152
119	6
119	11
119	72
119	96
119	105
119	118
119	138
119	151
119	152
119	170
120	17
120	40
120	53
120	89
120	91
120	92
120	113
120	115
120	145
120	164
121	44
121	51
121	66
121	81
121	99
121	108
121	126
121	141
121	154
121	168
122	15
122	16
122	23
122	32
122	41
122	53
122	88
122	153
122	155
122	158
123	8
123	34
123	63
123	97
123	100
123	109
123	130
123	147
123	151
123	162
124	10
124	17
124	33
124	106
124	110
124	114
124	129
124	142
124	149
124	156
125	25
125	27
125	28
125	54
125	79
125	84
125	103
125	131
125	142
125	179
126	18
126	19
126	37
126	60
126	66
126	77
126	110
126	121
126	138
126	168
127	30
127	41
127	57
127	76
127	78
127	82
127	96
127	104
127	153
127	158
128	20
128	33
128	45
128	62
128	65
128	71
128	98
128	102
128	137
128	161
129	33
129	56
129	64
129	109
129	110
129	124
129	148
129	149
129	173
129	175
130	42
130	45
130	62
130	71
130	90
130	98
130	102
130	123
130	137
130	161
131	2
131	70
131	80
131	104
131	125
131	134
131	136
131	140
131	153
131	163
132	34
132	55
132	93
132	100
132	118
132	135
132	139
132	147
132	151
132	162
132	167
133	2
133	52
133	58
133	70
133	116
133	134
133	136
133	140
133	146
133	167
133	173
134	2
134	5
134	40
134	52
134	69
134	70
134	74
134	131
134	133
134	145
134	173
135	55
135	63
135	93
135	94
135	100
135	109
135	132
135	143
135	147
135	151
135	165
136	5
136	16
136	52
136	58
136	76
136	131
136	133
136	138
136	140
136	144
136	163
137	20
137	27
137	45
137	54
137	62
137	90
137	98
137	128
137	130
137	161
137	175
138	3
138	6
138	11
138	105
138	118
138	119
138	126
138	136
138	143
138	170
138	178
139	20
139	23
139	47
139	59
139	67
139	79
139	95
139	132
139	157
139	159
139	172
140	2
140	20
140	52
140	70
140	74
140	131
140	133
140	136
140	141
140	144
140	156
141	4
141	19
141	44
141	49
141	77
141	81
141	121
141	140
141	154
141	168
141	178
142	54
142	79
142	85
142	103
142	105
142	124
142	125
142	150
142	165
142	177
142	179
143	3
143	7
143	11
143	72
143	80
143	105
143	118
143	135
143	138
143	152
143	170
144	51
144	58
144	70
144	74
144	80
144	136
144	140
144	149
144	163
144	173
144	179
145	28
145	29
145	40
145	50
145	61
145	88
145	91
145	92
145	113
145	120
145	134
146	7
146	14
146	28
146	55
146	87
146	102
146	133
146	148
146	171
146	177
146	178
147	1
147	5
147	34
147	63
147	93
147	100
147	123
147	132
147	135
147	151
147	175
148	7
148	14
148	15
148	28
148	97
148	109
148	129
148	146
148	171
148	177
148	178
149	10
149	33
149	64
149	66
149	75
149	106
149	110
149	124
149	129
149	144
149	175
150	1
150	23
150	27
150	71
150	74
150	79
150	84
150	85
150	142
150	156
150	179
151	34
151	38
151	63
151	93
151	97
151	109
151	119
151	123
151	132
151	135
151	147
152	3
152	6
152	67
152	72
152	105
152	107
152	117
152	118
152	119
152	143
152	170
153	10
153	16
153	43
153	53
153	78
153	82
153	88
153	104
153	122
153	127
153	131
154	6
154	18
154	37
154	44
154	49
154	52
154	60
154	99
154	121
154	141
154	172
155	16
155	32
155	48
155	57
155	59
155	76
155	78
155	96
155	104
155	122
155	165
156	1
156	32
156	54
156	79
156	84
156	103
156	124
156	140
156	150
156	165
156	179
157	13
157	23
157	47
157	59
157	67
157	69
157	84
157	86
157	108
157	139
157	172
158	40
158	43
158	53
158	57
158	58
158	62
158	76
158	88
158	96
158	122
158	127
159	25
159	44
159	59
159	64
159	67
159	69
159	83
159	86
159	117
159	139
159	172
160	9
160	22
160	42
160	48
160	79
160	82
160	97
160	107
160	110
160	111
160	166
161	20
161	23
161	33
161	45
161	62
161	90
161	98
161	103
161	128
161	130
161	137
162	34
162	48
162	55
162	63
162	93
162	100
162	109
162	112
162	123
162	132
162	168
163	5
163	9
163	52
163	58
163	70
163	80
163	131
163	136
163	144
163	173
163	179
164	40
164	42
164	50
164	61
164	68
164	86
164	89
164	92
164	112
164	120
164	169
165	27
165	41
165	54
165	84
165	85
165	103
165	135
165	142
165	155
165	156
165	179
166	8
166	9
166	17
166	30
166	48
166	107
166	111
166	115
166	160
166	174
166	175
167	4
167	12
167	31
167	36
167	38
167	39
167	51
167	94
167	116
167	132
167	133
167	171
168	18
168	20
168	27
168	44
168	60
168	66
168	77
168	99
168	121
168	126
168	141
168	162
169	3
169	10
169	12
169	64
169	73
169	75
169	81
169	90
169	110
169	114
169	164
169	175
170	3
170	6
170	11
170	29
170	72
170	98
170	105
170	116
170	119
170	138
170	143
170	152
171	7
171	14
171	15
171	30
171	36
171	65
171	146
171	148
171	167
171	174
171	177
171	178
172	23
172	25
172	47
172	58
172	67
172	71
172	108
172	117
172	139
172	154
172	157
172	159
173	2
173	50
173	52
173	56
173	58
173	74
173	80
173	129
173	133
173	134
173	144
173	163
174	8
174	17
174	22
174	56
174	76
174	82
174	83
174	101
174	111
174	115
174	166
174	171
175	12
175	13
175	64
175	73
175	75
175	106
175	129
175	137
175	147
175	149
175	166
175	169
176	16
176	21
176	24
176	31
176	34
176	35
176	36
176	38
176	39
176	45
176	51
176	116
177	7
177	14
177	15
177	28
177	37
177	46
177	65
177	86
177	87
177	142
177	146
177	148
177	171
177	178
178	7
178	12
178	15
178	30
178	46
178	65
178	87
178	91
178	138
178	141
178	146
178	148
178	171
178	177
179	1
179	22
179	27
179	54
179	79
179	84
179	85
179	103
179	125
179	142
179	144
179	150
179	156
179	163
179	165
