1	20
1	34
1	73
1	83
1	116
1	117
1	126
1	184
1	194
1	217
1	245
1	250
1	296
2	7
2	113
2	131
2	139
2	149
2	168
2	215
2	225
2	255
2	275
2	279
2	295
2	297
3	10
3	98
3	108
3	121
3	155
3	173
3	181
3	239
3	254
3	257
3	265
3	276
3	278
4	7
4	19
4	141
4	148
4	213
4	231
4	235
4	263
4	271
4	274
4	283
4	284
4	288
5	71
5	115
5	248
5	255
5	259
5	267
5	268
5	269
5	270
5	279
5	282
5	291
5	300
6	62
6	78
6	81
6	88
6	112
6	119
6	130
6	133
6	166
6	167
6	196
6	209
6	297
7	2
7	4
7	113
7	180
7	184
7	210
7	220
7	224
7	249
7	251
7	253
7	255
7	283
8	49
8	83
8	143
8	161
8	218
8	257
8	259
8	269
8	282
8	284
8	287
8	291
8	300
9	22
9	62
9	78
9	83
9	112
9	124
9	130
9	132
9	133
9	166
9	167
9	200
9	235
10	3
10	14
10	95
10	136
10	167
10	179
10	186
10	190
10	207
10	227
10	229
10	233
10	256
11	115
11	137
11	155
11	156
11	171
11	173
11	188
11	191
11	254
11	273
11	278
11	295
11	297
12	84
12	114
12	129
12	146
12	208
12	212
12	214
12	225
12	228
12	235
12	241
12	277
12	278
13	36
13	74
13	145
13	210
13	225
13	251
13	254
13	255
13	268
13	275
13	281
13	283
13	297
14	10
14	60
14	67
14	145
14	188
14	234
14	252
14	274
14	290
14	293
14	294
14	296
14	299
15	133
15	139
15	149
15	191
15	198
15	221
15	253
15	260
15	268
15	273
15	275
15	281
15	297
16	75
16	197
16	234
16	244
16	258
16	261
16	284
16	285
16	286
16	290
16	293
16	294
16	299
17	39
17	80
17	104
17	191
17	223
17	236
17	238
17	247
17	249
17	264
17	274
17	281
17	292
18	50
18	66
18	91
18	97
18	143
18	152
18	167
18	169
18	239
18	244
18	273
18	283
18	288
19	4
19	40
19	53
19	95
19	150
19	151
19	169
19	178
19	190
19	195
19	227
19	233
19	256
20	1
20	26
20	118
20	137
20	164
20	210
20	215
20	217
20	221
20	237
20	245
20	250
20	266
21	136
21	150
21	154
21	169
21	177
21	186
21	189
21	202
21	207
21	227
21	256
21	264
21	284
22	9
22	24
22	62
22	81
22	83
22	100
22	112
22	119
22	166
22	167
22	196
22	260
22	273
23	61
23	100
23	148
23	159
23	174
23	191
23	199
23	249
23	264
23	271
23	272
23	274
23	292
24	22
24	195
24	223
24	259
24	263
24	264
24	267
24	270
24	279
24	282
24	287
24	291
24	300
25	79
25	85
25	107
25	122
25	138
25	154
25	168
25	188
25	196
25	202
25	205
25	270
25	285
26	20
26	35
26	88
26	116
26	118
26	170
26	215
26	228
26	237
26	241
26	245
26	250
26	283
27	34
27	49
27	104
27	153
27	193
27	208
27	247
27	249
27	252
27	264
27	272
27	274
27	292
28	34
28	67
28	148
28	169
28	179
28	186
28	190
28	207
28	222
28	227
28	256
28	265
28	299
29	47
29	102
29	123
29	143
29	144
29	152
29	163
29	173
29	206
29	273
29	284
29	288
29	297
30	149
30	209
30	220
30	226
30	239
30	242
30	243
30	253
30	268
30	275
30	277
30	290
30	297
31	56
31	65
31	77
31	138
31	202
31	204
31	208
31	228
31	238
31	266
31	269
31	277
31	289
32	41
32	96
32	159
32	183
32	248
32	259
32	266
32	270
32	279
32	282
32	287
32	291
32	300
33	125
33	172
33	187
33	216
33	222
33	226
33	230
33	234
33	261
33	280
33	285
33	290
33	293
33	296
34	1
34	27
34	28
34	113
34	151
34	179
34	186
34	190
34	207
34	222
34	227
34	233
34	256
34	272
35	26
35	52
35	117
35	136
35	139
35	164
35	170
35	194
35	216
35	217
35	237
35	245
35	250
35	275
36	13
36	65
36	129
36	160
36	184
36	187
36	214
36	225
36	228
36	229
36	238
36	241
36	277
36	289
37	47
37	50
37	114
37	143
37	152
37	157
37	183
37	213
37	217
37	231
37	244
37	249
37	263
37	283
38	42
38	84
38	132
38	157
38	204
38	212
38	214
38	217
38	229
38	241
38	247
38	273
38	277
38	289
39	17
39	44
39	87
39	145
39	154
39	169
39	191
39	247
39	249
39	251
39	253
39	272
39	274
39	292
40	19
40	136
40	154
40	177
40	179
40	186
40	189
40	222
40	227
40	233
40	252
40	256
40	269
40	292
41	32
41	106
41	113
41	151
41	162
41	209
41	225
41	246
41	247
41	251
41	255
41	260
41	268
41	275
42	38
42	50
42	77
42	108
42	122
42	137
42	178
42	224
42	229
42	238
42	241
42	243
42	261
42	285
43	58
43	85
43	93
43	110
43	168
43	175
43	185
43	188
43	196
43	197
43	202
43	205
43	248
43	256
44	39
44	109
44	115
44	134
44	153
44	174
44	193
44	236
44	249
44	264
44	272
44	274
44	286
44	292
45	46
45	104
45	138
45	141
45	143
45	144
45	158
45	173
45	221
45	232
45	244
45	271
45	273
45	284
46	45
46	90
46	112
46	126
46	226
46	252
46	258
46	262
46	266
46	280
46	290
46	296
46	297
46	299
47	29
47	37
47	65
47	87
47	158
47	217
47	231
47	263
47	271
47	272
47	273
47	283
47	284
47	288
48	49
48	160
48	164
48	186
48	196
48	203
48	223
48	248
48	270
48	279
48	282
48	287
48	291
48	300
49	8
49	27
49	48
49	120
49	154
49	161
49	219
49	267
49	269
49	271
49	279
49	282
49	291
49	300
50	18
50	37
50	42
50	98
50	133
50	144
50	163
50	183
50	231
50	244
50	273
50	283
50	284
50	295
51	78
51	131
51	134
51	209
51	222
51	230
51	258
51	261
51	280
51	285
51	286
51	290
51	294
51	296
52	35
52	68
52	101
52	164
52	170
52	194
52	195
52	208
52	215
52	237
52	245
52	250
52	252
52	278
53	19
53	59
53	104
53	148
53	174
53	198
53	199
53	235
53	236
53	246
53	247
53	264
53	272
53	292
54	73
54	111
54	154
54	176
54	189
54	203
54	223
54	267
54	269
54	279
54	282
54	287
54	291
54	300
55	68
55	88
55	94
55	127
55	198
55	220
55	239
55	251
55	253
55	265
55	268
55	281
55	292
55	296
56	31
56	73
56	180
56	192
56	241
56	258
56	262
56	266
56	280
56	285
56	286
56	294
56	296
56	299
57	94
57	176
57	189
57	220
57	241
57	242
57	251
57	260
57	268
57	276
57	277
57	281
57	297
57	298
58	43
58	88
58	107
58	128
58	154
58	173
58	175
58	185
58	196
58	197
58	202
58	205
58	219
58	284
59	53
59	69
59	87
59	188
59	191
59	201
59	231
59	247
59	267
59	272
59	274
59	279
59	290
59	292
60	14
60	130
60	134
60	168
60	254
60	258
60	262
60	266
60	280
60	289
60	290
60	293
60	294
60	296
61	23
61	87
61	98
61	148
61	199
61	236
61	247
61	258
61	272
61	274
61	279
61	291
61	292
61	297
62	6
62	9
62	22
62	66
62	78
62	81
62	119
62	130
62	133
62	164
62	166
62	167
62	233
62	278
63	92
63	116
63	124
63	130
63	160
63	195
63	211
63	240
63	265
63	276
63	278
63	292
63	295
63	298
64	124
64	192
64	200
64	214
64	234
64	258
64	261
64	263
64	286
64	287
64	293
64	294
64	296
64	299
65	31
65	36
65	47
65	80
65	122
65	159
65	166
65	204
65	212
65	229
65	232
65	277
65	282
65	289
66	18
66	62
66	79
66	114
66	159
66	219
66	248
66	267
66	269
66	270
66	279
66	282
66	287
66	300
67	14
67	28
67	155
67	157
67	192
67	232
67	234
67	247
67	262
67	285
67	286
67	293
67	294
67	296
68	52
68	55
68	101
68	117
68	126
68	164
68	170
68	177
68	194
68	232
68	237
68	245
68	250
68	286
69	59
69	71
69	148
69	150
69	174
69	201
69	210
69	223
69	231
69	236
69	249
69	264
69	276
69	292
70	73
70	156
70	172
70	182
70	233
70	240
70	246
70	254
70	265
70	268
70	276
70	278
70	295
70	298
71	5
71	69
71	98
71	123
71	201
71	236
71	237
71	247
71	249
71	264
71	272
71	274
71	292
71	300
72	151
72	177
72	179
72	186
72	189
72	190
72	222
72	230
72	233
72	238
72	242
72	256
72	257
72	295
73	1
73	54
73	56
73	70
73	110
73	116
73	117
73	164
73	170
73	215
73	217
73	240
73	250
73	296
74	13
74	108
74	122
74	132
74	187
74	212
74	224
74	229
74	236
74	243
74	266
74	277
74	289
74	290
75	16
75	97
75	114
75	125
75	181
75	182
75	201
75	216
75	240
75	246
75	254
75	265
75	293
75	295
75	298
76	83
76	156
76	173
76	175
76	184
76	195
76	200
76	240
76	254
76	257
76	265
76	276
76	286
76	295
76	298
77	31
77	42
77	80
77	81
77	126
77	132
77	159
77	163
77	228
77	238
77	241
77	258
77	275
77	277
77	289
78	6
78	9
78	51
78	62
78	81
78	83
78	97
78	100
78	119
78	130
78	133
78	166
78	167
78	242
78	250
79	25
79	66
79	103
79	128
79	137
79	175
79	185
79	188
79	196
79	197
79	202
79	205
79	263
79	264
79	269
80	17
80	65
80	77
80	178
80	212
80	214
80	224
80	227
80	228
80	238
80	243
80	286
80	289
80	290
80	294
81	6
81	22
81	62
81	77
81	78
81	100
81	112
81	119
81	130
81	133
81	166
81	167
81	176
81	195
81	248
82	134
82	151
82	179
82	200
82	238
82	252
82	258
82	260
82	261
82	271
82	286
82	293
82	294
82	296
82	299
83	1
83	8
83	9
83	22
83	76
83	78
83	100
83	112
83	119
83	130
83	133
83	160
83	163
83	166
83	167
84	12
84	38
84	107
84	143
84	146
84	196
84	204
84	208
84	212
84	214
84	224
84	229
84	241
84	289
84	295
85	25
85	43
85	102
85	103
85	107
85	121
85	168
85	185
85	188
85	196
85	197
85	198
85	202
85	205
85	216
86	87
86	123
86	135
86	140
86	162
86	219
86	221
86	231
86	232
86	235
86	263
86	271
86	283
86	288
86	297
87	39
87	47
87	59
87	61
87	86
87	104
87	148
87	236
87	247
87	264
87	270
87	272
87	274
87	276
87	292
88	6
88	26
88	55
88	58
88	176
88	179
88	184
88	220
88	225
88	242
88	260
88	268
88	275
88	281
88	297
89	104
89	154
89	174
89	193
89	199
89	219
89	236
89	247
89	249
89	264
89	265
89	268
89	272
89	274
89	292
90	46
90	142
90	157
90	168
90	221
90	258
90	261
90	278
90	280
90	285
90	286
90	289
90	293
90	296
90	299
91	18
91	120
91	135
91	144
91	163
91	181
91	213
91	221
91	231
91	242
91	268
91	274
91	282
91	283
91	284
92	63
92	105
92	129
92	140
92	171
92	194
92	219
92	223
92	248
92	267
92	270
92	279
92	282
92	291
92	300
93	43
93	142
93	165
93	192
93	200
93	215
93	257
93	261
93	266
93	285
93	286
93	287
93	289
93	296
93	299
94	55
94	57
94	125
94	127
94	131
94	141
94	184
94	190
94	209
94	212
94	220
94	251
94	253
94	265
94	297
95	10
95	19
95	150
95	169
95	186
95	201
95	207
95	222
95	227
95	233
95	252
95	256
95	273
95	285
95	287
96	32
96	102
96	108
96	240
96	242
96	248
96	252
96	269
96	270
96	279
96	282
96	287
96	291
96	296
96	300
97	18
97	75
97	78
97	171
97	183
97	226
97	231
97	232
97	243
97	263
97	271
97	273
97	283
97	284
97	288
98	3
98	50
98	61
98	71
98	134
98	185
98	193
98	211
98	236
98	247
98	249
98	264
98	272
98	274
98	292
99	113
99	127
99	128
99	132
99	149
99	176
99	180
99	192
99	225
99	253
99	255
99	260
99	270
99	281
99	297
100	22
100	23
100	78
100	81
100	83
100	112
100	119
100	130
100	133
100	166
100	167
100	176
100	191
100	206
100	293
101	52
101	68
101	105
101	110
101	117
101	126
101	166
101	194
101	215
101	217
101	245
101	250
101	253
101	261
101	274
102	29
102	85
102	96
102	114
102	150
102	203
102	218
102	239
102	259
102	279
102	282
102	287
102	288
102	291
102	300
103	79
103	85
103	154
103	168
103	172
103	175
103	188
103	196
103	197
103	202
103	205
103	220
103	242
103	265
103	292
104	17
104	27
104	45
104	53
104	87
104	89
104	141
104	148
104	153
104	172
104	247
104	264
104	272
104	292
104	296
105	92
105	101
105	116
105	118
105	126
105	128
105	194
105	215
105	217
105	218
105	237
105	245
105	250
105	271
105	277
106	41
106	107
106	116
106	142
106	176
106	198
106	218
106	225
106	239
106	253
106	255
106	260
106	268
106	275
106	281
107	25
107	58
107	84
107	85
107	106
107	154
107	168
107	175
107	185
107	188
107	196
107	197
107	200
107	202
107	205
107	211
108	3
108	42
108	74
108	96
108	159
108	160
108	187
108	200
108	204
108	208
108	224
108	228
108	229
108	255
108	277
108	289
109	44
109	115
109	156
109	206
109	211
109	216
109	246
109	254
109	257
109	261
109	278
109	279
109	281
109	288
109	298
109	300
110	43
110	73
110	101
110	116
110	140
110	164
110	170
110	189
110	194
110	199
110	215
110	217
110	237
110	245
110	250
110	286
111	54
111	118
111	150
111	171
111	203
111	205
111	219
111	259
111	261
111	267
111	269
111	270
111	279
111	287
111	291
111	300
112	6
112	9
112	22
112	46
112	81
112	83
112	100
112	119
112	130
112	133
112	166
112	167
112	260
112	269
112	285
112	295
113	2
113	7
113	34
113	41
113	99
113	116
113	176
113	182
113	210
113	216
113	242
113	251
113	275
113	276
113	281
113	297
114	12
114	37
114	66
114	75
114	102
114	160
114	218
114	248
114	259
114	267
114	269
114	270
114	280
114	282
114	287
114	300
115	5
115	11
115	44
115	109
115	125
115	137
115	147
115	180
115	195
115	207
115	211
115	276
115	278
115	291
115	295
115	298
116	1
116	26
116	63
116	73
116	105
116	106
116	110
116	113
116	194
116	215
116	217
116	237
116	245
116	250
116	253
116	272
117	1
117	35
117	68
117	73
117	101
117	118
117	165
117	170
117	194
117	201
117	215
117	237
117	245
117	247
117	250
117	297
118	20
118	26
118	105
118	111
118	117
118	126
118	155
118	156
118	164
118	202
118	215
118	217
118	227
118	237
118	245
118	250
119	6
119	22
119	62
119	78
119	81
119	83
119	100
119	112
119	133
119	148
119	153
119	166
119	167
119	224
119	228
119	295
120	49
120	91
120	135
120	163
120	187
120	231
120	232
120	244
120	251
120	263
120	271
120	273
120	283
120	288
120	293
120	297
121	3
121	85
121	137
121	155
121	160
121	206
121	216
121	218
121	240
121	246
121	249
121	265
121	282
121	288
121	295
121	298
122	25
122	42
122	65
122	74
122	129
122	131
122	150
122	159
122	178
122	208
122	227
122	241
122	243
122	277
122	289
122	291
123	29
123	71
123	86
123	213
123	221
123	223
123	232
123	241
123	244
123	247
123	263
123	271
123	273
123	283
123	284
123	288
124	9
124	63
124	64
124	147
124	155
124	182
124	211
124	240
124	257
124	261
124	262
124	276
124	278
124	293
124	295
124	298
125	33
125	75
125	94
125	115
125	155
125	156
125	181
125	216
125	240
125	243
125	254
125	258
125	265
125	267
125	278
125	298
126	1
126	46
126	68
126	77
126	101
126	105
126	118
126	164
126	194
126	203
126	215
126	217
126	237
126	245
126	250
126	290
127	55
127	94
127	99
127	181
127	197
127	209
127	215
127	231
127	233
127	239
127	242
127	251
127	253
127	260
127	268
127	297
128	58
128	79
128	99
128	105
128	154
128	168
128	175
128	185
128	188
128	196
128	197
128	202
128	205
128	235
128	262
128	281
129	12
129	36
129	92
129	122
129	187
129	204
129	208
129	214
129	238
129	243
129	246
129	247
129	258
129	277
129	289
129	292
130	6
130	9
130	60
130	62
130	63
130	78
130	81
130	83
130	100
130	112
130	133
130	144
130	166
130	167
130	263
130	265
131	2
131	51
131	94
131	122
131	149
131	162
131	184
131	187
131	210
131	220
131	239
131	243
131	244
131	251
131	268
131	281
131	297
132	9
132	38
132	74
132	77
132	99
132	138
132	178
132	187
132	193
132	204
132	205
132	212
132	228
132	243
132	277
132	289
132	293
133	6
133	9
133	15
133	50
133	62
133	78
133	81
133	83
133	100
133	112
133	119
133	130
133	166
133	167
133	270
133	279
133	295
134	44
134	51
134	60
134	82
134	98
134	218
134	234
134	258
134	260
134	262
134	265
134	266
134	280
134	290
134	293
134	296
134	299
135	86
135	91
135	120
135	136
135	138
135	141
135	173
135	183
135	208
135	234
135	235
135	244
135	245
135	263
135	271
135	284
135	288
136	10
136	21
136	35
136	40
136	135
136	150
136	151
136	169
136	177
136	179
136	184
136	207
136	222
136	227
136	256
136	279
136	293
137	11
137	20
137	42
137	79
137	115
137	121
137	155
137	182
137	206
137	211
137	238
137	240
137	265
137	276
137	278
137	290
137	298
138	25
138	31
138	45
138	132
138	135
138	146
138	204
138	208
138	212
138	221
138	224
138	228
138	229
138	241
138	243
138	289
138	297
139	2
139	15
139	35
139	178
139	184
139	225
139	242
139	251
139	253
139	255
139	256
139	268
139	275
139	281
139	285
139	293
139	297
140	86
140	92
140	110
140	160
140	219
140	232
140	245
140	248
140	254
140	259
140	267
140	269
140	270
140	279
140	287
140	291
140	300
141	4
141	45
141	94
141	104
141	135
141	213
141	221
141	231
141	232
141	234
141	235
141	244
141	271
141	273
141	274
141	288
141	291
142	90
142	93
142	106
142	161
142	234
142	250
142	258
142	266
142	272
142	273
142	280
142	285
142	286
142	290
142	293
142	294
142	296
143	8
143	18
143	29
143	37
143	45
143	84
143	146
143	158
143	163
143	213
143	232
143	263
143	283
143	284
143	288
143	291
143	298
144	29
144	45
144	50
144	91
144	130
144	152
144	161
144	213
144	235
144	242
144	244
144	271
144	273
144	283
144	284
144	288
144	290
144	295
145	13
145	14
145	39
145	162
145	209
145	220
145	224
145	225
145	239
145	242
145	251
145	253
145	255
145	264
145	268
145	281
145	285
145	297
146	12
146	84
146	138
146	143
146	166
146	174
146	178
146	187
146	208
146	212
146	214
146	238
146	241
146	243
146	267
146	277
146	289
146	298
147	115
147	124
147	156
147	173
147	181
147	193
147	201
147	206
147	224
147	240
147	245
147	246
147	257
147	266
147	276
147	278
147	295
147	298
148	4
148	23
148	28
148	53
148	61
148	69
148	87
148	104
148	119
148	153
148	199
148	201
148	231
148	236
148	272
148	274
148	281
148	292
149	2
149	15
149	30
149	99
149	131
149	151
149	165
149	209
149	225
149	253
149	255
149	260
149	267
149	268
149	275
149	279
149	280
149	297
150	19
150	21
150	69
150	95
150	102
150	111
150	122
150	136
150	169
150	177
150	179
150	207
150	222
150	227
150	233
150	256
150	286
150	300
151	19
151	34
151	41
151	72
151	82
151	136
151	149
151	152
151	177
151	179
151	189
151	190
151	197
151	207
151	222
151	227
151	233
151	256
152	18
152	29
152	37
152	144
152	151
152	166
152	190
152	213
152	221
152	232
152	235
152	244
152	263
152	266
152	280
152	283
152	284
152	288
153	27
153	44
153	104
153	119
153	148
153	169
153	173
153	199
153	201
153	236
153	247
153	259
153	264
153	272
153	274
153	290
153	292
153	294
154	21
154	25
154	39
154	40
154	49
154	54
154	58
154	89
154	103
154	107
154	128
154	175
154	185
154	188
154	196
154	197
154	202
154	205
155	3
155	11
155	67
155	118
155	121
155	124
155	125
155	137
155	204
155	206
155	211
155	216
155	229
155	246
155	257
155	263
155	265
155	298
156	11
156	70
156	76
156	109
156	118
156	125
156	147
156	182
156	189
156	206
156	223
156	246
156	257
156	258
156	275
156	278
156	295
156	298
157	37
157	38
157	67
157	90
157	188
157	192
157	226
157	228
157	236
157	261
157	262
157	280
157	285
157	286
157	290
157	294
157	296
157	299
158	45
158	47
158	143
158	181
158	221
158	231
158	232
158	235
158	254
158	263
158	271
158	273
158	283
158	284
158	287
158	288
158	292
158	298
159	23
159	32
159	65
159	66
159	77
159	108
159	122
159	207
159	212
159	224
159	228
159	229
159	233
159	241
159	243
159	264
159	277
159	289
160	36
160	48
160	63
160	83
160	108
160	114
160	121
160	140
160	173
160	182
160	195
160	216
160	254
160	257
160	265
160	276
160	278
160	295
160	298
161	8
161	49
161	142
161	144
161	178
161	194
161	214
161	218
161	223
161	248
161	255
161	259
161	269
161	270
161	279
161	282
161	287
161	291
161	300
162	41
162	86
162	131
162	145
162	180
162	210
162	220
162	225
162	239
162	246
162	253
162	255
162	260
162	268
162	273
162	281
162	291
162	293
162	297
163	29
163	50
163	77
163	83
163	91
163	120
163	143
163	181
163	193
163	198
163	213
163	221
163	232
163	256
163	263
163	271
163	273
163	283
163	284
164	20
164	35
164	48
164	52
164	62
164	68
164	73
164	110
164	118
164	126
164	170
164	217
164	229
164	237
164	240
164	245
164	250
164	252
164	257
165	93
165	117
165	149
165	213
165	226
165	234
165	249
165	252
165	258
165	261
165	262
165	266
165	280
165	285
165	290
165	293
165	294
165	297
165	299
166	6
166	9
166	22
166	62
166	65
166	78
166	81
166	83
166	100
166	101
166	112
166	119
166	130
166	133
166	146
166	152
166	167
166	210
166	239
167	6
167	9
167	10
167	18
167	22
167	62
167	78
167	81
167	83
167	100
167	112
167	119
167	130
167	133
167	166
167	227
167	244
167	249
167	282
168	2
168	25
168	43
168	60
168	85
168	90
168	103
168	107
168	128
168	175
168	185
168	188
168	192
168	196
168	197
168	202
168	205
168	224
168	249
169	18
169	19
169	21
169	28
169	39
169	95
169	136
169	150
169	153
169	170
169	175
169	179
169	186
169	189
169	190
169	207
169	230
169	233
169	256
170	26
170	35
170	52
170	68
170	73
170	110
170	117
170	164
170	169
170	194
170	210
170	215
170	217
170	233
170	237
170	245
170	250
170	253
170	276
171	11
171	92
171	97
171	111
171	173
171	181
171	185
171	203
171	206
171	211
171	216
171	246
171	257
171	265
171	276
171	278
171	295
171	297
171	298
172	33
172	70
172	103
172	104
172	179
172	230
172	234
172	252
172	262
172	266
172	280
172	286
172	287
172	290
172	293
172	294
172	295
172	296
172	299
173	3
173	11
173	29
173	45
173	58
173	76
173	135
173	147
173	153
173	160
173	171
173	195
173	240
173	246
173	254
173	265
173	276
173	278
173	284
173	295
174	23
174	44
174	53
174	69
174	89
174	146
174	191
174	193
174	201
174	214
174	215
174	229
174	247
174	249
174	264
174	270
174	271
174	272
174	274
174	292
175	43
175	58
175	76
175	79
175	103
175	107
175	128
175	154
175	168
175	169
175	185
175	188
175	196
175	197
175	202
175	205
175	232
175	235
175	259
175	260
176	54
176	57
176	81
176	88
176	99
176	100
176	106
176	113
176	184
176	198
176	209
176	210
176	249
176	260
176	266
176	268
176	275
176	281
176	287
176	297
177	21
177	40
177	68
177	72
177	136
177	150
177	151
177	186
177	189
177	190
177	207
177	222
177	227
177	233
177	241
177	256
177	269
177	276
177	282
177	300
178	19
178	42
178	80
178	122
178	132
178	139
178	146
178	161
178	187
178	191
178	208
178	212
178	216
178	224
178	228
178	238
178	241
178	261
178	277
178	289
179	10
179	28
179	34
179	40
179	72
179	82
179	88
179	136
179	150
179	151
179	169
179	172
179	189
179	191
179	222
179	227
179	233
179	248
179	256
179	294
180	7
180	56
180	99
180	115
180	162
180	184
180	186
180	198
180	209
180	214
180	225
180	240
180	242
180	253
180	255
180	260
180	275
180	281
180	297
180	299
181	3
181	75
181	91
181	125
181	127
181	147
181	158
181	163
181	171
181	211
181	216
181	254
181	257
181	265
181	275
181	276
181	278
181	294
181	295
181	298
182	70
182	75
182	113
182	124
182	137
182	156
182	160
182	211
182	216
182	254
182	257
182	259
182	265
182	271
182	272
182	276
182	277
182	282
182	295
182	298
183	32
183	37
183	50
183	97
183	135
183	213
183	223
183	232
183	235
183	244
183	253
183	263
183	266
183	271
183	273
183	283
183	284
183	288
183	299
183	300
184	1
184	7
184	36
184	76
184	88
184	94
184	131
184	136
184	139
184	176
184	180
184	209
184	219
184	239
184	242
184	255
184	260
184	281
184	286
184	297
185	43
185	58
185	79
185	85
185	98
185	107
185	128
185	154
185	168
185	171
185	175
185	188
185	196
185	197
185	202
185	205
185	208
185	214
185	218
185	286
186	10
186	21
186	28
186	34
186	40
186	48
186	72
186	95
186	169
186	177
186	180
186	189
186	190
186	207
186	222
186	227
186	233
186	236
186	256
186	280
186	295
187	33
187	36
187	74
187	108
187	120
187	129
187	131
187	132
187	146
187	178
187	208
187	211
187	213
187	214
187	224
187	229
187	238
187	243
187	277
187	278
187	289
188	11
188	14
188	25
188	43
188	59
188	79
188	85
188	103
188	107
188	128
188	154
188	157
188	168
188	175
188	185
188	196
188	197
188	202
188	205
188	249
188	285
189	21
189	40
189	54
189	57
189	72
189	110
189	151
189	156
189	169
189	177
189	179
189	186
189	190
189	207
189	222
189	227
189	233
189	256
189	265
189	269
189	288
190	10
190	19
190	28
190	34
190	72
190	94
190	151
190	152
190	169
190	177
190	186
190	189
190	194
190	206
190	207
190	222
190	233
190	251
190	256
190	274
190	299
191	11
191	15
191	17
191	23
191	39
191	59
191	100
191	174
191	178
191	179
191	193
191	199
191	201
191	236
191	247
191	249
191	264
191	274
191	287
191	292
191	300
192	56
192	64
192	67
192	93
192	99
192	157
192	168
192	230
192	231
192	236
192	252
192	258
192	260
192	262
192	266
192	276
192	280
192	285
192	286
192	293
192	299
193	27
193	44
193	89
193	98
193	132
193	147
193	163
193	174
193	191
193	199
193	201
193	236
193	241
193	249
193	253
193	263
193	264
193	272
193	274
193	278
193	292
194	1
194	35
194	52
194	68
194	92
194	101
194	105
194	110
194	116
194	117
194	126
194	161
194	170
194	190
194	217
194	237
194	245
194	250
194	267
194	281
194	288
195	19
195	24
195	52
195	63
195	76
195	81
195	115
195	160
195	173
195	216
195	227
195	234
195	240
195	246
195	248
195	257
195	265
195	276
195	278
195	295
195	298
196	6
196	22
196	25
196	43
196	48
196	58
196	79
196	84
196	85
196	103
196	107
196	128
196	154
196	168
196	175
196	185
196	188
196	202
196	205
196	251
196	254
197	16
197	43
197	58
197	79
197	85
197	103
197	107
197	127
197	128
197	151
197	154
197	168
197	175
197	185
197	188
197	202
197	205
197	241
197	260
197	278
197	283
198	15
198	53
198	55
198	85
198	106
198	163
198	176
198	180
198	209
198	210
198	220
198	242
198	251
198	255
198	260
198	262
198	265
198	268
198	281
198	285
198	294
198	297
199	23
199	53
199	61
199	89
199	110
199	148
199	153
199	191
199	193
199	201
199	230
199	236
199	247
199	249
199	251
199	263
199	264
199	272
199	274
199	275
199	284
199	292
200	9
200	64
200	76
200	82
200	93
200	107
200	108
200	224
200	226
200	230
200	252
200	258
200	259
200	266
200	280
200	285
200	290
200	291
200	293
200	294
200	296
200	299
201	59
201	69
201	71
201	75
201	95
201	117
201	147
201	148
201	153
201	174
201	191
201	193
201	199
201	235
201	236
201	247
201	249
201	264
201	270
201	272
201	274
201	292
202	21
202	25
202	31
202	43
202	58
202	79
202	85
202	103
202	107
202	118
202	128
202	154
202	168
202	175
202	185
202	188
202	196
202	197
202	205
202	212
202	221
202	278
203	48
203	54
203	102
203	111
203	126
203	171
203	218
203	219
203	223
203	259
203	262
203	267
203	269
203	270
203	276
203	279
203	282
203	287
203	291
203	296
203	298
203	300
204	31
204	38
204	65
204	84
204	108
204	129
204	132
204	138
204	155
204	208
204	214
204	224
204	228
204	238
204	241
204	247
204	262
204	277
204	280
204	284
204	289
204	296
205	25
205	43
205	58
205	79
205	85
205	103
205	107
205	111
205	128
205	132
205	154
205	168
205	175
205	185
205	188
205	196
205	197
205	202
205	221
205	243
205	287
205	292
206	29
206	100
206	109
206	121
206	137
206	147
206	155
206	156
206	171
206	190
206	213
206	220
206	232
206	240
206	242
206	246
206	254
206	265
206	276
206	278
206	295
206	298
207	10
207	21
207	28
207	34
207	95
207	115
207	136
207	150
207	151
207	159
207	169
207	177
207	186
207	189
207	190
207	215
207	222
207	227
207	234
207	240
207	241
207	256
207	292
208	12
208	27
208	31
208	52
208	84
208	108
208	122
208	129
208	135
208	138
208	146
208	178
208	185
208	187
208	204
208	214
208	230
208	238
208	241
208	272
208	274
208	277
208	289
209	6
209	30
209	41
209	51
209	94
209	127
209	145
209	149
209	176
209	180
209	184
209	198
209	219
209	237
209	242
209	253
209	255
209	260
209	268
209	275
209	288
209	289
209	290
210	7
210	13
210	20
210	69
210	113
210	131
210	162
210	166
210	170
210	176
210	198
210	220
210	225
210	239
210	246
210	251
210	253
210	260
210	268
210	273
210	275
210	281
210	291
211	63
211	98
211	107
211	109
211	115
211	124
211	137
211	155
211	171
211	181
211	182
211	187
211	213
211	225
211	246
211	254
211	257
211	265
211	266
211	276
211	295
211	298
211	300
212	12
212	38
212	65
212	74
212	80
212	84
212	94
212	132
212	138
212	146
212	159
212	178
212	202
212	220
212	228
212	231
212	241
212	243
212	250
212	277
212	283
212	284
212	289
213	4
213	37
213	91
213	123
213	141
213	143
213	144
213	152
213	163
213	165
213	183
213	187
213	206
213	211
213	221
213	227
213	232
213	235
213	263
213	271
213	273
213	284
213	299
214	12
214	36
214	38
214	64
214	80
214	84
214	129
214	146
214	161
214	174
214	180
214	185
214	187
214	204
214	208
214	224
214	228
214	229
214	238
214	243
214	261
214	289
214	298
215	2
215	20
215	26
215	52
215	73
215	93
215	101
215	105
215	110
215	116
215	117
215	118
215	126
215	127
215	170
215	174
215	207
215	217
215	228
215	237
215	245
215	250
215	252
216	33
216	35
216	75
216	85
216	109
216	113
216	121
216	125
216	155
216	160
216	171
216	178
216	181
216	182
216	195
216	217
216	237
216	246
216	254
216	257
216	276
216	278
216	295
216	298
217	1
217	20
217	35
217	37
217	38
217	47
217	73
217	101
217	105
217	110
217	116
217	118
217	126
217	164
217	170
217	194
217	215
217	216
217	218
217	237
217	240
217	245
217	250
217	298
218	8
218	102
218	105
218	106
218	114
218	121
218	134
218	161
218	185
218	203
218	217
218	219
218	230
218	238
218	248
218	259
218	267
218	269
218	270
218	279
218	282
218	287
218	291
218	300
219	49
219	58
219	66
219	86
219	89
219	92
219	111
219	140
219	184
219	203
219	209
219	218
219	223
219	226
219	248
219	258
219	259
219	267
219	270
219	279
219	282
219	287
219	291
219	300
220	7
220	30
220	55
220	57
220	88
220	94
220	103
220	131
220	145
220	162
220	198
220	206
220	210
220	212
220	230
220	239
220	251
220	253
220	260
220	271
220	275
220	277
220	281
220	289
221	15
221	20
221	45
221	86
221	90
221	91
221	123
221	138
221	141
221	152
221	158
221	163
221	202
221	205
221	213
221	235
221	244
221	263
221	271
221	273
221	283
221	284
221	288
221	298
222	28
222	33
222	34
222	40
222	51
222	72
222	95
222	136
222	150
222	151
222	177
222	179
222	186
222	189
222	190
222	207
222	225
222	227
222	233
222	256
222	288
222	294
222	295
222	299
223	17
223	24
223	48
223	54
223	69
223	92
223	123
223	156
223	161
223	183
223	203
223	219
223	248
223	259
223	267
223	269
223	270
223	272
223	279
223	282
223	287
223	291
223	293
223	300
224	7
224	42
224	74
224	80
224	84
224	108
224	119
224	138
224	145
224	147
224	159
224	168
224	178
224	187
224	200
224	204
224	214
224	228
224	229
224	238
224	243
224	277
224	289
224	298
225	2
225	12
225	13
225	36
225	41
225	88
225	99
225	106
225	139
225	145
225	149
225	162
225	180
225	210
225	211
225	222
225	226
225	239
225	242
225	245
225	251
225	264
225	275
225	281
226	30
226	33
226	46
226	97
226	157
226	165
226	200
226	219
226	225
226	230
226	234
226	245
226	251
226	258
226	261
226	262
226	264
226	266
226	280
226	285
226	286
226	290
226	294
226	299
227	10
227	19
227	21
227	28
227	34
227	40
227	80
227	95
227	118
227	122
227	136
227	150
227	151
227	167
227	177
227	179
227	186
227	189
227	195
227	207
227	213
227	222
227	233
227	256
227	269
228	12
228	26
228	31
228	36
228	77
228	80
228	108
228	119
228	132
228	138
228	157
228	159
228	178
228	204
228	212
228	214
228	215
228	224
228	229
228	234
228	238
228	241
228	243
228	255
228	280
229	10
229	36
229	38
229	42
229	65
229	74
229	84
229	108
229	138
229	155
229	159
229	164
229	174
229	187
229	214
229	224
229	228
229	238
229	241
229	243
229	255
229	277
229	286
229	289
229	294
230	33
230	51
230	72
230	169
230	172
230	192
230	199
230	200
230	208
230	218
230	220
230	226
230	252
230	258
230	262
230	266
230	268
230	280
230	285
230	286
230	290
230	293
230	294
230	296
230	299
231	4
231	37
231	47
231	50
231	59
231	69
231	86
231	91
231	97
231	120
231	127
231	141
231	148
231	158
231	192
231	212
231	235
231	244
231	258
231	271
231	273
231	283
231	284
231	288
231	300
232	45
232	65
232	67
232	68
232	86
232	97
232	120
232	123
232	140
232	141
232	143
232	152
232	158
232	163
232	175
232	183
232	206
232	213
232	263
232	271
232	273
232	284
232	288
232	294
232	296
233	10
233	19
233	34
233	40
233	62
233	70
233	72
233	95
233	127
233	150
233	151
233	159
233	169
233	170
233	177
233	179
233	186
233	189
233	190
233	222
233	227
233	255
233	256
233	263
233	280
234	14
234	16
234	33
234	64
234	67
234	134
234	135
234	141
234	142
234	165
234	172
234	195
234	207
234	226
234	228
234	252
234	261
234	262
234	266
234	275
234	280
234	285
234	290
234	291
234	296
234	299
235	4
235	9
235	12
235	53
235	86
235	128
235	135
235	141
235	144
235	152
235	158
235	175
235	183
235	201
235	213
235	221
235	231
235	244
235	263
235	268
235	271
235	273
235	279
235	283
235	284
235	288
236	17
236	44
236	53
236	61
236	69
236	71
236	74
236	87
236	89
236	98
236	148
236	153
236	157
236	186
236	191
236	192
236	193
236	199
236	201
236	249
236	257
236	272
236	274
236	282
236	292
236	295
237	20
237	26
237	35
237	52
237	68
237	71
237	105
237	110
237	116
237	117
237	118
237	126
237	164
237	170
237	194
237	209
237	215
237	216
237	217
237	245
237	248
237	250
237	259
237	282
237	291
237	292
238	17
238	31
238	36
238	42
238	72
238	77
238	80
238	82
238	129
238	137
238	146
238	178
238	187
238	204
238	208
238	214
238	218
238	224
238	228
238	229
238	241
238	243
238	262
238	276
238	277
238	289
239	3
239	18
239	30
239	55
239	102
239	106
239	127
239	131
239	145
239	162
239	166
239	184
239	210
239	220
239	225
239	242
239	244
239	250
239	251
239	253
239	255
239	269
239	275
239	281
239	286
239	293
239	297
240	63
240	70
240	73
240	75
240	76
240	96
240	121
240	124
240	125
240	137
240	147
240	164
240	173
240	180
240	195
240	206
240	207
240	217
240	246
240	254
240	257
240	265
240	274
240	276
240	278
240	294
240	295
241	12
241	26
241	36
241	38
241	42
241	56
241	57
241	77
241	84
241	122
241	123
241	138
241	146
241	159
241	177
241	178
241	193
241	197
241	204
241	207
241	208
241	212
241	228
241	229
241	238
241	243
241	277
242	30
242	57
242	72
242	78
242	88
242	91
242	96
242	103
242	113
242	127
242	139
242	144
242	145
242	180
242	184
242	198
242	206
242	209
242	225
242	239
242	251
242	255
242	268
242	275
242	281
242	283
242	297
243	30
243	42
243	74
243	80
243	97
243	122
243	125
243	129
243	131
243	132
243	138
243	146
243	159
243	187
243	205
243	212
243	214
243	224
243	228
243	229
243	238
243	241
243	267
243	274
243	277
243	283
243	289
244	16
244	18
244	37
244	45
244	50
244	120
244	123
244	131
244	135
244	141
244	144
244	152
244	167
244	183
244	221
244	231
244	235
244	239
244	246
244	252
244	257
244	262
244	263
244	271
244	273
244	283
244	288
245	1
245	20
245	26
245	35
245	52
245	68
245	101
245	105
245	110
245	116
245	117
245	118
245	126
245	135
245	140
245	147
245	164
245	170
245	194
245	215
245	217
245	225
245	226
245	237
245	250
245	281
245	290
245	299
246	41
246	53
246	70
246	75
246	109
246	121
246	129
246	147
246	155
246	156
246	162
246	171
246	173
246	195
246	206
246	210
246	211
246	216
246	240
246	244
246	254
246	256
246	257
246	259
246	276
246	284
246	295
246	298
247	17
247	27
247	38
247	39
247	41
247	53
247	59
247	61
247	67
247	71
247	87
247	89
247	98
247	104
247	117
247	123
247	129
247	153
247	174
247	191
247	199
247	201
247	204
247	249
247	255
247	264
247	272
247	274
247	292
248	5
248	32
248	43
248	48
248	66
248	81
248	92
248	96
248	114
248	140
248	161
248	179
248	195
248	218
248	219
248	223
248	237
248	250
248	258
248	267
248	269
248	270
248	279
248	282
248	287
248	288
248	289
248	291
248	300
249	7
249	17
249	23
249	27
249	37
249	39
249	44
249	69
249	71
249	89
249	98
249	121
249	165
249	167
249	168
249	174
249	176
249	188
249	191
249	193
249	199
249	201
249	236
249	247
249	264
249	272
249	274
249	292
249	299
250	1
250	20
250	26
250	35
250	52
250	68
250	73
250	78
250	101
250	105
250	110
250	116
250	117
250	118
250	126
250	142
250	164
250	170
250	194
250	212
250	215
250	217
250	237
250	239
250	245
250	248
250	251
250	275
250	298
251	7
251	13
251	39
251	41
251	55
251	57
251	94
251	113
251	120
251	127
251	131
251	139
251	145
251	190
251	196
251	198
251	199
251	210
251	220
251	225
251	226
251	239
251	242
251	250
251	255
251	260
251	281
251	287
251	297
252	14
252	27
252	40
252	46
252	52
252	82
252	95
252	96
252	164
252	165
252	172
252	192
252	200
252	215
252	230
252	234
252	244
252	258
252	261
252	262
252	265
252	280
252	285
252	286
252	290
252	293
252	294
252	296
252	299
253	7
253	15
253	30
253	39
253	55
253	94
253	99
253	101
253	106
253	116
253	127
253	139
253	145
253	149
253	162
253	170
253	180
253	183
253	193
253	209
253	210
253	220
253	239
253	255
253	266
253	268
253	269
253	275
253	277
253	297
254	3
254	11
254	13
254	60
254	70
254	75
254	76
254	109
254	125
254	140
254	158
254	160
254	173
254	181
254	182
254	196
254	206
254	211
254	216
254	240
254	246
254	257
254	276
254	278
254	280
254	290
254	291
254	293
254	295
254	298
255	2
255	5
255	7
255	13
255	41
255	99
255	106
255	108
255	139
255	145
255	149
255	161
255	162
255	180
255	184
255	198
255	209
255	228
255	229
255	233
255	239
255	242
255	247
255	251
255	253
255	260
255	270
255	272
255	275
255	281
256	10
256	19
256	21
256	28
256	34
256	40
256	43
256	72
256	95
256	136
256	139
256	150
256	151
256	163
256	169
256	177
256	179
256	186
256	189
256	190
256	207
256	222
256	227
256	233
256	246
256	262
256	264
256	269
256	277
256	294
257	3
257	8
257	72
257	76
257	93
257	109
257	124
257	147
257	155
257	156
257	160
257	164
257	171
257	181
257	182
257	195
257	211
257	216
257	236
257	240
257	244
257	246
257	254
257	260
257	265
257	275
257	276
257	278
257	283
257	295
257	298
258	16
258	46
258	51
258	56
258	60
258	61
258	64
258	77
258	82
258	90
258	125
258	129
258	134
258	142
258	156
258	165
258	192
258	200
258	219
258	226
258	230
258	231
258	248
258	252
258	271
258	285
258	290
258	293
258	294
258	296
258	299
259	5
259	8
259	24
259	32
259	102
259	111
259	114
259	140
259	153
259	161
259	175
259	182
259	200
259	203
259	218
259	219
259	223
259	237
259	246
259	267
259	268
259	269
259	270
259	279
259	282
259	283
259	285
259	287
259	290
259	291
259	300
260	15
260	22
260	41
260	57
260	82
260	88
260	99
260	106
260	112
260	127
260	134
260	149
260	162
260	175
260	176
260	180
260	184
260	192
260	197
260	198
260	209
260	210
260	220
260	251
260	255
260	257
260	268
260	275
260	281
260	289
260	297
261	16
261	33
261	42
261	51
261	64
261	82
261	90
261	93
261	101
261	109
261	111
261	124
261	157
261	165
261	178
261	214
261	226
261	234
261	252
261	262
261	266
261	267
261	280
261	285
261	286
261	287
261	290
261	293
261	294
261	296
261	298
261	299
262	46
262	56
262	60
262	67
262	124
262	128
262	134
262	157
262	165
262	172
262	192
262	198
262	203
262	204
262	226
262	230
262	234
262	238
262	244
262	252
262	256
262	261
262	266
262	275
262	284
262	285
262	286
262	290
262	293
262	294
262	296
262	299
263	4
263	24
263	37
263	47
263	64
263	79
263	86
263	97
263	120
263	123
263	130
263	135
263	143
263	152
263	155
263	158
263	163
263	183
263	193
263	199
263	213
263	221
263	232
263	233
263	235
263	244
263	268
263	271
263	273
263	283
263	284
263	288
264	17
264	21
264	23
264	24
264	27
264	44
264	53
264	69
264	71
264	79
264	87
264	89
264	98
264	104
264	145
264	153
264	159
264	174
264	191
264	193
264	199
264	201
264	225
264	226
264	247
264	249
264	256
264	272
264	274
264	280
264	285
264	292
265	3
265	28
265	55
265	63
265	70
265	75
265	76
265	89
265	94
265	103
265	121
265	125
265	130
265	134
265	137
265	155
265	160
265	171
265	173
265	181
265	182
265	189
265	195
265	198
265	206
265	211
265	240
265	252
265	257
265	278
265	295
265	298
266	20
266	31
266	32
266	46
266	56
266	60
266	74
266	93
266	134
266	142
266	147
266	152
266	165
266	172
266	176
266	183
266	192
266	200
266	211
266	226
266	230
266	234
266	253
266	261
266	262
266	280
266	285
266	286
266	290
266	293
266	294
266	296
267	5
267	24
267	49
267	54
267	59
267	66
267	92
267	111
267	114
267	125
267	140
267	146
267	149
267	194
267	203
267	218
267	219
267	223
267	243
267	248
267	259
267	261
267	269
267	270
267	272
267	273
267	275
267	279
267	282
267	287
267	291
267	300
268	5
268	13
268	15
268	30
268	41
268	55
268	57
268	70
268	88
268	89
268	91
268	106
268	127
268	131
268	139
268	145
268	149
268	162
268	176
268	198
268	209
268	210
268	230
268	235
268	242
268	253
268	259
268	260
268	263
268	276
268	288
268	297
269	5
269	8
269	31
269	40
269	49
269	54
269	66
269	79
269	96
269	111
269	112
269	114
269	140
269	161
269	177
269	189
269	203
269	218
269	223
269	227
269	239
269	248
269	253
269	256
269	259
269	267
269	270
269	279
269	282
269	287
269	291
269	300
270	5
270	24
270	25
270	32
270	48
270	66
270	87
270	92
270	96
270	99
270	111
270	114
270	133
270	140
270	161
270	174
270	201
270	203
270	218
270	219
270	223
270	248
270	255
270	259
270	267
270	269
270	282
270	283
270	287
270	291
270	292
270	296
270	300
271	4
271	23
271	45
271	47
271	49
271	82
271	86
271	97
271	105
271	120
271	123
271	135
271	141
271	144
271	158
271	163
271	174
271	182
271	183
271	213
271	220
271	221
271	231
271	232
271	235
271	244
271	258
271	263
271	273
271	277
271	283
271	284
271	288
271	299
272	23
272	27
272	34
272	39
272	44
272	47
272	53
272	59
272	61
272	71
272	87
272	89
272	98
272	104
272	116
272	142
272	148
272	153
272	174
272	182
272	193
272	199
272	201
272	208
272	223
272	236
272	247
272	249
272	255
272	264
272	267
272	274
272	292
272	299
273	11
273	15
273	18
273	22
273	29
273	38
273	45
273	47
273	50
273	95
273	97
273	120
273	123
273	141
273	142
273	144
273	158
273	162
273	163
273	183
273	210
273	213
273	221
273	231
273	232
273	235
273	244
273	263
273	267
273	271
273	283
273	284
273	288
273	298
274	4
274	14
274	17
274	23
274	27
274	39
274	44
274	59
274	61
274	71
274	87
274	89
274	91
274	98
274	101
274	141
274	148
274	153
274	174
274	190
274	191
274	193
274	199
274	201
274	208
274	236
274	240
274	243
274	247
274	249
274	264
274	272
274	281
274	292
275	2
275	13
275	15
275	30
275	35
275	41
275	77
275	88
275	106
275	113
275	139
275	149
275	156
275	176
275	180
275	181
275	199
275	209
275	210
275	220
275	225
275	234
275	239
275	242
275	250
275	253
275	255
275	257
275	260
275	262
275	267
275	281
275	294
275	297
276	3
276	57
276	63
276	69
276	70
276	76
276	87
276	113
276	115
276	124
276	137
276	147
276	160
276	170
276	171
276	173
276	177
276	181
276	182
276	192
276	195
276	203
276	206
276	211
276	216
276	238
276	240
276	246
276	254
276	257
276	268
276	278
276	295
276	298
277	12
277	30
277	31
277	36
277	38
277	57
277	65
277	74
277	77
277	105
277	108
277	122
277	129
277	132
277	146
277	159
277	178
277	182
277	187
277	204
277	208
277	212
277	220
277	224
277	229
277	238
277	241
277	243
277	253
277	256
277	271
277	289
277	291
277	300
278	3
278	11
278	12
278	52
278	62
278	63
278	70
278	90
278	109
278	115
278	124
278	125
278	137
278	147
278	156
278	160
278	171
278	173
278	181
278	187
278	193
278	195
278	197
278	202
278	206
278	216
278	240
278	254
278	257
278	265
278	276
278	282
278	295
278	298
278	300
279	2
279	5
279	24
279	32
279	48
279	49
279	54
279	59
279	61
279	66
279	92
279	96
279	102
279	109
279	111
279	133
279	136
279	140
279	149
279	161
279	203
279	218
279	219
279	223
279	235
279	248
279	259
279	267
279	269
279	282
279	287
279	291
279	293
279	297
279	300
280	33
280	46
280	51
280	56
280	60
280	90
280	114
280	134
280	142
280	149
280	152
280	157
280	165
280	172
280	186
280	192
280	200
280	204
280	226
280	228
280	230
280	233
280	234
280	252
280	254
280	261
280	264
280	266
280	286
280	288
280	289
280	293
280	294
280	296
280	299
281	13
281	15
281	17
281	55
281	57
281	88
281	99
281	106
281	109
281	113
281	128
281	131
281	139
281	145
281	148
281	162
281	176
281	180
281	184
281	194
281	198
281	210
281	220
281	225
281	239
281	242
281	245
281	251
281	255
281	260
281	274
281	275
281	282
281	285
281	296
281	297
282	5
282	8
282	24
282	32
282	48
282	49
282	54
282	65
282	66
282	91
282	92
282	96
282	102
282	114
282	121
282	161
282	167
282	177
282	182
282	203
282	218
282	219
282	223
282	236
282	237
282	248
282	259
282	267
282	269
282	270
282	278
282	279
282	281
282	287
282	291
282	300
283	4
283	7
283	13
283	18
283	26
283	37
283	47
283	50
283	86
283	91
283	97
283	120
283	123
283	143
283	144
283	152
283	158
283	163
283	183
283	197
283	212
283	221
283	231
283	235
283	242
283	243
283	244
283	257
283	259
283	263
283	270
283	271
283	273
283	284
283	288
283	299
284	4
284	8
284	16
284	21
284	29
284	45
284	47
284	50
284	58
284	91
284	97
284	123
284	135
284	143
284	144
284	152
284	158
284	163
284	173
284	183
284	199
284	204
284	212
284	213
284	221
284	231
284	232
284	235
284	246
284	262
284	263
284	271
284	273
284	283
284	288
284	289
285	16
285	25
285	33
285	42
285	51
285	56
285	67
285	90
285	93
285	95
285	112
285	139
285	142
285	145
285	157
285	165
285	188
285	192
285	198
285	200
285	226
285	230
285	234
285	252
285	258
285	259
285	261
285	262
285	264
285	266
285	281
285	286
285	290
285	293
285	294
285	299
286	16
286	44
286	51
286	56
286	64
286	67
286	68
286	76
286	80
286	82
286	90
286	93
286	110
286	142
286	150
286	157
286	172
286	184
286	185
286	192
286	226
286	229
286	230
286	239
286	252
286	261
286	262
286	266
286	280
286	285
286	290
286	293
286	294
286	296
286	299
286	300
287	8
287	24
287	32
287	48
287	54
287	64
287	66
287	93
287	95
287	96
287	102
287	111
287	114
287	140
287	158
287	161
287	172
287	176
287	191
287	203
287	205
287	218
287	219
287	223
287	248
287	251
287	259
287	261
287	267
287	269
287	270
287	279
287	282
287	289
287	291
287	300
288	4
288	18
288	29
288	47
288	86
288	97
288	102
288	109
288	120
288	121
288	123
288	135
288	141
288	143
288	144
288	152
288	158
288	183
288	189
288	194
288	209
288	221
288	222
288	231
288	232
288	235
288	244
288	248
288	263
288	268
288	271
288	273
288	280
288	283
288	284
288	299
289	31
289	36
289	38
289	60
289	65
289	74
289	77
289	80
289	84
289	90
289	93
289	108
289	122
289	129
289	132
289	138
289	146
289	159
289	178
289	187
289	204
289	208
289	209
289	212
289	214
289	220
289	224
289	229
289	238
289	243
289	248
289	260
289	277
289	280
289	284
289	287
289	292
290	14
290	16
290	30
290	33
290	46
290	51
290	59
290	60
290	74
290	80
290	126
290	134
290	137
290	142
290	144
290	153
290	157
290	165
290	172
290	200
290	209
290	226
290	230
290	234
290	245
290	252
290	254
290	258
290	259
290	261
290	262
290	266
290	285
290	286
290	293
290	294
290	296
290	299
291	5
291	8
291	24
291	32
291	48
291	49
291	54
291	61
291	92
291	96
291	102
291	111
291	115
291	122
291	140
291	141
291	143
291	161
291	162
291	200
291	203
291	210
291	218
291	219
291	223
291	234
291	237
291	248
291	254
291	259
291	267
291	269
291	270
291	277
291	279
291	282
291	287
291	300
292	17
292	23
292	27
292	39
292	40
292	44
292	53
292	55
292	59
292	61
292	63
292	69
292	71
292	87
292	89
292	98
292	103
292	104
292	129
292	148
292	153
292	158
292	174
292	191
292	193
292	199
292	201
292	205
292	207
292	236
292	237
292	247
292	249
292	264
292	270
292	272
292	274
292	289
293	14
293	16
293	33
293	60
293	64
293	67
293	75
293	82
293	90
293	100
293	120
293	124
293	132
293	134
293	136
293	139
293	142
293	162
293	165
293	172
293	192
293	200
293	223
293	230
293	239
293	252
293	254
293	258
293	261
293	262
293	266
293	279
293	280
293	285
293	286
293	290
293	294
293	299
294	14
294	16
294	51
294	56
294	60
294	64
294	67
294	80
294	82
294	142
294	153
294	157
294	165
294	172
294	179
294	181
294	198
294	200
294	222
294	226
294	229
294	230
294	232
294	240
294	252
294	256
294	258
294	261
294	262
294	266
294	275
294	280
294	285
294	286
294	290
294	293
294	296
294	299
295	2
295	11
295	50
295	63
295	70
295	72
295	75
295	76
295	84
295	112
295	115
295	119
295	121
295	124
295	133
295	144
295	147
295	156
295	160
295	171
295	172
295	173
295	181
295	182
295	186
295	195
295	206
295	211
295	216
295	222
295	236
295	240
295	246
295	254
295	257
295	265
295	276
295	278
295	298
296	1
296	14
296	33
296	46
296	51
296	55
296	56
296	60
296	64
296	67
296	73
296	82
296	90
296	93
296	96
296	104
296	134
296	142
296	157
296	172
296	200
296	203
296	204
296	230
296	232
296	234
296	252
296	258
296	261
296	262
296	266
296	270
296	280
296	281
296	286
296	290
296	294
296	299
296	300
297	2
297	6
297	11
297	13
297	15
297	29
297	30
297	46
297	57
297	61
297	86
297	88
297	94
297	99
297	113
297	117
297	120
297	127
297	131
297	138
297	139
297	145
297	149
297	162
297	165
297	171
297	176
297	180
297	184
297	198
297	239
297	242
297	251
297	253
297	260
297	268
297	275
297	279
297	281
298	57
298	63
298	70
298	75
298	76
298	109
298	115
298	121
298	124
298	125
298	137
298	143
298	146
298	147
298	155
298	156
298	158
298	160
298	171
298	181
298	182
298	195
298	203
298	206
298	211
298	214
298	216
298	217
298	221
298	224
298	246
298	250
298	254
298	257
298	261
298	265
298	273
298	276
298	278
298	295
299	14
299	16
299	28
299	46
299	56
299	64
299	82
299	90
299	93
299	134
299	157
299	165
299	172
299	180
299	183
299	190
299	192
299	200
299	213
299	222
299	226
299	230
299	234
299	245
299	249
299	252
299	258
299	261
299	262
299	271
299	272
299	280
299	283
299	285
299	286
299	288
299	290
299	293
299	294
299	296
300	5
300	8
300	24
300	32
300	48
300	49
300	54
300	66
300	71
300	92
300	96
300	102
300	109
300	111
300	114
300	140
300	150
300	161
300	177
300	183
300	191
300	203
300	211
300	218
300	219
300	223
300	231
300	248
300	259
300	267
300	269
300	270
300	277
300	278
300	279
300	282
300	286
300	287
300	291
300	296
