degree distribution (probability density function of the degree in logarithmic bins) 
10	1.82261
11	0.348577
12	0.103315
13	0.0529267
14	0.00976082
15	0.00900053

degree distribution (degree-occurrences) 
10	0.75419
11	0.156425
12	0.0502793
13	0.027933
14	0.00558659
15	0.00558659


--------------------------------------
community distribution (size-occurrences)
10	0.142857
11	0.142857
12	0.285714
13	0.142857
14	0.0714286
15	0.0714286
16	0.0714286
18	0.0714286


--------------------------------------
mixing parameter
0.0990431	0.106145
0.142857	0.00558659
0.153846	0.027933
0.166667	0.0446927
0.181818	0.139665
0.2	0.653631
0.25	0.00558659
0.272727	0.00558659
0.3	0.0111732

--------------------------------------
