1	173
1	227
1	230
1	231
1	253
1	258
1	260
1	286
1	287
1	293
1	298
2	9
2	33
2	74
2	82
2	115
2	132
2	167
2	171
2	183
2	284
2	297
3	10
3	12
3	20
3	130
3	153
3	181
3	209
3	216
3	218
3	232
3	271
4	69
4	79
4	80
4	101
4	135
4	170
4	184
4	187
4	188
4	215
4	219
5	23
5	45
5	54
5	56
5	143
5	189
5	205
5	240
5	246
5	252
5	259
6	9
6	42
6	74
6	81
6	115
6	126
6	133
6	167
6	171
6	183
6	214
7	58
7	70
7	98
7	133
7	153
7	209
7	216
7	218
7	230
7	232
7	290
8	54
8	117
8	159
8	192
8	260
8	268
8	286
8	287
8	293
8	296
8	298
9	2
9	6
9	81
9	102
9	115
9	167
9	171
9	182
9	183
9	210
9	233
10	3
10	34
10	58
10	78
10	128
10	153
10	160
10	198
10	209
10	232
10	256
11	38
11	81
11	82
11	84
11	102
11	115
11	131
11	167
11	171
11	183
11	268
12	3
12	18
12	26
12	111
12	129
12	133
12	217
12	226
12	241
12	248
12	256
13	37
13	133
13	207
13	218
13	219
13	235
13	237
13	254
13	258
13	265
13	274
14	69
14	79
14	80
14	117
14	121
14	134
14	184
14	188
14	203
14	215
14	228
15	66
15	175
15	177
15	219
15	222
15	230
15	237
15	254
15	258
15	265
15	287
16	61
16	109
16	110
16	140
16	265
16	277
16	282
16	283
16	285
16	291
16	299
17	72
17	96
17	104
17	135
17	184
17	187
17	188
17	215
17	244
17	256
17	281
18	12
18	34
18	54
18	124
18	146
18	195
18	221
18	240
18	246
18	259
18	274
19	29
19	106
19	129
19	132
19	242
19	260
19	262
19	277
19	281
19	286
19	295
20	3
20	52
20	55
20	107
20	160
20	198
20	216
20	218
20	232
20	255
20	299
21	95
21	170
21	176
21	194
21	236
21	264
21	272
21	277
21	289
21	293
21	295
22	127
22	236
22	244
22	263
22	266
22	267
22	271
22	287
22	292
22	296
22	298
23	5
23	145
23	152
23	196
23	221
23	226
23	229
23	234
23	245
23	246
23	258
24	79
24	116
24	147
24	150
24	206
24	208
24	217
24	224
24	226
24	257
24	294
25	80
25	130
25	134
25	153
25	160
25	198
25	209
25	216
25	218
25	232
25	275
26	12
26	159
26	180
26	195
26	206
26	224
26	226
26	227
26	252
26	256
26	257
27	78
27	153
27	160
27	198
27	209
27	216
27	218
27	227
27	232
27	271
27	282
28	74
28	103
28	161
28	204
28	214
28	225
28	266
28	283
28	289
28	295
28	299
29	19
29	44
29	110
29	214
29	220
29	247
29	253
29	281
29	286
29	295
29	299
30	152
30	179
30	180
30	185
30	243
30	270
30	275
30	284
30	288
30	292
30	297
31	44
31	82
31	144
31	271
31	279
31	280
31	285
31	288
31	292
31	294
31	297
32	89
32	210
32	267
32	268
32	269
32	286
32	287
32	293
32	294
32	296
32	298
33	2
33	74
33	84
33	115
33	167
33	171
33	183
33	211
33	260
33	272
33	282
34	10
34	18
34	98
34	103
34	205
34	229
34	233
34	234
34	246
34	253
34	259
34	271
35	99
35	107
35	203
35	204
35	235
35	237
35	261
35	262
35	272
35	287
35	295
35	299
36	85
36	100
36	105
36	142
36	207
36	222
36	235
36	237
36	254
36	258
36	265
36	293
37	13
37	46
37	59
37	112
37	160
37	219
37	222
37	223
37	235
37	254
37	258
37	265
38	11
38	62
38	110
38	163
38	176
38	214
38	247
38	253
38	254
38	272
38	289
38	299
39	43
39	136
39	152
39	189
39	208
39	221
39	229
39	232
39	233
39	246
39	259
39	292
40	68
40	116
40	202
40	254
40	278
40	280
40	282
40	288
40	292
40	294
40	297
40	300
41	83
41	159
41	165
41	180
41	224
41	226
41	232
41	233
41	241
41	256
41	257
41	275
42	6
42	118
42	139
42	179
42	191
42	202
42	210
42	237
42	263
42	288
42	294
42	300
43	39
43	110
43	121
43	168
43	253
43	258
43	262
43	272
43	274
43	289
43	295
43	299
44	29
44	31
44	83
44	87
44	108
44	250
44	271
44	279
44	284
44	290
44	294
44	300
45	5
45	131
45	151
45	159
45	255
45	261
45	263
45	278
45	286
45	293
45	296
45	298
46	37
46	68
46	90
46	190
46	192
46	211
46	214
46	228
46	248
46	251
46	276
46	291
47	145
47	195
47	204
47	225
47	268
47	272
47	274
47	277
47	280
47	281
47	283
47	289
48	141
48	162
48	168
48	171
48	237
48	243
48	244
48	248
48	273
48	276
48	285
48	291
49	58
49	85
49	179
49	181
49	213
49	252
49	278
49	282
49	284
49	288
49	290
49	292
50	111
50	127
50	133
50	142
50	167
50	206
50	224
50	226
50	241
50	248
50	256
50	257
51	68
51	92
51	121
51	195
51	197
51	211
51	228
51	248
51	253
51	285
51	291
51	298
52	20
52	58
52	70
52	114
52	198
52	209
52	216
52	218
52	232
52	233
52	297
52	300
53	62
53	90
53	199
53	222
53	255
53	266
53	270
53	286
53	287
53	293
53	296
53	298
54	5
54	8
54	18
54	152
54	178
54	208
54	221
54	233
54	245
54	246
54	259
54	295
55	20
55	64
55	70
55	130
55	153
55	211
55	216
55	218
55	232
55	247
55	250
55	260
56	5
56	96
56	152
56	205
56	229
56	234
56	238
56	240
56	245
56	259
56	279
56	282
57	90
57	114
57	180
57	250
57	259
57	271
57	281
57	282
57	290
57	292
57	294
57	297
58	7
58	10
58	49
58	52
58	62
58	64
58	162
58	173
58	198
58	209
58	218
58	232
59	37
59	78
59	116
59	151
59	154
59	250
59	252
59	264
59	275
59	282
59	288
59	292
60	190
60	191
60	214
60	217
60	236
60	261
60	263
60	270
60	292
60	293
60	296
60	297
61	16
61	146
61	178
61	225
61	245
61	247
61	272
61	279
61	281
61	289
61	295
61	299
62	38
62	53
62	58
62	182
62	252
62	274
62	277
62	281
62	283
62	291
62	298
62	299
63	85
63	166
63	191
63	198
63	255
63	269
63	270
63	286
63	288
63	293
63	296
63	298
64	55
64	58
64	78
64	198
64	209
64	213
64	216
64	218
64	232
64	243
64	261
64	262
65	88
65	167
65	168
65	185
65	200
65	201
65	275
65	278
65	284
65	288
65	291
65	297
66	15
66	108
66	119
66	175
66	207
66	222
66	223
66	235
66	254
66	258
66	265
66	286
66	296
67	119
67	121
67	135
67	157
67	169
67	180
67	197
67	213
67	220
67	228
67	251
67	276
67	291
68	40
68	46
68	51
68	89
68	195
68	211
68	213
68	242
68	244
68	273
68	277
68	285
68	291
69	4
69	14
69	80
69	96
69	134
69	135
69	143
69	184
69	187
69	188
69	215
69	229
69	239
70	7
70	52
70	55
70	153
70	160
70	161
70	201
70	209
70	216
70	218
70	222
70	226
70	232
71	96
71	151
71	200
71	244
71	256
71	271
71	273
71	282
71	284
71	292
71	294
71	297
71	300
72	17
72	73
72	79
72	104
72	117
72	124
72	135
72	184
72	187
72	198
72	215
72	265
72	295
73	72
73	96
73	104
73	108
73	134
73	135
73	184
73	187
73	188
73	215
73	231
73	274
73	278
74	2
74	6
74	28
74	33
74	81
74	84
74	102
74	160
74	167
74	171
74	183
74	249
74	294
75	91
75	103
75	163
75	201
75	207
75	209
75	219
75	220
75	223
75	235
75	237
75	260
75	265
76	168
76	203
76	208
76	212
76	220
76	248
76	251
76	273
76	276
76	285
76	286
76	291
76	293
77	91
77	149
77	174
77	201
77	205
77	219
77	222
77	223
77	227
77	254
77	258
77	265
77	298
78	10
78	27
78	59
78	64
78	130
78	160
78	164
78	198
78	216
78	218
78	232
78	243
78	300
79	4
79	14
79	24
79	72
79	80
79	129
79	134
79	184
79	187
79	188
79	215
79	251
79	264
80	4
80	14
80	25
80	69
80	79
80	134
80	135
80	174
80	187
80	188
80	215
80	250
80	291
81	6
81	9
81	11
81	74
81	82
81	102
81	115
81	167
81	171
81	183
81	252
81	293
81	294
82	2
82	11
82	31
82	81
82	84
82	102
82	115
82	167
82	171
82	183
82	211
82	284
82	300
83	41
83	44
83	142
83	159
83	165
83	180
83	182
83	207
83	224
83	226
83	241
83	256
83	257
84	11
84	33
84	74
84	82
84	94
84	102
84	115
84	167
84	171
84	183
84	235
84	258
84	260
85	36
85	49
85	63
85	112
85	174
85	207
85	219
85	223
85	237
85	249
85	254
85	258
85	265
86	139
86	182
86	200
86	269
86	271
86	277
86	280
86	284
86	286
86	288
86	290
86	294
86	297
87	44
87	96
87	135
87	146
87	149
87	179
87	236
87	275
87	282
87	288
87	292
87	294
87	300
88	65
88	142
88	157
88	179
88	186
88	250
88	261
88	264
88	279
88	282
88	283
88	294
88	297
89	32
89	68
89	173
89	194
89	232
89	239
89	243
89	249
89	273
89	275
89	276
89	285
89	291
90	46
90	53
90	57
90	158
90	163
90	210
90	275
90	280
90	282
90	292
90	294
90	296
90	297
90	300
91	75
91	77
91	207
91	219
91	223
91	235
91	237
91	246
91	254
91	258
91	261
91	265
91	289
91	297
92	51
92	113
92	119
92	120
92	168
92	192
92	206
92	211
92	212
92	248
92	273
92	278
92	283
92	294
93	104
93	127
93	197
93	211
93	212
93	220
93	239
93	249
93	251
93	273
93	282
93	285
93	291
93	294
94	84
94	149
94	185
94	186
94	189
94	224
94	250
94	253
94	278
94	279
94	292
94	294
94	297
94	300
95	21
95	100
95	105
95	145
95	157
95	177
95	223
95	228
95	242
95	272
95	281
95	283
95	296
95	299
96	17
96	56
96	69
96	71
96	73
96	87
96	104
96	117
96	134
96	184
96	187
96	188
96	215
96	249
97	110
97	119
97	192
97	194
97	211
97	212
97	228
97	249
97	259
97	273
97	276
97	291
97	295
97	297
98	7
98	34
98	103
98	136
98	189
98	195
98	198
98	229
98	233
98	240
98	245
98	259
98	265
98	299
99	35
99	143
99	159
99	204
99	219
99	242
99	262
99	264
99	271
99	274
99	281
99	283
99	289
99	295
100	36
100	95
100	202
100	275
100	278
100	280
100	284
100	288
100	289
100	290
100	297
100	298
100	299
100	300
101	4
101	125
101	190
101	217
101	261
101	266
101	267
101	269
101	270
101	287
101	293
101	296
101	298
101	299
102	9
102	11
102	74
102	81
102	82
102	84
102	115
102	167
102	171
102	177
102	183
102	227
102	229
102	271
103	28
103	34
103	75
103	98
103	144
103	162
103	174
103	195
103	196
103	205
103	234
103	245
103	246
103	277
104	17
104	72
104	73
104	93
104	96
104	117
104	135
104	136
104	183
104	184
104	187
104	188
104	215
104	291
105	36
105	95
105	106
105	109
105	113
105	156
105	180
105	194
105	196
105	253
105	274
105	277
105	281
105	283
106	19
106	105
106	110
106	132
106	152
106	156
106	214
106	241
106	246
106	257
106	274
106	283
106	295
106	299
107	20
107	35
107	170
107	177
107	203
107	218
107	225
107	239
107	271
107	277
107	283
107	289
107	295
107	299
108	44
108	66
108	73
108	165
108	169
108	173
108	261
108	263
108	266
108	269
108	286
108	287
108	293
108	298
109	16
109	105
109	110
109	161
109	184
109	206
109	214
109	232
109	247
109	253
109	274
109	284
109	295
109	299
110	16
110	29
110	38
110	43
110	97
110	106
110	109
110	145
110	178
110	190
110	196
110	250
110	281
110	283
111	12
111	50
111	131
111	133
111	147
111	193
111	206
111	217
111	226
111	241
111	256
111	257
111	284
111	299
112	37
112	85
112	113
112	174
112	175
112	201
112	205
112	210
112	228
112	235
112	237
112	254
112	258
112	276
113	92
113	105
113	112
113	138
113	162
113	213
113	228
113	239
113	244
113	248
113	249
113	269
113	273
113	291
113	297
114	52
114	57
114	119
114	186
114	190
114	210
114	238
114	271
114	280
114	284
114	288
114	289
114	290
114	294
114	300
115	2
115	6
115	9
115	11
115	33
115	81
115	82
115	84
115	102
115	167
115	171
115	183
115	242
115	249
115	292
116	24
116	40
116	59
116	129
116	141
116	159
116	165
116	187
116	217
116	224
116	241
116	255
116	256
116	257
116	292
117	8
117	14
117	72
117	96
117	104
117	134
117	135
117	184
117	187
117	188
117	197
117	212
117	215
117	226
117	298
118	42
118	123
118	183
118	227
118	231
118	235
118	264
118	270
118	278
118	280
118	282
118	284
118	294
118	297
118	300
119	66
119	67
119	92
119	97
119	114
119	138
119	211
119	224
119	243
119	244
119	248
119	275
119	276
119	285
119	291
120	92
120	128
120	168
120	182
120	191
120	210
120	213
120	249
120	251
120	255
120	273
120	276
120	285
120	287
120	291
121	14
121	43
121	51
121	67
121	192
121	212
121	220
121	239
121	248
121	249
121	259
121	273
121	277
121	285
121	291
122	137
122	155
122	158
122	200
122	210
122	212
122	231
122	240
122	252
122	270
122	282
122	284
122	296
122	297
122	300
123	118
123	191
123	204
123	230
123	251
123	255
123	260
123	263
123	267
123	284
123	286
123	287
123	288
123	296
123	298
124	18
124	72
124	196
124	199
124	214
124	226
124	261
124	263
124	266
124	267
124	268
124	270
124	293
124	296
124	298
125	101
125	146
125	148
125	189
125	206
125	221
125	229
125	233
125	234
125	240
125	245
125	246
125	254
125	259
125	299
126	6
126	142
126	199
126	241
126	249
126	266
126	268
126	269
126	270
126	286
126	287
126	289
126	293
126	296
126	298
127	22
127	50
127	93
127	172
127	183
127	200
127	227
127	236
127	253
127	255
127	263
127	270
127	286
127	293
127	298
128	10
128	120
128	168
128	194
128	205
128	220
128	239
128	248
128	263
128	265
128	273
128	276
128	285
128	291
128	294
129	12
129	19
129	79
129	116
129	142
129	158
129	180
129	206
129	217
129	224
129	241
129	256
129	257
129	291
129	298
130	3
130	25
130	55
130	78
130	134
130	160
130	198
130	209
130	216
130	218
130	231
130	232
130	247
130	262
130	281
131	11
131	45
131	111
131	173
131	187
131	199
131	255
131	256
131	260
131	263
131	286
131	287
131	293
131	296
131	298
132	2
132	19
132	106
132	140
132	143
132	202
132	242
132	260
132	273
132	274
132	281
132	283
132	286
132	289
132	299
133	6
133	7
133	12
133	13
133	50
133	111
133	141
133	150
133	159
133	176
133	180
133	217
133	241
133	256
133	257
134	14
134	25
134	69
134	73
134	79
134	80
134	96
134	117
134	130
134	167
134	187
134	188
134	199
134	215
134	261
135	4
135	17
135	67
135	69
135	72
135	73
135	80
135	87
135	104
135	117
135	146
135	184
135	187
135	215
135	267
136	39
136	98
136	104
136	177
136	195
136	208
136	221
136	229
136	234
136	245
136	246
136	259
136	278
136	287
136	297
137	122
137	179
137	210
137	233
137	234
137	271
137	276
137	277
137	279
137	280
137	282
137	284
137	292
137	294
137	296
137	300
138	113
138	119
138	186
138	191
138	220
138	230
138	238
138	252
138	264
138	275
138	278
138	279
138	282
138	290
138	292
138	300
139	42
139	86
139	154
139	197
139	200
139	208
139	218
139	238
139	240
139	264
139	273
139	280
139	290
139	292
139	297
139	300
140	16
140	132
140	156
140	157
140	179
140	183
140	185
140	203
140	216
140	225
140	247
140	262
140	274
140	277
140	283
140	295
141	48
141	116
141	133
141	147
141	159
141	196
141	206
141	217
141	224
141	226
141	228
141	241
141	256
141	257
141	298
141	300
142	36
142	50
142	83
142	88
142	126
142	129
142	147
142	159
142	180
142	206
142	217
142	226
142	256
142	257
142	267
142	293
143	5
143	69
143	99
143	132
143	176
143	182
143	197
143	214
143	225
143	230
143	262
143	272
143	274
143	275
143	283
143	299
144	31
144	103
144	185
144	189
144	195
144	196
144	205
144	208
144	214
144	221
144	233
144	240
144	245
144	246
144	292
144	297
145	23
145	47
145	95
145	110
145	157
145	167
145	182
145	247
145	253
145	267
145	274
145	281
145	283
145	291
145	295
145	299
146	18
146	61
146	87
146	125
146	135
146	148
146	189
146	196
146	205
146	208
146	233
146	234
146	240
146	245
146	259
146	277
147	24
147	111
147	141
147	142
147	150
147	180
147	206
147	217
147	224
147	226
147	241
147	257
147	269
147	285
147	289
147	300
148	125
148	146
148	152
148	195
148	196
148	205
148	208
148	223
148	229
148	233
148	234
148	243
148	246
148	256
148	276
148	299
149	77
149	87
149	94
149	184
149	189
149	210
149	238
149	252
149	262
149	264
149	275
149	282
149	284
149	288
149	290
149	300
150	24
150	133
150	147
150	165
150	180
150	211
150	213
150	217
150	224
150	226
150	236
150	241
150	256
150	257
150	274
150	291
151	45
151	59
151	71
151	154
151	172
151	186
151	225
151	246
151	249
151	250
151	278
151	279
151	282
151	292
151	294
151	297
152	23
152	30
152	39
152	54
152	56
152	106
152	148
152	159
152	188
152	196
152	205
152	229
152	233
152	240
152	246
152	248
153	3
153	7
153	10
153	25
153	27
153	55
153	70
153	198
153	199
153	206
153	209
153	216
153	218
153	232
153	270
153	300
154	59
154	139
154	151
154	187
154	190
154	215
154	263
154	268
154	280
154	282
154	288
154	290
154	292
154	294
154	297
154	300
155	122
155	168
155	186
155	193
155	217
155	231
155	252
155	264
155	268
155	271
155	284
155	288
155	291
155	292
155	294
155	300
156	105
156	106
156	140
156	179
156	193
156	235
156	246
156	247
156	253
156	262
156	271
156	272
156	281
156	284
156	289
156	295
156	299
157	67
157	88
157	95
157	140
157	145
157	182
157	239
157	242
157	258
157	262
157	264
157	272
157	277
157	283
157	289
157	295
157	299
158	90
158	122
158	129
158	170
158	181
158	202
158	232
158	264
158	266
158	278
158	279
158	280
158	282
158	288
158	292
158	296
158	297
159	8
159	26
159	41
159	45
159	83
159	99
159	116
159	133
159	141
159	142
159	152
159	206
159	217
159	224
159	226
159	256
159	267
160	10
160	20
160	25
160	27
160	37
160	70
160	74
160	78
160	130
160	178
160	185
160	198
160	209
160	216
160	218
160	225
160	232
161	28
161	70
161	109
161	170
161	193
161	196
161	203
161	204
161	242
161	272
161	276
161	278
161	283
161	289
161	290
161	295
161	299
162	48
162	58
162	103
162	113
162	168
162	181
162	197
162	209
162	220
162	222
162	239
162	243
162	244
162	248
162	273
162	285
162	291
163	38
163	75
163	90
163	164
163	174
163	201
163	207
163	219
163	222
163	235
163	237
163	246
163	254
163	258
163	261
163	265
163	279
164	78
164	163
164	174
164	175
164	201
164	202
164	207
164	214
164	219
164	222
164	235
164	237
164	239
164	254
164	255
164	258
164	265
165	41
165	83
165	108
165	116
165	150
165	180
165	186
165	206
165	217
165	224
165	226
165	241
165	256
165	257
165	267
165	268
165	273
166	63
166	172
166	195
166	200
166	227
166	230
166	233
166	238
166	251
166	261
166	267
166	270
166	286
166	293
166	296
166	298
166	299
167	2
167	6
167	9
167	11
167	33
167	50
167	65
167	74
167	81
167	82
167	84
167	102
167	115
167	134
167	145
167	171
167	183
167	289
168	43
168	48
168	65
168	76
168	92
168	120
168	128
168	155
168	162
168	213
168	220
168	249
168	251
168	273
168	281
168	285
168	291
168	299
169	67
169	108
169	189
169	190
169	199
169	225
169	227
169	230
169	255
169	260
169	263
169	267
169	285
169	287
169	288
169	293
169	296
169	298
170	4
170	21
170	107
170	158
170	161
170	177
170	178
170	182
170	197
170	207
170	242
170	247
170	272
170	281
170	284
170	289
170	295
170	299
171	2
171	6
171	9
171	11
171	33
171	48
171	74
171	81
171	82
171	84
171	102
171	115
171	167
171	183
171	223
171	237
171	248
171	293
172	127
172	151
172	166
172	192
172	221
172	227
172	230
172	231
172	255
172	261
172	265
172	267
172	268
172	286
172	287
172	293
172	296
172	298
173	1
173	58
173	89
173	108
173	131
173	178
173	190
173	216
173	230
173	234
173	236
173	259
173	260
173	268
173	269
173	286
173	296
173	298
174	77
174	80
174	85
174	103
174	112
174	163
174	164
174	219
174	222
174	223
174	226
174	235
174	237
174	254
174	258
174	265
174	280
174	293
175	15
175	66
175	112
175	164
175	194
175	207
175	219
175	222
175	223
175	235
175	237
175	258
175	262
175	265
175	267
175	269
175	288
175	297
176	21
176	38
176	133
176	143
176	178
176	182
176	193
176	228
176	249
176	250
176	272
176	274
176	281
176	283
176	288
176	289
176	295
176	296
177	15
177	95
177	102
177	107
177	136
177	170
177	190
177	191
177	203
177	214
177	217
177	225
177	242
177	247
177	277
177	283
177	289
177	295
177	299
178	54
178	61
178	110
178	160
178	170
178	173
178	176
178	182
178	193
178	229
178	247
178	253
178	262
178	265
178	274
178	277
178	281
178	290
178	295
179	30
179	42
179	49
179	87
179	88
179	137
179	140
179	156
179	207
179	216
179	231
179	238
179	266
179	278
179	280
179	284
179	290
179	292
179	297
180	26
180	30
180	41
180	57
180	67
180	83
180	105
180	129
180	133
180	142
180	147
180	150
180	165
180	226
180	241
180	253
180	256
180	257
180	300
181	3
181	49
181	158
181	162
181	186
181	200
181	203
181	250
181	251
181	271
181	275
181	278
181	279
181	280
181	281
181	288
181	292
181	294
181	300
182	9
182	62
182	83
182	86
182	120
182	143
182	145
182	157
182	170
182	176
182	178
182	242
182	262
182	267
182	274
182	279
182	283
182	289
182	299
183	2
183	6
183	9
183	11
183	33
183	74
183	81
183	82
183	84
183	102
183	104
183	115
183	118
183	127
183	140
183	167
183	171
183	217
183	282
184	4
184	14
184	17
184	69
184	72
184	73
184	79
184	96
184	104
184	109
184	117
184	135
184	149
184	188
184	213
184	215
184	257
184	261
184	291
185	30
185	65
185	94
185	140
185	144
185	160
185	186
185	215
185	221
185	252
185	261
185	266
185	271
185	275
185	284
185	288
185	290
185	294
185	297
185	300
186	88
186	94
186	114
186	138
186	151
186	155
186	165
186	181
186	185
186	203
186	223
186	250
186	271
186	275
186	281
186	284
186	290
186	298
186	299
186	300
187	4
187	17
187	69
187	72
187	73
187	79
187	80
187	96
187	104
187	116
187	117
187	131
187	134
187	135
187	154
187	188
187	198
187	200
187	215
187	266
188	4
188	14
188	17
188	69
188	73
188	79
188	80
188	96
188	104
188	117
188	134
188	152
188	184
188	187
188	192
188	195
188	212
188	215
188	265
188	285
189	5
189	39
189	94
189	98
189	125
189	144
189	146
189	149
189	169
189	196
189	208
189	219
189	221
189	233
189	240
189	245
189	246
189	259
189	282
189	290
190	46
190	60
190	101
190	110
190	114
190	154
190	169
190	173
190	177
190	260
190	261
190	263
190	266
190	267
190	269
190	270
190	293
190	296
190	298
190	300
191	42
191	60
191	63
191	120
191	123
191	138
191	177
191	219
191	227
191	236
191	260
191	266
191	268
191	269
191	286
191	287
191	293
191	294
191	296
191	298
192	8
192	46
192	92
192	97
192	121
192	172
192	188
192	212
192	213
192	220
192	228
192	240
192	243
192	249
192	251
192	276
192	283
192	285
192	287
192	291
193	111
193	155
193	156
193	161
193	176
193	178
193	197
193	203
193	222
193	225
193	228
193	230
193	242
193	247
193	253
193	277
193	281
193	283
193	289
193	295
193	299
194	21
194	89
194	97
194	105
194	128
194	175
194	197
194	203
194	212
194	213
194	221
194	239
194	243
194	244
194	249
194	251
194	273
194	276
194	283
194	285
194	291
195	18
195	26
195	47
195	51
195	68
195	98
195	103
195	136
195	144
195	148
195	166
195	188
195	196
195	208
195	221
195	229
195	233
195	234
195	245
195	259
195	289
196	23
196	103
196	105
196	110
196	124
196	141
196	144
196	146
196	148
196	152
196	161
196	189
196	195
196	205
196	221
196	229
196	234
196	240
196	247
196	259
196	279
197	51
197	67
197	93
197	117
197	139
197	143
197	162
197	170
197	193
197	194
197	228
197	235
197	243
197	244
197	249
197	251
197	273
197	276
197	285
197	291
197	298
198	10
198	20
198	25
198	27
198	52
198	58
198	63
198	64
198	72
198	78
198	98
198	130
198	153
198	160
198	187
198	209
198	216
198	232
198	275
198	291
198	295
199	53
199	124
199	126
199	131
199	134
199	153
199	169
199	220
199	227
199	259
199	261
199	263
199	266
199	268
199	269
199	284
199	287
199	293
199	295
199	296
199	298
200	65
200	71
200	86
200	122
200	127
200	139
200	166
200	181
200	187
200	250
200	264
200	267
200	275
200	284
200	288
200	289
200	290
200	292
200	295
200	297
200	300
201	65
201	70
201	75
201	77
201	112
201	163
201	164
201	207
201	219
201	222
201	223
201	235
201	237
201	254
201	256
201	258
201	262
201	265
201	266
201	293
201	299
202	40
202	42
202	100
202	132
202	158
202	164
202	211
202	231
202	238
202	252
202	271
202	275
202	278
202	280
202	281
202	283
202	287
202	290
202	292
202	294
202	297
202	300
203	14
203	35
203	76
203	107
203	140
203	161
203	177
203	181
203	186
203	193
203	194
203	214
203	253
203	255
203	262
203	274
203	277
203	283
203	286
203	289
203	295
203	299
204	28
204	35
204	47
204	99
204	123
204	161
204	214
204	225
204	229
204	236
204	242
204	253
204	262
204	277
204	278
204	281
204	282
204	283
204	285
204	295
204	299
204	300
205	5
205	34
205	56
205	77
205	103
205	112
205	128
205	144
205	146
205	148
205	152
205	196
205	208
205	227
205	233
205	234
205	240
205	245
205	246
205	255
205	259
205	262
206	24
206	26
206	50
206	92
206	109
206	111
206	125
206	129
206	141
206	142
206	147
206	153
206	159
206	165
206	217
206	224
206	225
206	226
206	241
206	256
206	257
206	264
207	13
207	36
207	66
207	75
207	83
207	85
207	91
207	163
207	164
207	170
207	175
207	179
207	201
207	222
207	223
207	237
207	254
207	258
207	261
207	264
207	265
207	274
207	279
208	24
208	39
208	54
208	76
208	136
208	139
208	144
208	146
208	148
208	189
208	195
208	205
208	221
208	229
208	233
208	234
208	240
208	245
208	247
208	259
208	282
208	287
208	295
209	3
209	7
209	10
209	25
209	27
209	52
209	58
209	64
209	70
209	75
209	130
209	153
209	160
209	162
209	198
209	214
209	216
209	218
209	232
209	238
209	256
209	264
209	296
210	9
210	32
210	42
210	90
210	112
210	114
210	120
210	122
210	137
210	149
210	230
210	231
210	237
210	252
210	279
210	282
210	284
210	288
210	290
210	293
210	294
210	297
210	300
211	33
211	46
211	51
211	55
211	68
211	82
211	92
211	93
211	97
211	119
211	150
211	202
211	212
211	213
211	220
211	228
211	234
211	243
211	251
211	276
211	285
211	289
211	291
212	76
212	92
212	93
212	97
212	117
212	121
212	122
212	188
212	192
212	194
212	211
212	220
212	228
212	239
212	244
212	247
212	248
212	254
212	276
212	285
212	286
212	291
212	296
213	49
213	64
213	67
213	68
213	113
213	120
213	150
213	168
213	184
213	192
213	194
213	211
213	220
213	228
213	239
213	243
213	248
213	251
213	271
213	273
213	279
213	285
213	287
213	291
214	6
214	28
214	29
214	38
214	46
214	60
214	106
214	109
214	124
214	143
214	144
214	164
214	177
214	203
214	204
214	209
214	225
214	247
214	272
214	274
214	277
214	289
214	295
214	299
215	4
215	14
215	17
215	69
215	72
215	73
215	79
215	80
215	96
215	104
215	117
215	134
215	135
215	154
215	184
215	185
215	187
215	188
215	222
215	223
215	234
215	241
215	270
215	284
216	3
216	7
216	20
216	25
216	27
216	52
216	55
216	64
216	70
216	78
216	130
216	140
216	153
216	160
216	173
216	179
216	198
216	209
216	218
216	232
216	241
216	280
216	290
216	294
217	12
217	24
217	60
217	101
217	111
217	116
217	129
217	133
217	141
217	142
217	147
217	150
217	155
217	159
217	165
217	177
217	183
217	206
217	226
217	241
217	256
217	257
217	283
217	290
218	3
218	7
218	13
218	20
218	25
218	27
218	52
218	55
218	58
218	64
218	70
218	78
218	107
218	130
218	139
218	153
218	160
218	209
218	216
218	219
218	229
218	232
218	288
218	291
219	4
219	13
219	15
219	37
219	75
219	77
219	85
219	91
219	99
219	163
219	164
219	174
219	175
219	189
219	191
219	201
219	218
219	222
219	223
219	235
219	254
219	265
219	292
219	297
219	300
220	29
220	67
220	75
220	76
220	93
220	121
220	128
220	138
220	162
220	168
220	192
220	199
220	211
220	212
220	213
220	231
220	239
220	243
220	244
220	248
220	259
220	271
220	276
220	285
220	291
221	18
221	23
221	39
221	54
221	125
221	136
221	144
221	172
221	185
221	189
221	194
221	195
221	196
221	208
221	229
221	231
221	233
221	234
221	240
221	245
221	246
221	254
221	259
221	294
221	300
222	15
222	36
222	37
222	53
222	66
222	70
222	77
222	162
222	163
222	164
222	174
222	175
222	193
222	201
222	207
222	215
222	219
222	223
222	235
222	237
222	250
222	254
222	258
222	265
222	290
223	37
223	66
223	75
223	77
223	85
223	91
223	95
223	148
223	171
223	174
223	175
223	186
223	201
223	207
223	215
223	219
223	222
223	235
223	236
223	237
223	254
223	258
223	265
223	272
223	298
224	24
224	26
224	41
224	50
224	83
224	94
224	116
224	119
224	129
224	141
224	147
224	150
224	159
224	165
224	206
224	226
224	234
224	235
224	241
224	256
224	257
224	258
224	270
224	288
224	296
225	28
225	47
225	61
225	107
225	140
225	143
225	151
225	160
225	169
225	177
225	193
225	204
225	206
225	214
225	241
225	247
225	250
225	253
225	262
225	272
225	274
225	281
225	288
225	289
225	299
226	12
226	23
226	24
226	26
226	41
226	50
226	70
226	83
226	111
226	117
226	124
226	141
226	142
226	147
226	150
226	159
226	165
226	174
226	180
226	206
226	217
226	224
226	256
226	257
226	292
226	297
227	1
227	26
227	27
227	77
227	102
227	118
227	127
227	166
227	169
227	172
227	191
227	199
227	205
227	260
227	266
227	267
227	268
227	269
227	270
227	272
227	286
227	287
227	289
227	293
227	296
227	298
228	14
228	46
228	51
228	67
228	95
228	97
228	112
228	113
228	141
228	176
228	192
228	193
228	197
228	211
228	212
228	213
228	239
228	244
228	248
228	249
228	251
228	273
228	276
228	285
228	291
228	297
229	23
229	34
229	39
229	56
229	69
229	98
229	102
229	125
229	136
229	148
229	152
229	178
229	195
229	196
229	204
229	208
229	218
229	221
229	233
229	234
229	236
229	240
229	245
229	246
229	259
229	276
230	1
230	7
230	15
230	123
230	138
230	143
230	166
230	169
230	172
230	173
230	193
230	210
230	236
230	255
230	261
230	263
230	266
230	269
230	270
230	281
230	286
230	287
230	292
230	293
230	296
230	298
231	1
231	73
231	118
231	122
231	130
231	155
231	172
231	179
231	202
231	210
231	220
231	221
231	271
231	275
231	278
231	279
231	280
231	282
231	287
231	288
231	290
231	292
231	294
231	297
231	299
231	300
232	3
232	7
232	10
232	20
232	25
232	27
232	39
232	41
232	52
232	55
232	58
232	64
232	70
232	78
232	89
232	109
232	130
232	153
232	158
232	160
232	198
232	209
232	216
232	218
232	234
232	280
233	9
233	34
233	39
233	41
233	52
233	54
233	98
233	125
233	137
233	144
233	146
233	148
233	152
233	166
233	189
233	195
233	205
233	208
233	221
233	229
233	234
233	238
233	240
233	246
233	259
233	289
234	23
234	34
234	56
234	103
234	125
234	136
234	137
234	146
234	148
234	173
234	195
234	196
234	205
234	208
234	211
234	215
234	221
234	224
234	229
234	232
234	233
234	239
234	240
234	245
234	259
234	290
235	13
235	35
235	36
235	37
235	66
235	75
235	84
235	91
235	112
235	118
235	156
235	163
235	164
235	174
235	175
235	197
235	201
235	219
235	222
235	223
235	224
235	237
235	253
235	254
235	258
235	265
235	280
236	21
236	22
236	60
236	87
236	127
236	150
236	173
236	191
236	204
236	223
236	229
236	230
236	248
236	255
236	260
236	263
236	266
236	267
236	268
236	269
236	270
236	286
236	287
236	293
236	294
236	296
236	298
237	13
237	15
237	35
237	36
237	42
237	48
237	75
237	85
237	91
237	112
237	163
237	164
237	171
237	174
237	175
237	201
237	207
237	210
237	222
237	223
237	235
237	245
237	254
237	258
237	265
237	288
237	299
238	56
238	114
238	138
238	139
238	149
238	166
238	179
238	202
238	209
238	233
238	247
238	264
238	269
238	271
238	272
238	275
238	278
238	279
238	280
238	282
238	285
238	288
238	290
238	292
238	294
238	297
238	300
239	69
239	89
239	93
239	107
239	113
239	121
239	128
239	157
239	162
239	164
239	194
239	212
239	213
239	220
239	228
239	234
239	243
239	244
239	249
239	251
239	263
239	273
239	276
239	279
239	285
239	291
239	296
240	5
240	18
240	56
240	98
240	122
240	125
240	139
240	144
240	146
240	152
240	189
240	192
240	196
240	205
240	208
240	221
240	229
240	233
240	234
240	243
240	245
240	246
240	251
240	259
240	272
240	283
240	298
241	12
241	41
241	50
241	83
241	106
241	111
241	116
241	126
241	129
241	133
241	141
241	147
241	150
241	165
241	180
241	206
241	215
241	216
241	217
241	224
241	225
241	256
241	257
241	264
241	275
241	286
241	296
242	19
242	68
242	95
242	99
242	115
242	132
242	157
242	161
242	170
242	177
242	182
242	193
242	204
242	257
242	262
242	267
242	268
242	272
242	274
242	281
242	283
242	287
242	288
242	289
242	293
242	295
242	299
243	30
243	48
243	64
243	78
243	89
243	119
243	148
243	162
243	192
243	194
243	197
243	211
243	213
243	220
243	239
243	240
243	244
243	248
243	249
243	251
243	273
243	276
243	284
243	285
243	288
243	291
243	297
244	17
244	22
244	48
244	68
244	71
244	113
244	119
244	162
244	194
244	197
244	212
244	220
244	228
244	239
244	243
244	245
244	246
244	248
244	249
244	251
244	260
244	270
244	273
244	274
244	276
244	285
244	291
245	23
245	54
245	56
245	61
245	98
245	103
245	125
245	136
245	144
245	146
245	189
245	195
245	205
245	208
245	221
245	229
245	234
245	237
245	240
245	244
245	246
245	247
245	259
245	264
245	277
245	284
245	285
246	5
246	18
246	23
246	34
246	39
246	54
246	91
246	103
246	106
246	125
246	136
246	144
246	148
246	151
246	152
246	156
246	163
246	189
246	205
246	221
246	229
246	233
246	240
246	244
246	245
246	259
246	272
246	300
247	29
247	38
247	55
247	61
247	109
247	130
247	140
247	145
247	156
247	170
247	177
247	178
247	193
247	196
247	208
247	212
247	214
247	225
247	238
247	245
247	253
247	262
247	263
247	277
247	281
247	289
247	295
247	299
248	12
248	46
248	48
248	50
248	51
248	76
248	92
248	113
248	119
248	121
248	128
248	152
248	162
248	171
248	212
248	213
248	220
248	228
248	236
248	243
248	244
248	249
248	276
248	278
248	285
248	290
248	291
248	295
249	74
249	85
249	89
249	93
249	96
249	97
249	113
249	115
249	120
249	121
249	126
249	151
249	168
249	176
249	192
249	194
249	197
249	228
249	239
249	243
249	244
249	248
249	251
249	273
249	276
249	285
249	291
249	292
250	44
250	55
250	57
250	59
250	80
250	88
250	94
250	110
250	151
250	176
250	181
250	186
250	200
250	222
250	225
250	252
250	266
250	275
250	278
250	279
250	282
250	284
250	288
250	290
250	294
250	297
250	299
250	300
251	46
251	67
251	76
251	79
251	93
251	120
251	123
251	166
251	168
251	181
251	192
251	194
251	197
251	211
251	213
251	228
251	239
251	240
251	243
251	244
251	249
251	255
251	273
251	276
251	285
251	287
251	289
251	291
251	292
252	5
252	26
252	49
252	59
252	62
252	81
252	122
252	138
252	149
252	155
252	185
252	202
252	210
252	250
252	257
252	259
252	264
252	278
252	279
252	281
252	282
252	284
252	288
252	290
252	293
252	294
252	295
252	297
252	300
253	1
253	29
253	34
253	38
253	43
253	51
253	94
253	105
253	109
253	127
253	145
253	156
253	178
253	180
253	193
253	203
253	204
253	225
253	235
253	247
253	262
253	268
253	272
253	277
253	281
253	287
253	289
253	295
253	299
254	13
254	15
254	36
254	37
254	38
254	40
254	66
254	77
254	85
254	91
254	112
254	125
254	163
254	164
254	174
254	201
254	207
254	212
254	219
254	221
254	222
254	223
254	235
254	237
254	258
254	259
254	265
254	285
254	290
254	294
255	20
255	45
255	53
255	63
255	116
255	120
255	123
255	127
255	131
255	164
255	169
255	172
255	203
255	205
255	230
255	236
255	251
255	259
255	260
255	261
255	266
255	267
255	268
255	269
255	279
255	286
255	287
255	293
255	296
255	298
256	10
256	12
256	17
256	26
256	41
256	50
256	71
256	83
256	111
256	116
256	129
256	131
256	133
256	141
256	142
256	148
256	150
256	159
256	165
256	180
256	201
256	206
256	209
256	217
256	224
256	226
256	241
256	257
256	262
256	270
257	24
257	26
257	41
257	50
257	83
257	106
257	111
257	116
257	129
257	133
257	141
257	142
257	147
257	150
257	165
257	180
257	184
257	206
257	217
257	224
257	226
257	241
257	242
257	252
257	256
257	274
257	279
257	286
257	292
257	298
258	1
258	13
258	15
258	23
258	36
258	37
258	43
258	66
258	77
258	84
258	85
258	91
258	112
258	157
258	163
258	164
258	174
258	175
258	201
258	207
258	222
258	223
258	224
258	235
258	237
258	254
258	265
258	276
258	282
258	300
259	5
259	18
259	34
259	39
259	54
259	56
259	57
259	97
259	98
259	121
259	125
259	136
259	146
259	173
259	189
259	195
259	196
259	199
259	205
259	208
259	220
259	221
259	229
259	233
259	234
259	240
259	245
259	246
259	252
259	254
259	255
260	1
260	8
260	19
260	33
260	55
260	75
260	84
260	123
260	131
260	132
260	169
260	173
260	190
260	191
260	227
260	236
260	244
260	255
260	261
260	266
260	267
260	268
260	269
260	270
260	274
260	286
260	287
260	293
260	294
260	296
260	298
261	35
261	45
261	60
261	64
261	88
261	91
261	101
261	108
261	124
261	134
261	163
261	166
261	172
261	184
261	185
261	190
261	199
261	207
261	230
261	255
261	260
261	263
261	266
261	268
261	269
261	270
261	286
261	287
261	288
261	293
261	296
261	298
262	19
262	35
262	43
262	64
262	99
262	130
262	140
262	143
262	149
262	156
262	157
262	175
262	178
262	182
262	201
262	203
262	204
262	205
262	225
262	242
262	247
262	253
262	256
262	264
262	272
262	275
262	277
262	281
262	283
262	289
262	295
262	299
263	22
263	42
263	45
263	60
263	108
263	123
263	124
263	127
263	128
263	131
263	154
263	169
263	190
263	199
263	230
263	236
263	239
263	247
263	261
263	267
263	268
263	269
263	270
263	273
263	276
263	280
263	283
263	286
263	287
263	293
263	296
263	298
264	21
264	59
264	79
264	88
264	99
264	118
264	138
264	139
264	149
264	155
264	157
264	158
264	200
264	206
264	207
264	209
264	238
264	241
264	245
264	252
264	262
264	271
264	275
264	278
264	279
264	280
264	284
264	288
264	290
264	292
264	294
264	300
265	13
265	15
265	16
265	36
265	37
265	66
265	72
265	75
265	77
265	85
265	91
265	98
265	128
265	163
265	164
265	172
265	174
265	175
265	178
265	188
265	201
265	207
265	219
265	222
265	223
265	235
265	237
265	254
265	258
265	280
265	285
265	297
266	22
266	28
266	53
266	101
266	108
266	124
266	126
266	158
266	179
266	185
266	187
266	190
266	191
266	199
266	201
266	227
266	230
266	236
266	250
266	255
266	260
266	261
266	267
266	268
266	269
266	270
266	278
266	287
266	293
266	294
266	295
266	296
266	298
267	22
267	32
267	101
267	123
267	124
267	135
267	142
267	145
267	159
267	165
267	166
267	169
267	172
267	175
267	182
267	190
267	200
267	227
267	236
267	242
267	255
267	260
267	263
267	266
267	268
267	269
267	270
267	273
267	286
267	287
267	293
267	296
267	298
268	8
268	11
268	32
268	47
268	124
268	126
268	154
268	155
268	165
268	172
268	173
268	191
268	199
268	227
268	236
268	242
268	253
268	255
268	260
268	261
268	263
268	266
268	267
268	269
268	270
268	274
268	280
268	285
268	286
268	287
268	293
268	296
268	298
269	32
269	63
269	86
269	101
269	108
269	113
269	126
269	147
269	173
269	175
269	190
269	191
269	199
269	227
269	230
269	236
269	238
269	255
269	260
269	261
269	263
269	266
269	267
269	268
269	278
269	280
269	286
269	287
269	290
269	293
269	296
269	298
269	300
270	30
270	53
270	60
270	63
270	101
270	118
270	122
270	124
270	126
270	127
270	153
270	166
270	190
270	215
270	224
270	227
270	230
270	236
270	244
270	256
270	260
270	261
270	263
270	266
270	267
270	268
270	273
270	286
270	287
270	291
270	293
270	296
270	298
271	3
271	22
271	27
271	31
271	34
271	44
271	57
271	71
271	86
271	99
271	102
271	107
271	114
271	137
271	155
271	156
271	181
271	185
271	186
271	202
271	213
271	220
271	231
271	238
271	264
271	280
271	284
271	288
271	290
271	292
271	294
271	297
271	300
272	21
272	33
272	35
272	38
272	43
272	47
272	61
272	95
272	143
272	156
272	157
272	161
272	170
272	176
272	214
272	223
272	225
272	227
272	238
272	240
272	242
272	246
272	253
272	262
272	273
272	274
272	277
272	282
272	283
272	289
272	292
272	293
272	295
272	299
273	48
273	68
273	71
273	76
273	89
273	92
273	93
273	97
273	113
273	120
273	121
273	128
273	132
273	139
273	162
273	165
273	168
273	194
273	197
273	213
273	228
273	239
273	243
273	244
273	249
273	251
273	263
273	267
273	270
273	272
273	274
273	276
273	285
273	299
274	13
274	18
274	43
274	47
274	62
274	73
274	99
274	105
274	106
274	109
274	132
274	140
274	143
274	145
274	150
274	176
274	178
274	182
274	203
274	207
274	214
274	225
274	242
274	244
274	257
274	260
274	268
274	272
274	273
274	281
274	289
274	290
274	295
274	299
275	25
275	30
275	41
275	59
275	65
275	87
275	89
275	90
275	100
275	119
275	138
275	143
275	149
275	181
275	185
275	186
275	198
275	200
275	202
275	231
275	238
275	241
275	250
275	262
275	264
275	277
275	278
275	279
275	280
275	282
275	290
275	294
275	295
275	297
275	300
276	46
276	48
276	67
276	76
276	89
276	97
276	112
276	119
276	120
276	128
276	137
276	148
276	161
276	192
276	194
276	197
276	211
276	212
276	220
276	228
276	229
276	239
276	243
276	244
276	248
276	249
276	251
276	258
276	263
276	273
276	285
276	286
276	289
276	291
276	300
277	16
277	19
277	21
277	47
277	62
277	68
277	86
277	103
277	105
277	107
277	121
277	137
277	140
277	146
277	157
277	177
277	178
277	193
277	203
277	204
277	214
277	245
277	247
277	253
277	262
277	272
277	275
277	281
277	283
277	288
277	289
277	292
277	293
277	295
277	299
278	40
278	45
278	49
278	65
278	73
278	92
278	94
278	100
278	118
278	136
278	138
278	151
278	158
278	161
278	179
278	181
278	202
278	204
278	231
278	238
278	248
278	250
278	252
278	264
278	266
278	269
278	275
278	280
278	284
278	290
278	292
278	294
278	295
278	297
278	299
278	300
279	31
279	44
279	56
279	61
279	88
279	94
279	137
279	138
279	151
279	158
279	163
279	181
279	182
279	196
279	207
279	210
279	213
279	231
279	238
279	239
279	250
279	252
279	255
279	257
279	264
279	275
279	280
279	282
279	284
279	288
279	290
279	292
279	294
279	296
279	297
279	300
280	31
280	40
280	47
280	86
280	90
280	100
280	114
280	118
280	137
280	139
280	154
280	158
280	174
280	179
280	181
280	202
280	216
280	231
280	232
280	235
280	238
280	263
280	264
280	265
280	268
280	269
280	271
280	275
280	278
280	279
280	281
280	282
280	284
280	286
280	290
280	292
280	300
281	17
281	19
281	29
281	47
281	57
281	61
281	62
281	95
281	99
281	105
281	110
281	130
281	132
281	145
281	156
281	168
281	170
281	176
281	178
281	181
281	186
281	193
281	202
281	204
281	225
281	230
281	242
281	247
281	252
281	253
281	262
281	274
281	277
281	280
281	289
281	293
281	295
281	299
282	16
282	27
282	33
282	40
282	49
282	56
282	57
282	59
282	71
282	87
282	88
282	90
282	93
282	118
282	122
282	137
282	138
282	149
282	151
282	154
282	158
282	183
282	189
282	204
282	208
282	210
282	231
282	238
282	250
282	252
282	258
282	272
282	275
282	279
282	280
282	285
282	288
282	290
282	292
282	300
283	16
283	28
283	47
283	62
283	88
283	92
283	95
283	99
283	105
283	106
283	107
283	110
283	132
283	140
283	143
283	145
283	157
283	161
283	176
283	177
283	182
283	192
283	193
283	194
283	202
283	203
283	204
283	217
283	240
283	242
283	262
283	263
283	272
283	277
283	287
283	288
283	289
283	295
283	296
283	297
283	299
284	2
284	30
284	44
284	49
284	65
284	71
284	82
284	86
284	100
284	109
284	111
284	114
284	118
284	122
284	123
284	137
284	149
284	155
284	156
284	170
284	179
284	185
284	186
284	199
284	200
284	210
284	215
284	243
284	245
284	250
284	252
284	264
284	271
284	278
284	279
284	280
284	288
284	290
284	294
284	295
284	297
285	16
285	31
285	48
285	51
285	68
285	76
285	89
285	93
285	119
285	120
285	121
285	128
285	147
285	162
285	168
285	169
285	188
285	192
285	194
285	197
285	204
285	211
285	212
285	213
285	220
285	228
285	238
285	239
285	243
285	244
285	245
285	248
285	249
285	251
285	254
285	265
285	268
285	273
285	276
285	282
285	291
285	295
286	1
286	8
286	19
286	29
286	32
286	45
286	53
286	63
286	66
286	76
286	86
286	108
286	123
286	126
286	127
286	131
286	132
286	166
286	172
286	173
286	191
286	203
286	212
286	227
286	230
286	236
286	241
286	255
286	257
286	260
286	261
286	263
286	267
286	268
286	269
286	270
286	276
286	280
286	287
286	293
286	296
286	298
286	300
287	1
287	8
287	15
287	22
287	32
287	35
287	53
287	101
287	108
287	120
287	123
287	126
287	131
287	136
287	169
287	172
287	191
287	192
287	199
287	202
287	208
287	213
287	227
287	230
287	231
287	236
287	242
287	251
287	253
287	255
287	260
287	261
287	263
287	266
287	267
287	268
287	269
287	270
287	283
287	286
287	293
287	296
287	298
288	30
288	31
288	40
288	42
288	49
288	59
288	63
288	65
288	86
288	87
288	100
288	114
288	123
288	149
288	154
288	155
288	158
288	169
288	175
288	176
288	181
288	185
288	200
288	210
288	218
288	224
288	225
288	231
288	237
288	238
288	242
288	243
288	250
288	252
288	261
288	264
288	271
288	277
288	279
288	282
288	283
288	284
288	290
288	292
288	297
289	21
289	28
289	38
289	43
289	47
289	61
289	91
289	99
289	100
289	107
289	114
289	126
289	132
289	147
289	156
289	157
289	161
289	167
289	170
289	176
289	177
289	182
289	193
289	195
289	200
289	203
289	211
289	214
289	225
289	227
289	233
289	242
289	247
289	251
289	253
289	262
289	272
289	274
289	276
289	277
289	281
289	283
289	293
289	295
289	299
290	7
290	44
290	49
290	57
290	86
290	100
290	114
290	138
290	139
290	149
290	154
290	161
290	178
290	179
290	185
290	186
290	189
290	200
290	202
290	210
290	216
290	217
290	222
290	231
290	234
290	238
290	248
290	250
290	252
290	254
290	264
290	269
290	271
290	274
290	275
290	278
290	279
290	280
290	282
290	284
290	288
290	292
290	294
290	295
290	297
290	298
290	300
291	16
291	46
291	48
291	51
291	62
291	65
291	67
291	68
291	76
291	80
291	89
291	93
291	97
291	104
291	113
291	119
291	120
291	121
291	128
291	129
291	145
291	150
291	155
291	162
291	168
291	184
291	192
291	194
291	197
291	198
291	211
291	212
291	213
291	218
291	220
291	228
291	239
291	243
291	244
291	248
291	249
291	251
291	270
291	276
291	285
291	296
291	298
292	22
292	30
292	31
292	39
292	40
292	49
292	57
292	59
292	60
292	71
292	87
292	90
292	94
292	115
292	116
292	137
292	138
292	139
292	144
292	151
292	154
292	155
292	158
292	179
292	181
292	200
292	202
292	219
292	226
292	230
292	231
292	238
292	249
292	251
292	257
292	264
292	271
292	272
292	277
292	278
292	279
292	280
292	282
292	288
292	290
292	294
292	297
292	300
293	1
293	8
293	21
293	32
293	36
293	45
293	53
293	60
293	63
293	76
293	81
293	101
293	108
293	124
293	126
293	127
293	131
293	142
293	166
293	169
293	171
293	172
293	174
293	190
293	191
293	199
293	201
293	210
293	227
293	230
293	236
293	242
293	252
293	255
293	260
293	261
293	263
293	266
293	267
293	268
293	269
293	270
293	272
293	277
293	281
293	286
293	287
293	289
293	296
293	298
294	24
294	31
294	32
294	40
294	42
294	44
294	57
294	71
294	74
294	81
294	86
294	87
294	88
294	90
294	92
294	93
294	94
294	114
294	118
294	128
294	137
294	151
294	154
294	155
294	181
294	185
294	191
294	202
294	210
294	216
294	221
294	231
294	236
294	238
294	250
294	252
294	254
294	260
294	264
294	266
294	271
294	275
294	278
294	279
294	284
294	290
294	292
294	296
294	297
294	300
295	19
295	21
295	28
295	29
295	35
295	43
295	54
295	61
295	72
295	97
295	99
295	106
295	107
295	109
295	140
295	145
295	156
295	157
295	161
295	170
295	176
295	177
295	178
295	193
295	198
295	199
295	200
295	203
295	204
295	208
295	214
295	242
295	247
295	248
295	252
295	253
295	262
295	266
295	272
295	274
295	275
295	277
295	278
295	281
295	283
295	284
295	285
295	289
295	290
295	299
296	8
296	22
296	32
296	45
296	53
296	60
296	63
296	66
296	90
296	95
296	101
296	122
296	123
296	124
296	126
296	131
296	137
296	158
296	166
296	169
296	172
296	173
296	176
296	190
296	191
296	199
296	209
296	212
296	224
296	227
296	230
296	236
296	239
296	241
296	255
296	260
296	261
296	263
296	266
296	267
296	268
296	269
296	270
296	279
296	283
296	286
296	287
296	291
296	293
296	294
296	298
297	2
297	30
297	31
297	40
297	52
297	57
297	60
297	65
297	71
297	86
297	88
297	90
297	91
297	94
297	97
297	100
297	113
297	118
297	122
297	136
297	139
297	144
297	151
297	154
297	158
297	175
297	179
297	185
297	200
297	202
297	210
297	219
297	226
297	228
297	231
297	238
297	243
297	250
297	252
297	265
297	271
297	275
297	278
297	279
297	283
297	284
297	288
297	290
297	292
297	294
297	298
297	300
298	1
298	8
298	22
298	32
298	45
298	51
298	53
298	62
298	63
298	77
298	100
298	101
298	108
298	117
298	123
298	124
298	126
298	127
298	129
298	131
298	141
298	166
298	169
298	172
298	173
298	186
298	190
298	191
298	197
298	199
298	223
298	227
298	230
298	236
298	240
298	255
298	257
298	260
298	261
298	263
298	266
298	267
298	268
298	269
298	270
298	286
298	287
298	290
298	291
298	293
298	296
298	297
298	299
299	16
299	20
299	28
299	29
299	35
299	38
299	43
299	61
299	62
299	95
299	98
299	100
299	101
299	106
299	107
299	109
299	111
299	125
299	132
299	143
299	145
299	148
299	156
299	157
299	161
299	166
299	168
299	170
299	177
299	182
299	186
299	193
299	201
299	203
299	204
299	214
299	225
299	231
299	237
299	242
299	247
299	250
299	253
299	262
299	272
299	273
299	274
299	277
299	278
299	281
299	283
299	289
299	295
299	298
300	40
300	42
300	44
300	52
300	71
300	78
300	82
300	87
300	90
300	94
300	100
300	114
300	118
300	122
300	137
300	138
300	139
300	141
300	147
300	149
300	153
300	154
300	155
300	180
300	181
300	185
300	186
300	190
300	200
300	202
300	204
300	210
300	219
300	221
300	231
300	238
300	246
300	250
300	252
300	258
300	264
300	269
300	271
300	275
300	276
300	278
300	279
300	280
300	282
300	286
300	290
300	292
300	294
300	297
