degree distribution (probability density function of the degree in logarithmic bins) 
4	4.93398
5	0.822158
6	0.0699067

degree distribution (degree-occurrences) 
4	0.816667
5	0.166667
6	0.0166667


--------------------------------------
community distribution (size-occurrences)
5	0.222222
6	0.333333
7	0.111111
8	0.222222
9	0.111111


--------------------------------------
mixing parameter
0	0.366667
0.166667	0.0166667
0.2	0.15
0.25	0.433333
0.4	0.0166667
0.5	0.0166667

--------------------------------------
