1	6
1	15
1	34
1	53
2	12
2	32
2	33
2	59
3	7
3	9
3	31
3	37
4	5
4	24
4	44
4	50
5	4
5	29
5	47
5	55
6	1
6	22
6	45
6	56
7	3
7	23
7	28
7	48
8	17
8	43
8	47
8	55
9	3
9	11
9	21
9	25
10	17
10	26
10	36
10	46
11	9
11	29
11	34
11	57
12	2
12	18
12	39
12	42
13	31
13	40
13	54
13	59
14	18
14	38
14	54
14	56
15	1
15	42
15	52
15	53
16	20
16	29
16	31
16	45
17	8
17	10
17	34
17	60
18	12
18	14
18	37
18	50
19	26
19	33
19	49
19	51
20	16
20	23
20	34
20	41
21	9
21	35
21	48
21	57
22	6
22	43
22	51
22	57
23	7
23	20
23	41
23	60
24	4
24	54
24	55
24	60
25	9
25	36
25	58
25	60
26	10
26	19
26	37
26	48
27	39
27	44
27	49
27	52
28	7
28	33
28	38
28	40
29	5
29	11
29	16
29	41
30	31
30	44
30	56
30	59
31	3
31	13
31	16
31	30
32	2
32	35
32	39
32	56
33	2
33	19
33	28
33	38
34	1
34	11
34	17
34	20
35	21
35	32
35	47
35	58
36	10
36	25
36	53
36	60
37	3
37	18
37	26
37	57
38	14
38	28
38	33
38	55
39	12
39	27
39	32
39	42
40	13
40	28
40	52
40	56
41	20
41	23
41	29
41	46
42	12
42	15
42	39
42	43
43	8
43	22
43	42
43	56
44	4
44	27
44	30
44	51
45	6
45	16
45	53
45	54
46	10
46	41
46	58
46	60
47	5
47	8
47	35
47	57
47	59
48	7
48	21
48	26
48	49
48	50
49	19
49	27
49	48
49	58
49	59
50	4
50	18
50	48
50	51
50	52
51	19
51	22
51	44
51	50
51	57
52	15
52	27
52	40
52	50
52	55
53	1
53	15
53	36
53	45
53	54
54	13
54	14
54	24
54	45
54	53
55	5
55	8
55	24
55	38
55	52
56	6
56	14
56	30
56	32
56	40
56	43
57	11
57	21
57	22
57	37
57	47
57	51
58	25
58	35
58	46
58	49
58	59
58	60
59	2
59	13
59	30
59	47
59	49
59	58
60	17
60	23
60	24
60	25
60	36
60	46
60	58
