degree distribution (probability density function of the degree in logarithmic bins) 
10	1.54401
11	0.380433
12	0.0604944
13	0.0183557
14	0.00835441
16	0.00760487

degree distribution (degree-occurrences) 
10	0.743017
11	0.201117
12	0.0335196
13	0.0111732
14	0.00558659
16	0.00558659


--------------------------------------
community distribution (size-occurrences)
10	0.142857
11	0.285714
12	0.0714286
13	0.0714286
14	0.142857
15	0.142857
16	0.142857


--------------------------------------
mixing parameter
0.4	0.0167598
0.454545	0.0223464
0.5	0.502793
0.545031	0.184358
0.571429	0.00558659
0.583333	0.0223464
0.6	0.22905
0.636364	0.00558659
0.7	0.0111732

--------------------------------------
