1	6 
2	5 
3	7 
4	3 
5	8 
6	7 
7	7 
8	8 
9	1 
10	2 
11	7 
12	4 
13	8 
14	8 
15	5 
16	5 
17	6 
18	3 
19	5 
20	1 
21	7 
22	6 
23	6 
24	1 
25	6 
26	6 
27	4 
28	8 
29	5 
30	3 
31	4 
32	4 
33	1 
34	1 
35	3 
36	5 
37	4 
38	3 
39	6 
40	2 
41	5 
42	4 
43	2 
44	3 
45	1 
46	6 
47	5 
48	2 
49	2 
50	2 
51	8 
52	3 
53	8 
54	7 
55	4 
56	7 
57	2 
58	7 
59	6 
60	7 
