degree distribution (probability density function of the degree in logarithmic bins) 
4	4.5312
5	0.822158
6	0.349534

degree distribution (degree-occurrences) 
4	0.75
5	0.166667
6	0.0833333


--------------------------------------
community distribution (size-occurrences)
5	0.222222
6	0.222222
7	0.333333
8	0.111111
9	0.111111


--------------------------------------
mixing parameter
0.25	0.133333
0.4	0.1
0.5	0.683333
0.6	0.0666667
0.75	0.0166667

--------------------------------------
