1	7
1	23
1	43
1	50
1	51
1	55
1	59
1	74
1	99
1	163
2	38
2	81
2	88
2	126
2	140
2	146
2	152
2	155
2	160
2	165
3	32
3	64
3	69
3	73
3	99
3	112
3	127
3	143
3	158
3	169
4	19
4	40
4	45
4	71
4	120
4	132
4	135
4	148
4	150
4	151
5	36
5	44
5	46
5	49
5	58
5	94
5	103
5	104
5	117
5	162
6	54
6	65
6	83
6	84
6	93
6	124
6	129
6	134
6	141
6	161
7	1
7	23
7	50
7	55
7	74
7	91
7	92
7	136
7	138
7	163
8	63
8	67
8	80
8	82
8	86
8	90
8	121
8	145
8	165
8	167
9	23
9	40
9	43
9	50
9	55
9	74
9	91
9	99
9	136
9	163
10	68
10	83
10	89
10	107
10	110
10	137
10	155
10	159
10	170
10	177
11	14
11	15
11	17
11	35
11	76
11	96
11	106
11	172
11	175
11	179
12	25
12	30
12	70
12	97
12	122
12	146
12	153
12	164
12	173
12	178
13	26
13	38
13	39
13	79
13	87
13	133
13	140
13	146
13	152
13	155
14	11
14	37
14	69
14	96
14	100
14	109
14	111
14	172
14	175
14	179
15	11
15	17
15	37
15	92
15	96
15	106
15	156
15	172
15	175
15	179
16	48
16	60
16	65
16	102
16	130
16	142
16	147
16	154
16	164
16	174
17	11
17	15
17	96
17	100
17	106
17	111
17	147
17	172
17	175
17	179
18	48
18	60
18	73
18	75
18	102
18	130
18	147
18	154
18	164
18	166
19	4
19	44
19	45
19	61
19	71
19	103
19	110
19	135
19	151
19	176
20	57
20	76
20	78
20	79
20	125
20	131
20	144
20	149
20	156
20	171
21	32
21	36
21	46
21	47
21	49
21	54
21	94
21	115
21	118
21	162
22	30
22	85
22	97
22	122
22	123
22	127
22	132
22	167
22	173
22	178
23	1
23	7
23	9
23	43
23	74
23	81
23	91
23	92
23	136
23	163
24	48
24	67
24	80
24	82
24	86
24	90
24	101
24	121
24	145
24	165
25	12
25	30
25	57
25	70
25	85
25	122
25	123
25	132
25	167
25	178
26	13
26	48
26	102
26	130
26	142
26	147
26	154
26	164
26	166
26	174
27	29
27	56
27	79
27	87
27	88
27	90
27	126
27	140
27	152
27	155
28	31
28	33
28	46
28	58
28	62
28	66
28	77
28	105
28	114
28	128
29	27
29	41
29	54
29	59
29	65
29	84
29	124
29	129
29	134
29	170
30	12
30	22
30	25
30	70
30	95
30	97
30	114
30	149
30	157
30	178
31	28
31	33
31	62
31	66
31	72
31	77
31	93
31	105
31	114
31	128
32	3
32	21
32	52
32	64
32	69
32	73
32	112
32	143
32	160
32	169
33	28
33	31
33	62
33	66
33	72
33	77
33	105
33	114
33	128
33	136
34	38
34	39
34	79
34	81
34	87
34	126
34	133
34	137
34	146
34	152
35	11
35	37
35	100
35	101
35	106
35	111
35	171
35	172
35	175
35	179
36	5
36	21
36	58
36	94
36	103
36	104
36	117
36	118
36	162
36	172
37	14
37	15
37	35
37	78
37	100
37	106
37	109
37	172
37	175
37	179
38	2
38	13
38	34
38	81
38	87
38	133
38	139
38	140
38	146
38	155
39	13
39	34
39	56
39	87
39	133
39	140
39	146
39	151
39	152
39	155
40	4
40	9
40	52
40	71
40	116
40	135
40	148
40	150
40	151
40	176
41	29
41	56
41	59
41	65
41	84
41	124
41	129
41	134
41	141
41	161
42	89
42	107
42	119
42	137
42	139
42	148
42	159
42	168
42	170
42	177
43	1
43	9
43	23
43	51
43	55
43	91
43	97
43	99
43	136
43	176
44	5
44	19
44	45
44	61
44	104
44	116
44	148
44	150
44	151
44	176
45	4
45	19
45	44
45	71
45	110
45	116
45	124
45	148
45	150
45	176
46	5
46	21
46	28
46	49
46	58
46	84
46	103
46	115
46	118
46	162
47	21
47	49
47	58
47	82
47	103
47	104
47	115
47	117
47	118
47	160
48	16
48	18
48	24
48	26
48	130
48	142
48	147
48	154
48	166
48	174
49	5
49	21
49	46
49	47
49	94
49	103
49	115
49	117
49	141
49	162
50	1
50	7
50	9
50	51
50	55
50	74
50	92
50	99
50	136
50	159
51	1
51	43
51	50
51	55
51	74
51	91
51	99
51	107
51	136
51	163
52	32
52	40
52	69
52	112
52	127
52	130
52	143
52	158
52	160
52	169
53	68
53	82
53	83
53	89
53	107
53	108
53	139
53	168
53	170
53	177
54	6
54	21
54	29
54	59
54	65
54	84
54	93
54	129
54	134
54	161
55	1
55	7
55	9
55	43
55	50
55	51
55	74
55	92
55	108
55	163
56	27
56	39
56	41
56	79
56	88
56	113
56	133
56	140
56	146
56	152
57	20
57	25
57	76
57	98
57	113
57	125
57	138
57	144
57	149
57	171
58	5
58	28
58	36
58	46
58	47
58	94
58	103
58	104
58	118
58	162
59	1
59	29
59	41
59	54
59	124
59	129
59	134
59	141
59	161
59	168
60	16
60	18
60	75
60	142
60	147
60	164
60	166
60	167
60	174
60	175
61	19
61	44
61	70
61	71
61	110
61	116
61	120
61	134
61	135
61	176
62	28
62	31
62	33
62	66
62	72
62	77
62	87
62	105
62	114
62	128
63	8
63	80
63	86
63	90
63	101
63	121
63	125
63	145
63	151
63	165
64	3
64	32
64	69
64	73
64	127
64	143
64	153
64	158
64	160
64	169
65	6
65	16
65	29
65	41
65	54
65	93
65	124
65	141
65	161
65	178
66	28
66	31
66	33
66	62
66	72
66	77
66	105
66	128
66	157
66	163
67	8
67	24
67	72
67	80
67	82
67	86
67	101
67	129
67	145
67	165
68	10
68	53
68	83
68	89
68	119
68	137
68	154
68	159
68	168
68	177
69	3
69	14
69	32
69	52
69	64
69	112
69	143
69	158
69	160
69	169
70	12
70	25
70	30
70	61
70	85
70	97
70	102
70	123
70	132
70	173
71	4
71	19
71	40
71	45
71	61
71	116
71	139
71	144
71	148
71	176
72	31
72	33
72	62
72	66
72	67
72	77
72	100
72	105
72	114
72	128
73	3
73	18
73	32
73	64
73	112
73	127
73	158
73	160
73	169
73	179
74	1
74	7
74	9
74	23
74	50
74	51
74	55
74	92
74	93
74	163
75	18
75	60
75	102
75	135
75	142
75	147
75	154
75	164
75	166
75	174
76	11
76	20
76	57
76	87
76	98
76	131
76	138
76	144
76	149
76	171
77	28
77	31
77	33
77	62
77	66
77	72
77	105
77	111
77	114
77	128
78	20
78	37
78	113
78	125
78	131
78	138
78	144
78	149
78	156
78	171
79	13
79	20
79	27
79	34
79	56
79	88
79	133
79	140
79	152
79	155
80	8
80	24
80	63
80	67
80	90
80	101
80	121
80	142
80	145
80	165
81	2
81	23
81	34
81	38
81	87
81	88
81	126
81	133
81	140
81	152
82	8
82	24
82	47
82	53
82	67
82	86
82	90
82	121
82	145
82	165
83	6
83	10
83	53
83	68
83	119
83	137
83	159
83	168
83	170
83	177
84	6
84	29
84	41
84	46
84	54
84	93
84	129
84	134
84	141
84	161
85	22
85	25
85	70
85	119
85	123
85	132
85	153
85	167
85	173
85	178
86	8
86	24
86	63
86	67
86	82
86	101
86	121
86	145
86	165
86	175
87	13
87	27
87	34
87	38
87	39
87	62
87	76
87	81
87	88
87	126
88	2
88	27
88	56
88	79
88	81
88	87
88	95
88	133
88	152
88	155
89	10
89	42
89	53
89	68
89	137
89	139
89	159
89	170
89	177
89	178
90	8
90	24
90	27
90	63
90	80
90	82
90	101
90	141
90	145
90	165
91	7
91	9
91	23
91	43
91	51
91	92
91	105
91	136
91	142
91	163
92	7
92	15
92	23
92	50
92	55
92	74
92	91
92	99
92	136
92	163
93	6
93	31
93	54
93	65
93	74
93	84
93	124
93	134
93	141
93	161
94	5
94	21
94	36
94	49
94	58
94	104
94	117
94	118
94	120
94	162
95	30
95	88
95	97
95	106
95	122
95	153
95	157
95	167
95	173
95	178
96	11
96	14
96	15
96	17
96	100
96	106
96	109
96	150
96	172
96	175
97	12
97	22
97	30
97	43
97	70
97	95
97	122
97	132
97	173
97	178
98	57
98	76
98	112
98	113
98	116
98	131
98	144
98	149
98	156
98	171
99	1
99	3
99	9
99	43
99	50
99	51
99	92
99	109
99	136
99	163
100	14
100	17
100	35
100	37
100	72
100	96
100	109
100	111
100	172
100	179
101	24
101	35
101	63
101	67
101	80
101	86
101	90
101	115
101	121
101	165
102	16
102	18
102	26
102	70
102	75
102	130
102	154
102	164
102	166
102	174
103	5
103	19
103	36
103	46
103	47
103	49
103	58
103	104
103	115
103	162
104	5
104	36
104	44
104	47
104	58
104	94
104	103
104	115
104	117
104	118
105	28
105	31
105	33
105	62
105	66
105	72
105	77
105	91
105	114
105	128
106	11
106	15
106	17
106	35
106	37
106	95
106	96
106	109
106	111
106	179
107	10
107	42
107	51
107	53
107	108
107	137
107	139
107	168
107	170
107	177
108	53
108	55
108	107
108	119
108	137
108	139
108	153
108	159
108	168
108	177
109	14
109	37
109	96
109	99
109	100
109	106
109	111
109	172
109	175
109	179
110	10
110	19
110	45
110	61
110	116
110	120
110	135
110	150
110	161
110	176
111	14
111	17
111	35
111	77
111	100
111	106
111	109
111	172
111	175
111	179
112	3
112	32
112	52
112	69
112	73
112	98
112	127
112	143
112	158
112	160
113	56
113	57
113	78
113	98
113	125
113	138
113	144
113	149
113	156
113	171
114	28
114	30
114	31
114	33
114	62
114	72
114	77
114	105
114	128
114	157
115	21
115	46
115	47
115	49
115	101
115	103
115	104
115	117
115	156
115	162
116	40
116	44
116	45
116	61
116	71
116	98
116	110
116	150
116	151
116	176
117	5
117	36
117	47
117	49
117	94
117	104
117	115
117	118
117	146
117	162
118	21
118	36
118	46
118	47
118	58
118	94
118	104
118	117
118	148
118	162
119	42
119	68
119	83
119	85
119	108
119	137
119	139
119	159
119	168
119	177
120	4
120	61
120	94
120	110
120	135
120	147
120	148
120	150
120	151
120	176
121	8
121	24
121	63
121	80
121	82
121	86
121	101
121	123
121	145
121	165
122	12
122	22
122	25
122	95
122	97
122	123
122	131
122	157
122	167
122	173
123	22
123	25
123	70
123	85
123	121
123	122
123	153
123	157
123	167
123	178
124	6
124	29
124	41
124	45
124	59
124	65
124	93
124	134
124	141
124	161
125	20
125	57
125	63
125	78
125	113
125	131
125	138
125	144
125	156
125	173
126	2
126	27
126	34
126	81
126	87
126	133
126	140
126	146
126	155
126	158
127	3
127	22
127	52
127	64
127	73
127	112
127	143
127	158
127	160
127	169
128	28
128	31
128	33
128	62
128	66
128	72
128	77
128	105
128	114
128	155
129	6
129	29
129	41
129	54
129	59
129	67
129	84
129	134
129	141
129	161
130	16
130	18
130	26
130	48
130	52
130	102
130	154
130	164
130	166
130	174
131	20
131	76
131	78
131	98
131	122
131	125
131	138
131	144
131	149
131	156
131	171
132	4
132	22
132	25
132	70
132	85
132	97
132	153
132	157
132	167
132	173
132	178
133	13
133	34
133	38
133	39
133	56
133	79
133	81
133	88
133	126
133	146
133	170
134	6
134	29
134	41
134	54
134	59
134	61
134	84
134	93
134	124
134	129
134	161
135	4
135	19
135	40
135	61
135	75
135	110
135	120
135	148
135	150
135	151
135	176
136	7
136	9
136	23
136	33
136	43
136	50
136	51
136	91
136	92
136	99
136	149
137	10
137	34
137	42
137	68
137	83
137	89
137	107
137	108
137	119
137	159
137	170
138	7
138	57
138	76
138	78
138	113
138	125
138	131
138	149
138	152
138	156
138	171
139	38
139	42
139	53
139	71
139	89
139	107
139	108
139	119
139	168
139	170
139	177
140	2
140	13
140	27
140	38
140	39
140	56
140	79
140	81
140	126
140	146
140	166
141	6
141	41
141	49
141	59
141	65
141	84
141	90
141	93
141	124
141	129
141	161
142	16
142	26
142	48
142	60
142	75
142	80
142	91
142	147
142	164
142	166
142	174
143	3
143	32
143	52
143	64
143	69
143	112
143	127
143	158
143	160
143	162
143	169
144	20
144	57
144	71
144	76
144	78
144	98
144	113
144	125
144	131
144	156
144	171
145	8
145	24
145	63
145	67
145	80
145	82
145	86
145	90
145	121
145	165
145	169
146	2
146	12
146	13
146	34
146	38
146	39
146	56
146	117
146	126
146	133
146	140
147	16
147	17
147	18
147	26
147	48
147	60
147	75
147	120
147	142
147	154
147	174
148	4
148	40
148	42
148	44
148	45
148	71
148	118
148	120
148	135
148	150
148	151
149	20
149	30
149	57
149	76
149	78
149	98
149	113
149	131
149	136
149	138
149	171
150	4
150	40
150	44
150	45
150	96
150	110
150	116
150	120
150	135
150	148
150	176
151	4
151	19
151	39
151	40
151	44
151	63
151	116
151	120
151	135
151	148
151	176
152	2
152	13
152	27
152	34
152	39
152	56
152	79
152	81
152	88
152	138
152	155
153	12
153	64
153	85
153	95
153	108
153	123
153	132
153	157
153	167
153	173
153	178
154	16
154	18
154	26
154	48
154	68
154	75
154	102
154	130
154	147
154	164
154	166
155	2
155	10
155	13
155	27
155	38
155	39
155	79
155	88
155	126
155	128
155	152
156	15
156	20
156	78
156	98
156	113
156	115
156	125
156	131
156	138
156	144
156	171
157	30
157	66
157	95
157	114
157	122
157	123
157	132
157	153
157	167
157	173
157	178
158	3
158	52
158	64
158	69
158	73
158	112
158	126
158	127
158	143
158	160
158	169
159	10
159	42
159	50
159	68
159	83
159	89
159	108
159	119
159	137
159	168
159	177
160	2
160	32
160	47
160	52
160	64
160	69
160	73
160	112
160	127
160	143
160	158
160	169
161	6
161	41
161	54
161	59
161	65
161	84
161	93
161	110
161	124
161	129
161	134
161	141
162	5
162	21
162	36
162	46
162	49
162	58
162	94
162	103
162	115
162	117
162	118
162	143
163	1
163	7
163	9
163	23
163	51
163	55
163	66
163	74
163	91
163	92
163	99
163	169
164	12
164	16
164	18
164	26
164	60
164	75
164	102
164	130
164	142
164	154
164	166
164	174
165	2
165	8
165	24
165	63
165	67
165	80
165	82
165	86
165	90
165	101
165	121
165	145
166	18
166	26
166	48
166	60
166	75
166	102
166	130
166	140
166	142
166	154
166	164
166	174
167	8
167	22
167	25
167	60
167	85
167	95
167	122
167	123
167	132
167	153
167	157
167	173
168	42
168	53
168	59
168	68
168	83
168	107
168	108
168	119
168	139
168	159
168	170
168	177
169	3
169	32
169	52
169	64
169	69
169	73
169	127
169	143
169	145
169	158
169	160
169	163
170	10
170	29
170	42
170	53
170	83
170	89
170	107
170	133
170	137
170	139
170	168
170	177
171	20
171	35
171	57
171	76
171	78
171	98
171	113
171	131
171	138
171	144
171	149
171	156
172	11
172	14
172	15
172	17
172	35
172	36
172	37
172	96
172	100
172	109
172	111
172	175
173	12
173	22
173	70
173	85
173	95
173	97
173	122
173	125
173	132
173	153
173	157
173	167
174	16
174	26
174	48
174	60
174	75
174	102
174	130
174	142
174	147
174	164
174	166
174	179
175	11
175	14
175	15
175	17
175	35
175	37
175	60
175	86
175	96
175	109
175	111
175	172
175	179
176	19
176	40
176	43
176	44
176	45
176	61
176	71
176	110
176	116
176	120
176	135
176	150
176	151
177	10
177	42
177	53
177	68
177	83
177	89
177	107
177	108
177	119
177	139
177	159
177	168
177	170
178	12
178	22
178	25
178	30
178	65
178	85
178	89
178	95
178	97
178	123
178	132
178	153
178	157
179	11
179	14
179	15
179	17
179	35
179	37
179	73
179	100
179	106
179	109
179	111
179	174
179	175
