1	7 
2	2 
3	3 
4	2 
5	10 
6	1 
7	4 
8	4 
9	1 
10	9 
11	10 
12	4 
13	4 
14	3 
15	9 
16	2 
17	8 
18	4 
19	7 
20	3 
21	5 
22	7 
23	10 
24	6 
25	1 
26	2 
27	9 
28	6 
29	2 
30	6 
31	2 
32	3 
33	10 
34	8 
35	8 
36	7 
37	3 
38	8 
39	9 
40	5 
41	7 
42	6 
43	5 
44	5 
45	6 
46	6 
47	7 
48	6 
49	9 
50	10 
51	7 
52	6 
53	4 
54	1 
55	4 
56	10 
57	5 
58	1 
59	9 
60	10 
