degree distribution (probability density function of the degree in logarithmic bins) 
3	0.077404
4	2.81574
5	0.42883
6	0.0829596

degree distribution (degree-occurrences) 
3	0.0166667
4	0.8
5	0.15
6	0.0333333


--------------------------------------
community distribution (size-occurrences)
4	0.1
5	0.3
6	0.2
7	0.3
8	0.1


--------------------------------------
mixing parameter
0	0.0166667
0.2	0.0333333
0.25	0.35
0.333333	0.05
0.4	0.1
0.5	0.416667
0.6	0.0166667
0.75	0.0166667

--------------------------------------
