1	7 
2	11 
3	6 
4	6 
5	13 
6	3 
7	4 
8	7 
9	3 
10	12 
11	11 
12	9 
13	13 
14	2 
15	3 
16	14 
17	9 
18	13 
19	6 
20	8 
21	14 
22	6 
23	12 
24	7 
25	13 
26	4 
27	5 
28	13 
29	13 
30	4 
31	5 
32	8 
33	4 
34	12 
35	11 
36	10 
37	14 
38	5 
39	3 
40	12 
41	10 
42	11 
43	1 
44	7 
45	8 
46	5 
47	8 
48	9 
49	1 
50	6 
51	8 
52	4 
53	2 
54	1 
55	2 
56	9 
57	14 
58	4 
59	9 
60	5 
61	2 
62	7 
63	3 
64	4 
65	2 
66	12 
67	12 
68	7 
69	3 
70	9 
71	7 
72	14 
73	11 
74	11 
75	5 
76	6 
77	14 
78	12 
79	7 
80	12 
81	1 
82	7 
83	1 
84	13 
85	10 
86	8 
87	8 
88	5 
89	3 
90	5 
91	10 
92	6 
93	9 
94	13 
95	4 
96	7 
97	8 
98	6 
99	13 
100	6 
101	1 
102	6 
103	3 
104	1 
105	9 
106	7 
107	4 
108	3 
109	14 
110	14 
111	11 
112	4 
113	13 
114	8 
115	4 
116	10 
117	6 
118	8 
119	9 
120	14 
121	10 
122	2 
123	6 
124	14 
125	11 
126	7 
127	11 
128	8 
129	3 
130	4 
131	10 
132	3 
133	4 
134	3 
135	5 
136	1 
137	8 
138	1 
139	9 
140	14 
141	10 
142	10 
143	12 
144	4 
145	3 
146	14 
147	4 
148	2 
149	2 
150	5 
151	14 
152	11 
153	8 
154	14 
155	10 
156	3 
157	2 
158	12 
159	1 
160	11 
161	14 
162	5 
163	5 
164	13 
165	7 
166	11 
167	8 
168	5 
169	6 
170	14 
171	9 
172	1 
173	12 
174	2 
175	2 
176	3 
177	1 
178	6 
179	8 
