1	5 
2	9 
3	4 
4	10 
5	5 
6	9 
7	10 
8	4 
9	8 
10	4 
11	5 
12	3 
13	3 
14	5 
15	3 
16	10 
17	4 
18	4 
19	7 
20	6 
21	3 
22	4 
23	1 
24	3 
25	6 
26	9 
27	7 
28	8 
29	1 
30	1 
31	3 
32	7 
33	2 
34	10 
35	2 
36	6 
37	6 
38	5 
39	5 
40	8 
41	8 
42	9 
43	2 
44	2 
45	7 
46	10 
47	1 
48	2 
49	8 
50	9 
51	3 
52	1 
53	9 
54	10 
55	10 
56	5 
57	4 
58	2 
59	10 
60	3 
