degree distribution (probability density function of the degree in logarithmic bins) 
13.4615	0.168134
15.4412	0.0982472
17.5714	0.0542312
19.5455	0.025387
21.6111	0.0371261
24.0952	0.0387092
27.1667	0.0197681
29.8182	0.0161944
34.125	0.0105257
37.4167	0.0141101

degree distribution (degree-occurrences) 
13	0.14
14	0.12
15	0.095
16	0.075
17	0.045
18	0.06
19	0.025
20	0.03
21	0.035
22	0.055
23	0.03
24	0.035
25	0.04
26	0.005
27	0.04
28	0.015
29	0.02
30	0.025
31	0.01
33	0.01
34	0.015
35	0.015
36	0.02
37	0.015
38	0.01
39	0.01
40	0.005


--------------------------------------
community distribution (size-occurrences)
13	0.125
15	0.25
22	0.125
28	0.125
29	0.125
38	0.125
40	0.125


--------------------------------------
mixing parameter
0.2	0.005
0.230769	0.015
0.25	0.015
0.266029	0.055
0.275929	0.065
0.284911	0.165
0.292771	0.1
0.298453	0.11
0.306815	0.185
0.313121	0.1
0.319234	0.06
0.333333	0.09
0.347826	0.005
0.357143	0.03

--------------------------------------
