degree distribution (probability density function of the degree in logarithmic bins) 
2	1.26592
3	0.506357
4	0.0800151
5	0.0674739
6	0.0284492
7	0.0239902
10.6667	0.0511778

degree distribution (degree-occurrences) 
2	0.470588
3	0.264706
4	0.0588235
5	0.0588235
6	0.0294118
7	0.0294118
10	0.0294118
11	0.0588235


--------------------------------------
community distribution (size-occurrences)
5	0.25
7	0.25
8	0.25
14	0.25


--------------------------------------
mixing parameter
0	0.264706
0.2	0.0294118
0.25	0.0294118
0.292857	0.0588235
0.333333	0.294118
0.363636	0.0294118
0.4	0.0294118
0.454545	0.0294118
0.5	0.235294

--------------------------------------
