degree distribution (probability density function of the degree in logarithmic bins) 
10	2.94212
11	0.602159
12	0.0897711
13	0.0484965

degree distribution (degree-occurrences) 
10	0.782123
11	0.173184
12	0.027933
13	0.0167598


--------------------------------------
community distribution (size-occurrences)
11	0.214286
12	0.357143
13	0.142857
14	0.0714286
15	0.142857
16	0.0714286


--------------------------------------
mixing parameter
0.3	0.00558659
0.363636	0.00558659
0.4	0.178771
0.416667	0.0111732
0.455295	0.156425
0.5	0.608939
0.545455	0.027933
0.6	0.00558659

--------------------------------------
