degree distribution (probability density function of the degree in logarithmic bins) 
13.3378	0.159512
15.4737	0.0732038
17.3333	0.0723082
19.4074	0.0415423
21.5357	0.0385011
24.08	0.0307216
27	0.0230627
30	0.0157036
33.6667	0.0131571
38	0.0109745

degree distribution (degree-occurrences) 
13	0.163333
14	0.0833333
15	0.0666667
16	0.06
17	0.0933333
18	0.0466667
19	0.0533333
20	0.0366667
21	0.0433333
22	0.05
23	0.0266667
24	0.0233333
25	0.0333333
26	0.0266667
27	0.0166667
28	0.0266667
29	0.0166667
30	0.02
31	0.0166667
32	0.01
33	0.01
34	0.0166667
35	0.0133333
36	0.01
38	0.0266667
40	0.01


--------------------------------------
community distribution (size-occurrences)
13	0.0769231
16	0.153846
17	0.0769231
18	0.0769231
19	0.153846
24	0.0769231
25	0.0769231
30	0.0769231
33	0.0769231
35	0.153846


--------------------------------------
mixing parameter
0.0761381	0.0233333
0.111111	0.0133333
0.117236	0.0366667
0.124688	0.0533333
0.132478	0.09
0.141272	0.2
0.149039	0.0766667
0.155081	0.25
0.164129	0.1
0.173538	0.0133333
0.177449	0.08
0.188051	0.04
0.2	0.0133333
0.214286	0.00333333
0.230769	0.00666667

--------------------------------------
