1	9 
2	7 
3	6 
4	10 
5	9 
6	1 
7	6 
8	9 
9	6 
10	2 
11	6 
12	2 
13	5 
14	7 
15	6 
16	3 
17	8 
18	6 
19	2 
20	5 
21	11 
22	7 
23	7 
24	11 
25	2 
26	1 
27	10 
28	11 
29	11 
30	3 
31	4 
32	6 
33	8 
34	8 
35	9 
36	11 
37	5 
38	4 
39	11 
40	5 
41	11 
42	1 
43	3 
44	9 
45	2 
46	7 
47	2 
48	11 
49	7 
50	7 
51	4 
52	8 
53	1 
54	2 
55	7 
56	4 
57	10 
58	3 
59	10 
60	2 
