degree distribution (probability density function of the degree in logarithmic bins) 
2	1.00018
3	0.343928
4	0.0814906
5	0.135159
6	0.0280217
7	0.0232383
8	0.0385427
10	0.0159816
11	0.0132535
13	0.010991

degree distribution (degree-occurrences) 
2	0.411765
3	0.205882
4	0.0588235
5	0.117647
6	0.0294118
7	0.0294118
8	0.0588235
10	0.0294118
11	0.0294118
13	0.0294118


--------------------------------------
community distribution (size-occurrences)
4	0.25
6	0.25
11	0.25
13	0.25


--------------------------------------
mixing parameter
0	0.0294118
0.333333	0.0588235
0.4	0.0294118
0.502674	0.5
0.594286	0.147059
0.621795	0.0882353
0.666667	0.0882353
1	0.0588235

--------------------------------------
