1	7 
2	8 
3	4 
4	6 
5	1 
6	10 
7	8 
8	1 
9	10 
10	3 
11	4 
12	5 
13	8 
14	9 
15	8 
16	9 
17	2 
18	6 
19	3 
20	7 
21	3 
22	10 
23	2 
24	1 
25	11 
26	7 
27	2 
28	3 
29	6 
30	8 
31	5 
32	1 
33	9 
34	3 
35	7 
36	5 
37	6 
38	5 
39	2 
40	3 
41	8 
42	5 
43	11 
44	2 
45	6 
46	9 
47	6 
48	1 
49	1 
50	6 
51	9 
52	7 
53	2 
54	1 
55	8 
56	9 
57	8 
58	11 
59	2 
60	9 
61	2 
62	10 
63	4 
64	9 
65	5 
66	1 
67	9 
68	7 
69	2 
70	4 
71	2 
72	3 
73	7 
74	5 
75	4 
76	4 
77	5 
78	10 
79	11 
80	5 
81	10 
82	9 
83	10 
84	5 
85	11 
86	6 
87	2 
88	8 
89	2 
90	9 
91	6 
92	1 
93	9 
94	8 
95	3 
96	1 
97	6 
98	2 
99	8 
100	10 
101	7 
102	1 
103	11 
104	2 
105	7 
106	8 
107	11 
108	5 
109	4 
110	7 
111	1 
112	10 
113	8 
114	1 
115	4 
116	7 
117	7 
118	7 
119	10 
120	6 
121	4 
122	5 
123	6 
124	4 
125	4 
126	7 
127	8 
128	11 
129	5 
130	10 
131	8 
132	5 
133	10 
134	9 
135	6 
136	3 
137	4 
138	5 
139	8 
140	1 
141	6 
142	9 
143	6 
144	6 
145	8 
146	5 
147	4 
148	2 
149	8 
150	3 
151	3 
152	6 
153	2 
154	11 
155	4 
156	4 
157	9 
158	6 
159	5 
160	4 
161	1 
162	8 
163	6 
164	7 
165	9 
166	10 
167	10 
168	11 
169	3 
170	7 
171	4 
172	9 
173	4 
174	2 
175	11 
176	8 
177	3 
178	5 
179	3 
180	8 
181	4 
182	4 
183	6 
184	8 
185	11 
186	3 
187	5 
188	11 
189	3 
190	3 
191	2 
192	9 
193	2 
194	7 
195	4 
196	11 
197	11 
198	8 
199	2 
200	9 
201	2 
202	11 
203	1 
204	5 
205	11 
206	4 
207	3 
208	5 
209	8 
210	8 
211	4 
212	5 
213	6 
214	5 
215	7 
216	4 
217	7 
218	1 
219	1 
220	8 
221	6 
222	3 
223	1 
224	5 
225	8 
226	9 
227	3 
228	5 
229	5 
230	9 
231	6 
232	6 
233	3 
234	9 
235	6 
236	2 
237	7 
238	5 
239	8 
240	4 
241	5 
242	8 
243	5 
244	6 
245	7 
246	4 
247	2 
248	1 
249	2 
250	7 
251	8 
252	9 
253	8 
254	4 
255	8 
256	3 
257	4 
258	9 
259	1 
260	8 
261	9 
262	9 
263	6 
264	2 
265	4 
266	9 
267	1 
268	8 
269	1 
270	1 
271	6 
272	2 
273	6 
274	2 
275	8 
276	4 
277	5 
278	4 
279	1 
280	9 
281	8 
282	1 
283	6 
284	6 
285	9 
286	9 
287	1 
288	6 
289	5 
290	9 
291	1 
292	2 
293	9 
294	9 
295	4 
296	9 
297	8 
298	4 
299	9 
300	1 
