degree distribution (probability density function of the degree in logarithmic bins) 
2	1.35907
3	0.402402
4	0.24822
5	0.110241
7	0.0544015
8	0.0468047
9	0.0201344

degree distribution (degree-occurrences) 
2	0.441176
3	0.176471
4	0.147059
5	0.0882353
7	0.0588235
8	0.0588235
9	0.0294118


--------------------------------------
community distribution (size-occurrences)
10	0.333333
11	0.333333
13	0.333333


--------------------------------------
mixing parameter
0	0.117647
0.2	0.0588235
0.25	0.147059
0.285714	0.0294118
0.333333	0.205882
0.375	0.0294118
0.4	0.0294118
0.428571	0.0294118
0.5	0.352941

--------------------------------------
