degree distribution (probability density function of the degree in logarithmic bins) 
4	4.43051
5	1.15102
6	0.139813

degree distribution (degree-occurrences) 
4	0.733333
5	0.233333
6	0.0333333


--------------------------------------
community distribution (size-occurrences)
4	0.111111
5	0.111111
6	0.333333
7	0.111111
8	0.111111
9	0.222222


--------------------------------------
mixing parameter
0.2	0.0166667
0.25	0.333333
0.333333	0.0166667
0.4	0.216667
0.5	0.383333
0.75	0.0333333

--------------------------------------
