1	5
1	13
1	14
1	35
2	22
2	53
2	54
2	57
3	37
3	45
3	52
3	58
4	6
4	37
4	44
4	54
5	1
5	17
5	28
5	35
6	4
6	22
6	49
6	56
7	13
7	18
7	20
7	53
8	15
8	43
8	45
8	57
9	15
9	19
9	21
9	60
10	28
10	32
10	39
10	59
11	14
11	18
11	38
11	48
12	17
12	31
12	36
12	56
13	1
13	7
13	47
13	58
14	1
14	11
14	16
14	50
15	8
15	9
15	33
15	52
16	14
16	50
16	59
16	60
17	5
17	12
17	19
17	34
18	7
18	11
18	33
18	50
19	9
19	17
19	26
19	53
20	7
20	32
20	40
20	41
21	9
21	33
21	38
21	57
22	2
22	6
22	24
22	54
23	31
23	35
23	46
23	55
24	22
24	25
24	29
24	49
25	24
25	27
25	38
25	58
26	19
26	39
26	51
26	60
27	25
27	33
27	44
27	55
28	5
28	10
28	29
28	48
29	24
29	28
29	44
29	56
30	31
30	36
30	46
30	60
31	12
31	23
31	30
31	48
32	10
32	20
32	54
32	55
33	15
33	18
33	21
33	27
34	17
34	42
34	46
34	60
35	1
35	5
35	23
35	38
36	12
36	30
36	57
36	58
37	3
37	4
37	43
37	51
38	11
38	21
38	25
38	35
39	10
39	26
39	53
39	60
40	20
40	43
40	51
40	56
41	20
41	47
41	52
41	58
42	34
42	47
42	55
42	59
43	8
43	37
43	40
43	46
44	4
44	27
44	29
44	45
45	3
45	8
45	44
45	47
46	23
46	30
46	34
46	43
47	13
47	41
47	42
47	45
48	11
48	28
48	31
48	50
49	6
49	24
49	51
49	53
50	14
50	16
50	18
50	48
50	59
51	26
51	37
51	40
51	49
51	54
52	3
52	15
52	41
52	56
52	59
53	2
53	7
53	19
53	39
53	49
54	2
54	4
54	22
54	32
54	51
55	23
55	27
55	32
55	42
55	59
56	6
56	12
56	29
56	40
56	52
57	2
57	8
57	21
57	36
57	58
58	3
58	13
58	25
58	36
58	41
58	57
59	10
59	16
59	42
59	50
59	52
59	55
60	9
60	16
60	26
60	30
60	34
60	39
