degree distribution (probability density function of the degree in logarithmic bins) 
10	2.64791
11	0.815829
12	0.161588
13	0.032331

degree distribution (degree-occurrences) 
10	0.703911
11	0.234637
12	0.0502793
13	0.0111732


--------------------------------------
community distribution (size-occurrences)
10	0.0769231
12	0.153846
13	0.307692
14	0.153846
15	0.0769231
16	0.153846
18	0.0769231


--------------------------------------
mixing parameter
0.4	0.00558659
0.5	0.178771
0.545455	0.128492
0.583333	0.0502793
0.6	0.519553
0.615385	0.0111732
0.636364	0.106145

--------------------------------------
