1	5 
2	4 
3	11 
4	7 
5	2 
6	2 
7	3 
8	11 
9	8 
10	11 
11	4 
12	13 
13	4 
14	5 
15	3 
16	12 
17	12 
18	7 
19	7 
20	2 
21	12 
22	13 
23	5 
24	12 
25	8 
26	5 
27	9 
28	11 
29	10 
30	14 
31	6 
32	4 
33	11 
34	11 
35	11 
36	12 
37	4 
38	7 
39	14 
40	4 
41	13 
42	9 
43	8 
44	8 
45	11 
46	10 
47	11 
48	1 
49	1 
50	14 
51	8 
52	3 
53	4 
54	10 
55	5 
56	10 
57	9 
58	6 
59	7 
60	10 
61	13 
62	10 
63	13 
64	11 
65	6 
66	2 
67	8 
68	4 
69	10 
70	1 
71	9 
72	3 
73	2 
74	5 
75	4 
76	7 
77	5 
78	2 
79	12 
80	1 
81	14 
82	11 
83	9 
84	2 
85	1 
86	13 
87	1 
88	9 
89	5 
90	3 
91	13 
92	6 
93	10 
94	5 
95	3 
96	6 
97	8 
98	3 
99	6 
100	11 
101	5 
102	1 
103	6 
104	3 
105	5 
106	12 
107	10 
108	9 
109	10 
110	9 
111	3 
112	1 
113	12 
114	12 
115	12 
116	8 
117	7 
118	5 
119	13 
120	14 
121	11 
122	11 
123	3 
124	6 
125	5 
126	9 
127	12 
128	12 
129	7 
130	10 
131	6 
132	2 
133	7 
134	10 
135	6 
136	7 
137	13 
138	3 
139	4 
140	2 
141	2 
142	7 
143	1 
144	1 
145	6 
146	13 
147	11 
148	6 
149	2 
150	10 
151	14 
152	9 
153	14 
154	12 
155	10 
156	10 
157	7 
158	7 
159	14 
160	9 
161	3 
162	7 
163	8 
164	13 
165	14 
166	2 
167	3 
168	2 
169	2 
170	10 
171	12 
172	5 
173	12 
174	2 
175	13 
176	8 
177	14 
178	7 
179	5 
