degree distribution (probability density function of the degree in logarithmic bins) 
4	4.83328
5	0.822158
6	0.139813

degree distribution (degree-occurrences) 
4	0.8
5	0.166667
6	0.0333333


--------------------------------------
community distribution (size-occurrences)
4	0.222222
5	0.111111
6	0.111111
7	0.111111
8	0.222222
9	0.222222


--------------------------------------
mixing parameter
0	0.0666667
0.166667	0.0333333
0.2	0.1
0.25	0.716667
0.4	0.05
0.5	0.0166667
0.6	0.0166667

--------------------------------------
