dataset,method,precision,recall,fmeasure,dnf,simple_dnf
g_lfr/g01,clauset,0.6849140674729471,0.5797413793103449,0.6279544791362708,NA,NA
g_lfr/g02,clauset,0.7024029574861368,0.6089743589743589,0.6523605150214592,NA,NA
g_lfr/g03,clauset,0.6753387533875339,0.5844277673545967,0.6266029670605985,NA,NA
g_lfr/g04,clauset,0.7431069266980498,0.61731843575419,0.6743973146170278,NA,NA
g_lfr/g05,clauset,0.7038698822209759,0.5799445471349353,0.6359260197618444,NA,NA
g_lfr/g06,clauset,0.7027371101209421,0.5941872981700753,0.6439195100612424,NA,NA
g_lfr/g07,clauset,0.7204968944099379,0.6141176470588235,0.66306764052080025,NA,NA
g_lfr/g08,clauset,0.6727272727272727,0.5873015873015873,0.6271186440677966,NA,NA
g_lfr/g09,clauset,0.6804389928986443,0.5547368421052632,0.6111916497535518,NA,NA
g_lfr/g10,clauset,0.7006060606060606,0.6538461538461539,0.6764189584552369,NA,NA
g_lfr/g01,luo,0.9158819836785939,0.7860991379310345,0.8460423311104668,NA,NA
g_lfr/g02,luo,0.903523974581167,0.8354700854700855,0.868165417707466,NA,NA
g_lfr/g03,luo,0.8526110297706199,0.8194183864915572,0.8356852427648888,NA,NA
g_lfr/g04,luo,0.9074918566775244,0.7782122905027933,0.8378947368421052,NA,NA
g_lfr/g05,luo,0.9111969111969112,0.7634011090573013,0.83077696756349,NA,NA
g_lfr/g06,luo,0.903169014084507,0.8283100107642627,0.8641212801796743,NA,NA
g_lfr/g07,luo,0.9113207547169812,0.8523529411764705,0.8808510638297872,NA,NA
g_lfr/g08,luo,0.9233082706766917,0.8121693121693122,0.864180154820549,NA,NA
g_lfr/g09,luo,0.8827751196172249,0.7768421052631579,0.826427771556551,NA,NA
g_lfr/g10,luo,0.8546158098396904,0.8744343891402715,0.8644115180318703,NA,NA
g_lfr/g01,chen,0.9676300578034682,0.4509698275862069,0.6152149944873209,NA,NA
g_lfr/g02,chen,0.9223300970873787,0.5074786324786325,0.6547208821502412,NA,NA
g_lfr/g03,chen,0.9678714859437751,0.4521575984990619,0.6163682864450127,NA,NA
g_lfr/g04,chen,0.9854260089686099,0.4910614525139665,0.6554809843400449,NA,NA
g_lfr/g05,chen,0.9270544783010157,0.46395563770794823,0.6184170003079766,NA,NA
g_lfr/g06,chen,0.9586507072905331,0.47416576964477936,0.6344976593446165,NA,NA
g_lfr/g07,chen,0.9811133200795229,0.5805882352941176,0.7294900221729489,NA,NA
g_lfr/g08,chen,0.9852579852579852,0.5304232804232805,0.6895958727429063,NA,NA
g_lfr/g09,chen,0.9378036929057337,0.5078947368421053,0.6589279617616934,NA,NA
g_lfr/g10,chen,0.956480605487228,0.5718325791855203,0.7157522123893804,NA,NA
