1	2 
2	12 
3	8 
4	11 
5	8 
6	3 
7	13 
8	14 
9	11 
10	4 
11	6 
12	1 
13	6 
14	13 
15	13 
16	13 
17	9 
18	11 
19	8 
20	12 
21	5 
22	5 
23	5 
24	4 
25	5 
26	6 
27	11 
28	7 
29	6 
30	6 
31	6 
32	9 
33	12 
34	9 
35	1 
36	8 
37	1 
38	13 
39	12 
40	6 
41	3 
42	10 
43	10 
44	1 
45	14 
46	1 
47	7 
48	10 
49	12 
50	1 
51	3 
52	12 
53	8 
54	5 
55	14 
56	12 
57	3 
58	13 
59	10 
60	13 
61	5 
62	3 
63	8 
64	11 
65	2 
66	3 
67	2 
68	6 
69	11 
70	2 
71	10 
72	13 
73	5 
74	4 
75	11 
76	5 
77	8 
78	5 
79	1 
80	2 
81	11 
82	7 
83	4 
84	10 
85	2 
86	11 
87	1 
88	14 
89	10 
90	9 
91	12 
92	1 
93	9 
94	6 
95	6 
96	1 
97	5 
98	14 
99	2 
100	11 
101	8 
102	3 
103	10 
104	13 
105	4 
106	1 
107	12 
108	2 
109	4 
110	9 
111	7 
112	14 
113	2 
114	4 
115	6 
116	10 
117	10 
118	6 
119	3 
120	10 
121	9 
122	6 
123	3 
124	3 
125	2 
126	5 
127	8 
128	8 
129	5 
130	13 
131	5 
132	7 
133	3 
134	12 
135	2 
136	10 
137	5 
138	10 
139	14 
140	6 
141	13 
142	9 
143	9 
144	11 
145	14 
146	7 
147	10 
148	14 
149	9 
150	10 
151	9 
152	8 
153	3 
154	3 
155	7 
156	2 
157	4 
158	1 
159	5 
160	6 
161	8 
162	1 
163	7 
164	7 
165	14 
166	1 
167	13 
168	4 
169	11 
170	7 
171	4 
172	5 
173	11 
174	14 
175	14 
176	6 
177	13 
178	3 
179	2 
