1	8 
2	8 
3	6 
4	10 
5	3 
6	5 
7	1 
8	13 
9	9 
10	7 
11	7 
12	11 
13	7 
14	12 
15	12 
16	1 
17	10 
18	13 
19	12 
20	11 
21	12 
22	10 
23	2 
24	2 
25	6 
26	5 
27	7 
28	3 
29	13 
30	10 
31	2 
32	10 
33	1 
34	12 
35	4 
36	12 
37	5 
38	4 
39	1 
40	4 
41	9 
42	7 
43	8 
44	6 
45	6 
46	11 
47	4 
48	4 
49	2 
50	11 
51	12 
52	10 
53	1 
54	9 
55	5 
56	1 
57	13 
58	4 
59	3 
60	10 
61	10 
62	4 
63	5 
64	7 
65	6 
66	7 
67	3 
68	11 
69	3 
70	13 
71	9 
72	4 
73	8 
74	7 
75	13 
76	3 
77	7 
78	5 
79	10 
80	2 
81	9 
82	9 
83	11 
84	11 
85	9 
86	13 
87	8 
88	12 
89	13 
90	3 
91	12 
92	8 
93	13 
94	13 
95	4 
96	4 
97	6 
98	2 
99	1 
100	6 
101	11 
102	8 
103	1 
104	5 
105	11 
106	8 
107	5 
108	11 
109	8 
110	6 
111	4 
112	5 
113	7 
114	10 
115	2 
116	2 
117	11 
118	5 
119	8 
120	6 
121	1 
122	13 
123	4 
124	5 
125	5 
126	2 
127	10 
128	2 
129	8 
130	4 
131	8 
132	13 
133	2 
134	12 
135	8 
136	10 
137	9 
138	12 
139	7 
140	8 
141	3 
142	7 
143	1 
144	10 
145	9 
146	7 
147	2 
148	6 
149	2 
150	3 
151	6 
152	12 
153	5 
154	1 
155	10 
156	10 
157	12 
158	1 
159	10 
160	3 
161	9 
162	11 
163	12 
164	8 
165	4 
166	2 
167	3 
168	8 
169	12 
170	13 
171	13 
172	6 
173	4 
174	12 
175	8 
176	1 
177	5 
178	9 
179	3 
