degree distribution (probability density function of the degree in logarithmic bins) 
10	2.23662
11	0.396843
12	0.17937
13	0.0257995
14	0.0116612

degree distribution (degree-occurrences) 
10	0.765363
11	0.145251
12	0.0726257
13	0.0111732
14	0.00558659


--------------------------------------
community distribution (size-occurrences)
10	0.214286
11	0.214286
12	0.0714286
13	0.285714
14	0.0714286
16	0.0714286
22	0.0714286


--------------------------------------
mixing parameter
0.3	0.00558659
0.363636	0.00558659
0.4	0.374302
0.416667	0.027933
0.428571	0.00558659
0.454545	0.128492
0.461538	0.0111732
0.5	0.430168
0.545455	0.0111732

--------------------------------------
