degree distribution (probability density function of the degree in logarithmic bins) 
2	1.28595
3	0.294795
4	0.122236
5	0.135159
6	0.0280217
7	0.0232383
13	0.010991

degree distribution (degree-occurrences) 
2	0.529412
3	0.176471
4	0.0882353
5	0.117647
6	0.0294118
7	0.0294118
13	0.0294118


--------------------------------------
community distribution (size-occurrences)
3	0.2
5	0.4
10	0.2
11	0.2


--------------------------------------
mixing parameter
0	0.352941
0.2	0.0588235
0.245192	0.117647
0.285714	0.0294118
0.333333	0.176471
0.4	0.0588235
0.5	0.205882

--------------------------------------
