1	28
1	33
1	36
1	46
2	11
2	13
2	30
2	50
3	11
3	13
3	18
3	49
4	15
4	23
4	40
4	44
5	33
5	55
5	57
5	60
6	30
6	31
6	37
6	47
7	10
7	16
7	21
7	52
8	12
8	22
8	26
8	51
9	25
9	34
9	51
9	57
10	7
10	31
10	41
10	52
11	2
11	3
11	24
11	42
12	8
12	16
12	35
12	48
13	2
13	3
13	19
13	50
14	15
14	45
14	58
14	59
15	4
15	14
15	44
15	58
16	7
16	12
16	21
16	41
17	23
17	37
17	54
17	55
18	3
18	20
18	25
18	57
19	13
19	35
19	39
19	50
20	18
20	40
20	51
20	57
21	7
21	16
21	41
21	52
22	8
22	26
22	35
22	48
23	4
23	17
23	32
23	60
24	11
24	39
24	42
24	49
25	9
25	18
25	32
25	57
26	8
26	22
26	35
26	48
27	29
27	39
27	46
27	59
28	1
28	36
28	48
28	59
29	27
29	38
29	41
29	59
30	2
30	6
30	31
30	47
31	6
31	10
31	30
31	47
32	23
32	25
32	33
32	60
33	1
33	5
33	32
33	60
34	9
34	38
34	46
34	59
35	12
35	19
35	22
35	26
36	1
36	28
36	46
36	52
37	6
37	17
37	55
37	60
38	29
38	34
38	58
38	59
39	19
39	24
39	27
39	49
40	4
40	20
40	45
40	58
41	10
41	16
41	21
41	29
42	11
42	24
42	43
42	56
43	42
43	53
43	54
43	56
44	4
44	15
44	45
44	58
45	14
45	40
45	44
45	58
46	1
46	27
46	34
46	36
47	6
47	30
47	31
47	53
48	12
48	22
48	26
48	28
49	3
49	24
49	39
49	50
50	2
50	13
50	19
50	49
51	8
51	9
51	20
51	57
52	7
52	10
52	21
52	36
53	43
53	47
53	54
53	56
54	17
54	43
54	53
54	56
55	5
55	17
55	37
55	56
55	60
56	42
56	43
56	53
56	54
56	55
57	5
57	9
57	18
57	20
57	25
57	51
58	14
58	15
58	38
58	40
58	44
58	45
59	14
59	27
59	28
59	29
59	34
59	38
60	5
60	23
60	32
60	33
60	37
60	55
