degree distribution (probability density function of the degree in logarithmic bins) 
4	4.6319
5	0.98659
6	0.139813

degree distribution (degree-occurrences) 
4	0.766667
5	0.2
6	0.0333333


--------------------------------------
community distribution (size-occurrences)
4	0.1
5	0.4
6	0.1
7	0.2
8	0.2


--------------------------------------
mixing parameter
0	0.316667
0.166667	0.0166667
0.2	0.166667
0.25	0.483333
0.5	0.0166667

--------------------------------------
