1	5 
2	9 
3	8 
4	3 
5	7 
6	6 
7	8 
8	9 
9	5 
10	4 
11	3 
12	5 
13	4 
14	5 
15	7 
16	1 
17	9 
18	4 
19	2 
20	2 
21	6 
22	4 
23	2 
24	7 
25	3 
26	3 
27	6 
28	6 
29	7 
30	1 
31	8 
32	6 
33	9 
34	7 
35	3 
36	4 
37	9 
38	4 
39	8 
40	4 
41	2 
42	9 
43	9 
44	5 
45	1 
46	2 
47	5 
48	2 
49	7 
50	5 
51	1 
52	7 
53	9 
54	9 
55	5 
56	7 
57	7 
58	3 
59	1 
60	7 
