dataset,method,precision,recall,fmeasure,dnf,simple_dnf
karate_lfr/karate-mu0.05,lpsmi,0.9777158774373259,0.8397129186602871,0.9034749034749034,(sr),(sr)
karate_lfr/karate-mu0.10,lpsmi,0.867816091954023,0.9263803680981595,0.8961424332344213,(sr.co30) + (sr.i3) + (sr.luoish),(sr.co30) + (sr.i3) + (sr.luoish)
karate_lfr/karate-mu0.15,lpsmi,0.8812949640287769,0.8221476510067114,0.8506944444444445,(sr.co30) + (sr.luoish),(sr.co30) + (sr.luoish)
karate_lfr/karate-mu0.20,lpsmi,0.7392241379310345,0.8886010362694301,0.8070588235294117,(sr.co30) + (sr.luoish) + (sr.co15) + (sr),(sr)
karate_lfr/karate-mu0.25,lpsmi,0.5017301038062284,1,0.6682027649769586,(sr) + (co30) + (adj),(sr) + (co30) + (adj)
karate_lfr/karate-mu0.30,lpsmi,0.5577889447236181,0.33636363636363636,0.41965973534971646,(co30),(co30)
karate_lfr/karate-mu0.35,lpsmi,0.4876660341555977,0.658974358974359,0.5605234460196292,(sr.co30) + (i4) + (i3.luoish) + (i3) + (sr.co15) + (sr.luoish) + (sr),(i4) + (i3) + (sr)
karate_lfr/karate-mu0.40,lpsmi,0.3788927335640138,1,0.5495608531994981,(sr.co30) + (sr) + (co30.luoish) + (co30) + (adj),(sr) + (co30) + (adj)
karate_lfr/karate-mu0.45,lpsmi,0.4149908592321755,0.6485714285714286,0.5061315496098104,(sr.co30) + (co30.luoish) + (co30.i2) + (sr.luoish) + (sr.co15),(sr.co30) + (co30.luoish) + (co30.i2) + (sr.luoish) + (sr.co15)
karate_lfr/karate-mu0.50,lpsmi,0.4046997389033943,0.5132450331125827,0.45255474452554745,(sr.co30) + (sr.luoish) + (sr.co15),(sr.co30) + (sr.luoish) + (sr.co15)
