1	26
1	27
2	28
2	32
3	22
3	33
4	25
4	28
5	21
5	23
6	25
6	34
7	10
7	34
8	29
8	34
9	13
9	17
10	7
10	31
11	28
11	32
12	29
12	33
13	9
13	31
14	19
14	30
15	20
15	33
16	30
16	31
16	33
17	9
17	27
17	33
18	24
18	32
18	34
19	14
19	22
19	32
20	15
20	29
20	34
21	5
21	24
21	26
21	34
22	3
22	19
22	23
22	34
23	5
23	22
23	26
23	34
24	18
24	21
24	32
24	34
25	4
25	6
25	27
25	34
26	1
26	21
26	23
26	34
27	1
27	17
27	25
27	31
27	33
28	2
28	4
28	11
28	32
28	33
29	8
29	12
29	20
29	33
29	34
30	14
30	16
30	32
30	33
30	34
31	10
31	13
31	16
31	27
31	32
31	33
32	2
32	11
32	18
32	19
32	24
32	28
32	30
32	31
32	33
32	34
33	3
33	12
33	15
33	16
33	17
33	27
33	28
33	29
33	30
33	31
33	32
34	6
34	7
34	8
34	18
34	20
34	21
34	22
34	23
34	24
34	25
34	26
34	29
34	30
34	32
