degree distribution (probability density function of the degree in logarithmic bins) 
2	1.36917
3	0.27833
4	0.114557
5	0.0628665
8	0.0175331
10	0.0144328
14	0.00977981

degree distribution (degree-occurrences) 
2	0.588235
3	0.176471
4	0.0882353
5	0.0588235
8	0.0294118
10	0.0294118
14	0.0294118


--------------------------------------
community distribution (size-occurrences)
9	0.333333
10	0.333333
15	0.333333


--------------------------------------
mixing parameter
0	0.147059
0.25	0.0882353
0.328571	0.205882
0.366071	0.0588235
0.4	0.0588235
0.5	0.411765
1	0.0294118

--------------------------------------
