1	21
1	36
1	40
1	54
2	3
2	18
2	41
2	44
3	2
3	7
3	8
3	58
4	16
4	49
4	52
4	56
5	23
5	25
5	43
5	46
6	7
6	8
6	30
6	58
7	3
7	6
7	58
7	59
8	3
8	6
8	9
8	58
9	8
9	14
9	48
9	55
10	19
10	25
10	48
10	60
11	13
11	24
11	28
11	53
12	15
12	42
12	50
12	59
13	11
13	18
13	45
13	53
14	9
14	28
14	55
14	58
15	12
15	24
15	50
15	59
16	4
16	34
16	37
16	47
17	31
17	36
17	40
17	56
18	2
18	13
18	41
18	44
19	10
19	26
19	35
19	57
20	21
20	24
20	44
20	53
21	1
21	20
21	24
21	45
22	27
22	29
22	33
22	48
23	5
23	38
23	43
23	47
24	11
24	15
24	20
24	21
25	5
25	10
25	35
25	60
26	19
26	38
26	57
26	60
27	22
27	29
27	33
27	34
28	11
28	14
28	42
28	55
29	22
29	27
29	33
29	45
30	6
30	42
30	48
30	51
31	17
31	48
31	51
31	55
32	39
32	50
32	55
32	59
33	22
33	27
33	29
33	60
34	16
34	27
34	43
34	47
35	19
35	25
35	57
35	60
36	1
36	17
36	56
36	59
37	16
37	38
37	46
37	56
38	23
38	26
38	37
38	46
39	32
39	50
39	52
39	59
40	1
40	17
40	50
40	54
41	2
41	18
41	44
41	57
42	12
42	28
42	30
42	51
43	5
43	23
43	34
43	51
44	2
44	18
44	20
44	41
45	13
45	21
45	29
45	53
46	5
46	37
46	38
46	51
47	16
47	23
47	34
47	57
48	9
48	10
48	22
48	30
48	31
49	4
49	52
49	53
49	54
49	56
50	12
50	15
50	32
50	39
50	40
51	30
51	31
51	42
51	43
51	46
52	4
52	39
52	49
52	54
52	56
53	11
53	13
53	20
53	45
53	49
54	1
54	40
54	49
54	52
54	60
55	9
55	14
55	28
55	31
55	32
55	58
56	4
56	17
56	36
56	37
56	49
56	52
57	19
57	26
57	35
57	41
57	47
57	60
58	3
58	6
58	7
58	8
58	14
58	55
59	7
59	12
59	15
59	32
59	36
59	39
60	10
60	25
60	26
60	33
60	35
60	54
60	57
