1	13
1	19
2	4
2	26
3	26
3	28
4	2
4	10
5	21
5	29
6	28
6	32
7	14
7	34
8	27
8	30
9	15
9	34
10	4
10	34
11	33
11	34
12	17
12	27
13	1
13	34
14	7
14	16
14	22
15	9
15	20
15	33
16	14
16	33
16	34
17	12
17	26
17	32
18	21
18	29
18	33
19	1
19	29
19	34
20	15
20	28
20	33
21	5
21	18
21	24
22	14
22	29
22	32
23	27
23	33
23	34
24	21
24	28
24	34
25	28
25	33
25	34
26	2
26	3
26	17
26	27
27	8
27	12
27	23
27	26
28	3
28	6
28	20
28	24
28	25
29	5
29	18
29	19
29	22
29	31
30	8
30	31
30	32
30	33
30	34
31	29
31	30
31	32
31	33
31	34
32	6
32	17
32	22
32	30
32	31
32	33
32	34
33	11
33	15
33	16
33	18
33	20
33	23
33	25
33	30
33	31
33	32
33	34
34	7
34	9
34	10
34	11
34	13
34	16
34	19
34	23
34	24
34	25
34	30
34	31
34	32
34	33
