1	6 
2	4 
3	5 
4	2 
5	2 
6	3 
7	7 
8	8 
9	5 
10	1 
11	4 
12	1 
13	8 
14	10 
15	3 
16	7 
17	10 
18	2 
19	10 
20	5 
21	5 
22	2 
23	1 
24	3 
25	2 
26	3 
27	3 
28	7 
29	9 
30	8 
31	2 
32	3 
33	1 
34	5 
35	3 
36	6 
37	9 
38	6 
39	5 
40	1 
41	9 
42	2 
43	3 
44	4 
45	9 
46	8 
47	6 
48	10 
49	9 
50	9 
51	2 
52	3 
53	10 
54	1 
55	4 
56	6 
57	4 
58	9 
59	9 
60	7 
