degree distribution (probability density function of the degree in logarithmic bins) 
4	3.11285
5	0.612039
6	0.146786
7	0.174991

degree distribution (degree-occurrences) 
4	0.716667
5	0.166667
6	0.05
7	0.0666667


--------------------------------------
community distribution (size-occurrences)
4	0.111111
5	0.222222
6	0.111111
7	0.222222
8	0.111111
9	0.222222


--------------------------------------
mixing parameter
0	0.35
0.142857	0.0666667
0.166667	0.0333333
0.2	0.116667
0.25	0.416667
0.333333	0.0166667

--------------------------------------
