degree distribution (probability density function of the degree in logarithmic bins) 
4	3.40242
5	0.673242
6	0.0489287
7	0.0437478

degree distribution (degree-occurrences) 
4	0.783333
5	0.183333
6	0.0166667
7	0.0166667


--------------------------------------
community distribution (size-occurrences)
4	0.111111
5	0.222222
6	0.111111
7	0.111111
8	0.333333
9	0.111111


--------------------------------------
mixing parameter
0.25	0.0166667
0.4	0.0166667
0.5	0.533333
0.571429	0.0166667
0.6	0.166667
0.75	0.233333
1	0.0166667

--------------------------------------
