1	27
1	56
1	59
1	60
2	9
2	34
2	39
2	45
3	20
3	25
3	49
3	50
4	12
4	13
4	23
4	57
5	8
5	15
5	38
5	55
6	26
6	52
6	53
6	58
7	25
7	42
7	46
7	50
8	5
8	15
8	29
8	55
9	2
9	30
9	39
9	45
10	16
10	19
10	32
10	35
11	27
11	36
11	56
11	60
12	4
12	31
12	37
12	52
13	4
13	31
13	41
13	51
14	44
14	52
14	54
14	58
15	5
15	8
15	29
15	38
16	10
16	35
16	48
16	60
17	19
17	33
17	47
17	48
18	33
18	56
18	59
18	60
19	10
19	17
19	33
19	48
20	3
20	46
20	49
20	50
21	30
21	34
21	40
21	45
22	26
22	38
22	43
22	55
23	4
23	41
23	46
23	51
24	28
24	53
24	54
24	58
25	3
25	7
25	49
25	54
26	6
26	22
26	43
26	55
27	1
27	11
27	59
27	60
28	24
28	42
28	52
28	53
29	8
29	15
29	43
29	55
30	9
30	21
30	40
30	45
31	12
31	13
31	51
31	57
32	10
32	35
32	47
32	48
33	17
33	18
33	19
33	47
34	2
34	21
34	39
34	40
35	10
35	16
35	32
35	47
36	11
36	42
36	59
36	60
37	12
37	41
37	51
37	57
38	5
38	15
38	22
38	43
39	2
39	9
39	34
39	40
40	21
40	30
40	34
40	39
41	13
41	23
41	37
41	57
42	7
42	28
42	36
42	50
43	22
43	26
43	29
43	38
44	14
44	53
44	54
44	58
45	2
45	9
45	21
45	30
46	7
46	20
46	23
46	49
46	50
47	17
47	32
47	33
47	35
47	48
48	16
48	17
48	19
48	32
48	47
49	3
49	20
49	25
49	46
49	58
50	3
50	7
50	20
50	42
50	46
51	13
51	23
51	31
51	37
51	57
52	6
52	12
52	14
52	28
52	54
53	6
53	24
53	28
53	44
53	58
54	14
54	24
54	25
54	44
54	52
55	5
55	8
55	22
55	26
55	29
56	1
56	11
56	18
56	59
56	60
57	4
57	31
57	37
57	41
57	51
58	6
58	14
58	24
58	44
58	49
58	53
59	1
59	18
59	27
59	36
59	56
59	60
60	1
60	11
60	16
60	18
60	27
60	36
60	56
60	59
