training,testing,method,precision,recall,fmeasure,dnf
g_lfr/g01,g01.gml,lpsfm,0.738835725677831,0.9983836206896551,0.8492208982584784,(sr.luo.chen) + (luoish.clauset)
g_lfr/g02,g01.gml,lpsfm,0.7602414833980163,0.9498922413793104,0.8445508982035927,(co15.luo.chen) + (i3.luoish) + (sr.luoish)
g_lfr/g03,g01.gml,lpsfm,0.6782449725776966,0.9994612068965517,0.8081028098453495,(co15.clauset.luo.chen) + (luoish.clauset) + (nm)
g_lfr/g04,g01.gml,lpsfm,0.819555975436939,0.9348060344827587,0.8733954190787817,(sr.co15.clauset.luo) + (i3.luoish.clauset) + (sr.luoish)
g_lfr/g05,g01.gml,lpsfm,0.6782449725776966,0.9994612068965517,0.8081028098453495,(co15.clauset.luo.chen) + (luoish.clauset) + (nm)
g_lfr/g06,g01.gml,lpsfm,0.7396331738437002,0.9994612068965517,0.8501374885426215,(co15.clauset.luo.chen) + (luoish.clauset) + (nm.luo)
g_lfr/g07,g01.gml,lpsfm,0.8095238095238095,0.9983836206896551,0.8940892641737033,(sr.co15.luo) + (luoish.clauset)
g_lfr/g08,g01.gml,lpsfm,0.9904648390941597,0.8954741379310345,0.9405772495755518,(nm) + (luoish) + (sr.co15.i2.chen)
g_lfr/g09,g01.gml,lpsfm,0.673436877737953,0.9110991379310345,0.7744446988779483,(clauset.luo.chen) + (nm.clauset)
g_lfr/g10,g01.gml,lpsfm,0.8178854215183977,0.9461206896551724,0.8773419935048713,(sr.co15.clauset.luo) + (i3.luoish.clauset) + (luoish.clauset.chen) + (sr.luoish)
g_lfr/g01,g01.gml,lpsfmv,0.08248888888888889,1,0.15240597799310232,(adj)
g_lfr/g02,g01.gml,lpsfmv,0.08248888888888889,1,0.15240597799310232,(adj)
g_lfr/g03,g01.gml,lpsfmv,0.08248888888888889,1,0.15240597799310232,(adj)
g_lfr/g04,g01.gml,lpsfmv,1,0.08081896551724138,0.14955134596211367,()
g_lfr/g05,g01.gml,lpsfmv,0.08248888888888889,1,0.15240597799310232,(adj)
g_lfr/g06,g01.gml,lpsfmv,0.08248888888888889,1,0.15240597799310232,(adj)
g_lfr/g07,g01.gml,lpsfmv,1,0.08081896551724138,0.14955134596211367,()
g_lfr/g08,g01.gml,lpsfmv,1,0.08081896551724138,0.14955134596211367,()
g_lfr/g09,g01.gml,lpsfmv,0.08248888888888889,1,0.15240597799310232,(adj)
g_lfr/g10,g01.gml,lpsfmv,1,0.08081896551724138,0.14955134596211367,()
g_lfr/g01,g01.gml,lpsfuzzy,0.7432041642567958,0.6923491379310345,0.7168758716875872,(ivu)
g_lfr/g02,g01.gml,lpsfuzzy,0.6438721136767318,0.78125,0.7059396299902628,(ivu)
g_lfr/g03,g01.gml,lpsfuzzy,0.46734628862695127,0.7904094827586207,0.5873873873873874,(nr.sr) + (nr.nm)
g_lfr/g04,g01.gml,lpsfuzzy,0.6438721136767318,0.78125,0.7059396299902628,(ivu)
g_lfr/g05,g01.gml,lpsfuzzy,0.45251562965168207,0.8189655172413793,0.5829338446788112,(nr.sr) + (nr.nm)
g_lfr/g06,g01.gml,lpsfuzzy,0.6438721136767318,0.78125,0.7059396299902628,(ivu)
g_lfr/g07,g01.gml,lpsfuzzy,0.7110286320254506,0.7225215517241379,0.7167290219134153,(ivu)
g_lfr/g08,g01.gml,lpsfuzzy,0.7734177215189874,0.6584051724137931,0.7112922002328289,(ivu)
g_lfr/g09,g01.gml,lpsfuzzy,0.6438721136767318,0.78125,0.7059396299902628,(ivu)
g_lfr/g10,g01.gml,lpsfuzzy,0.6438721136767318,0.78125,0.7059396299902628,(ivu)
g_lfr/g01,g01.gml,lpsmi,0.08248888888888889,1,0.15240597799310232,(adj)
g_lfr/g02,g01.gml,lpsmi,0.08248888888888889,1,0.15240597799310232,(adj)
g_lfr/g03,g01.gml,lpsmi,0.08248888888888889,1,0.15240597799310232,(adj)
g_lfr/g04,g01.gml,lpsmi,1,0.08081896551724138,0.14955134596211367,()
g_lfr/g05,g01.gml,lpsmi,0.08248888888888889,1,0.15240597799310232,(adj)
g_lfr/g06,g01.gml,lpsmi,0.08248888888888889,1,0.15240597799310232,(adj)
g_lfr/g07,g01.gml,lpsmi,1,0.08081896551724138,0.14955134596211367,()
g_lfr/g08,g01.gml,lpsmi,1,0.08081896551724138,0.14955134596211367,()
g_lfr/g09,g01.gml,lpsmi,0.08248888888888889,1,0.15240597799310232,(adj)
g_lfr/g10,g01.gml,lpsmi,1,0.08081896551724138,0.14955134596211367,()
