training,testing,method,precision,recall,fmeasure,dnf
g_lfr/g01,g03.gml,lpsfm,0.7605580693815988,0.9460600375234521,0.8432274247491639,(sr.luo.chen) + (luoish.clauset)
g_lfr/g02,g03.gml,lpsfm,0.7057163020465773,0.9380863039399625,0.8054772452678213,(co15.luo.chen) + (i3.luoish) + (sr.luoish)
g_lfr/g03,g03.gml,lpsfm,0.7053058465697871,0.9788930581613509,0.8198782164604205,(co15.clauset.luo.chen) + (luoish.clauset) + (nm)
g_lfr/g04,g03.gml,lpsfm,0.8096689895470384,0.8719512195121951,0.8396567299006323,(sr.co15.clauset.luo) + (i3.luoish.clauset) + (sr.luoish)
g_lfr/g05,g03.gml,lpsfm,0.7053058465697871,0.9788930581613509,0.8198782164604205,(co15.clauset.luo.chen) + (luoish.clauset) + (nm)
g_lfr/g06,g03.gml,lpsfm,0.6928429423459245,0.9807692307692307,0.8120388349514562,(co15.clauset.luo.chen) + (luoish.clauset) + (nm.luo)
g_lfr/g07,g03.gml,lpsfm,0.7942338072669827,0.9432457786116323,0.8623499142367067,(sr.co15.luo) + (luoish.clauset)
g_lfr/g08,g03.gml,lpsfm,0.9570917759237187,0.7532833020637899,0.84304461942257225,(nm) + (luoish) + (sr.co15.i2.chen)
g_lfr/g09,g03.gml,lpsfm,0.6435414601916088,0.9136960600375235,0.7551851133940685,(clauset.luo.chen) + (nm.clauset)
g_lfr/g10,g03.gml,lpsfm,0.8126837463250735,0.9075984990619137,0.8575227121648571,(sr.co15.clauset.luo) + (i3.luoish.clauset) + (luoish.clauset.chen) + (sr.luoish)
g_lfr/g01,g03.gml,lpsfmv,0.09475555555555555,1,0.17310815199740176,(adj)
g_lfr/g02,g03.gml,lpsfmv,0.09475555555555555,1,0.17310815199740176,(adj)
g_lfr/g03,g03.gml,lpsfmv,0.09475555555555555,1,0.17310815199740176,(adj)
g_lfr/g04,g03.gml,lpsfmv,1,0.07035647279549719,0.13146362839614373,()
g_lfr/g05,g03.gml,lpsfmv,0.09475555555555555,1,0.17310815199740176,(adj)
g_lfr/g06,g03.gml,lpsfmv,0.09475555555555555,1,0.17310815199740176,(adj)
g_lfr/g07,g03.gml,lpsfmv,1,0.07035647279549719,0.13146362839614373,()
g_lfr/g08,g03.gml,lpsfmv,1,0.07035647279549719,0.13146362839614373,()
g_lfr/g09,g03.gml,lpsfmv,0.09475555555555555,1,0.17310815199740176,(adj)
g_lfr/g10,g03.gml,lpsfmv,1,0.07035647279549719,0.13146362839614373,()
g_lfr/g01,g03.gml,lpsfuzzy,0.7908496732026143,0.5107879924953096,0.6206896551724139,(ivu)
g_lfr/g02,g03.gml,lpsfuzzy,0.7194805194805195,0.649624765478424,0.6827705200887356,(ivu)
g_lfr/g03,g03.gml,lpsfuzzy,0.5902555910543131,0.6932457786116323,0.6376186367558241,(nr.sr) + (nr.nm)
g_lfr/g04,g03.gml,lpsfuzzy,0.7194805194805195,0.649624765478424,0.6827705200887356,(ivu)
g_lfr/g05,g03.gml,lpsfuzzy,0.5574900253899165,0.7209193245778611,0.6287584373082429,(nr.sr) + (nr.nm)
g_lfr/g06,g03.gml,lpsfuzzy,0.7194805194805195,0.649624765478424,0.6827705200887356,(ivu)
g_lfr/g07,g03.gml,lpsfuzzy,0.7698465643762509,0.5412757973733584,0.6356375654089783,(ivu)
g_lfr/g08,g03.gml,lpsfuzzy,0.817741935483871,0.47560975609756095,0.6014234875444839,(ivu)
g_lfr/g09,g03.gml,lpsfuzzy,0.7194805194805195,0.649624765478424,0.6827705200887356,(ivu)
g_lfr/g10,g03.gml,lpsfuzzy,0.7194805194805195,0.649624765478424,0.6827705200887356,(ivu)
g_lfr/g01,g03.gml,lpsmi,0.09475555555555555,1,0.17310815199740176,(adj)
g_lfr/g02,g03.gml,lpsmi,0.09475555555555555,1,0.17310815199740176,(adj)
g_lfr/g03,g03.gml,lpsmi,0.09475555555555555,1,0.17310815199740176,(adj)
g_lfr/g04,g03.gml,lpsmi,1,0.07035647279549719,0.13146362839614373,()
g_lfr/g05,g03.gml,lpsmi,0.09475555555555555,1,0.17310815199740176,(adj)
g_lfr/g06,g03.gml,lpsmi,0.09475555555555555,1,0.17310815199740176,(adj)
g_lfr/g07,g03.gml,lpsmi,1,0.07035647279549719,0.13146362839614373,()
g_lfr/g08,g03.gml,lpsmi,1,0.07035647279549719,0.13146362839614373,()
g_lfr/g09,g03.gml,lpsmi,0.09475555555555555,1,0.17310815199740176,(adj)
g_lfr/g10,g03.gml,lpsmi,1,0.07035647279549719,0.13146362839614373,()
