training,testing,method,precision,recall,fmeasure,dnf
g_lfr/g01,g07.gml,lpsfm,0.7503325942350333,0.9952941176470588,0.8556257901390645,(sr.luo.chen) + (luoish.clauset)
g_lfr/g02,g07.gml,lpsfm,0.752855185015989,0.9694117647058823,0.847518642324505,(co15.luo.chen) + (i3.luoish) + (sr.luoish)
g_lfr/g03,g07.gml,lpsfm,0.6863140896245459,1,0.8139813263107494,(co15.clauset.luo.chen) + (luoish.clauset) + (nm)
g_lfr/g04,g07.gml,lpsfm,0.8158554942298043,0.9564705882352941,0.8805848903330625,(sr.co15.clauset.luo) + (i3.luoish.clauset) + (sr.luoish)
g_lfr/g05,g07.gml,lpsfm,0.6863140896245459,1,0.8139813263107494,(co15.clauset.luo.chen) + (luoish.clauset) + (nm)
g_lfr/g06,g07.gml,lpsfm,0.7449605609114811,1,0.8538422903063787,(co15.clauset.luo.chen) + (luoish.clauset) + (nm.luo)
g_lfr/g07,g07.gml,lpsfm,0.797373358348968,1,0.8872651356993736,(sr.co15.luo) + (luoish.clauset)
g_lfr/g08,g07.gml,lpsfm,0.9910661107802263,0.9788235294117648,0.9849067771530038,(nm) + (luoish) + (sr.co15.i2.chen)
g_lfr/g09,g07.gml,lpsfm,0.7152317880794702,0.9529411764705882,0.8171500630517025,(clauset.luo.chen) + (nm.clauset)
g_lfr/g10,g07.gml,lpsfm,0.8137691926696384,0.9664705882352941,0.8835708523796719,(sr.co15.clauset.luo) + (i3.luoish.clauset) + (luoish.clauset.chen) + (sr.luoish)
g_lfr/g01,g07.gml,lpsfmv,0.07555555555555556,1,0.14049586776859505,(adj)
g_lfr/g02,g07.gml,lpsfmv,0.07555555555555556,1,0.14049586776859505,(adj)
g_lfr/g03,g07.gml,lpsfmv,0.07555555555555556,1,0.14049586776859505,(adj)
g_lfr/g04,g07.gml,lpsfmv,1,0.08823529411764706,0.1621621621621622,()
g_lfr/g05,g07.gml,lpsfmv,0.07555555555555556,1,0.14049586776859505,(adj)
g_lfr/g06,g07.gml,lpsfmv,0.07555555555555556,1,0.14049586776859505,(adj)
g_lfr/g07,g07.gml,lpsfmv,1,0.08823529411764706,0.1621621621621622,()
g_lfr/g08,g07.gml,lpsfmv,1,0.08823529411764706,0.1621621621621622,()
g_lfr/g09,g07.gml,lpsfmv,0.07555555555555556,1,0.14049586776859505,(adj)
g_lfr/g10,g07.gml,lpsfmv,1,0.08823529411764706,0.1621621621621622,()
g_lfr/g01,g07.gml,lpsfuzzy,0.7301775147928994,0.7258823529411764,0.7280235988200588,(ivu)
g_lfr/g02,g07.gml,lpsfuzzy,0.6431516262024737,0.8258823529411765,0.723152201905743,(ivu)
g_lfr/g03,g07.gml,lpsfuzzy,0.5055615357014711,0.8288235294117647,0.62803655003343,(nr.sr) + (nr.nm)
g_lfr/g04,g07.gml,lpsfuzzy,0.6431516262024737,0.8258823529411765,0.723152201905743,(ivu)
g_lfr/g05,g07.gml,lpsfuzzy,0.48335015136226034,0.8452941176470589,0.6150224695056709,(nr.sr) + (nr.nm)
g_lfr/g06,g07.gml,lpsfuzzy,0.6431516262024737,0.8258823529411765,0.723152201905743,(ivu)
g_lfr/g07,g07.gml,lpsfuzzy,0.7126245847176079,0.7570588235294118,0.7341699942954935,(ivu)
g_lfr/g08,g07.gml,lpsfuzzy,0.76171875,0.6882352941176471,0.723114956736712,(ivu)
g_lfr/g09,g07.gml,lpsfuzzy,0.6431516262024737,0.8258823529411765,0.723152201905743,(ivu)
g_lfr/g10,g07.gml,lpsfuzzy,0.6431516262024737,0.8258823529411765,0.723152201905743,(ivu)
g_lfr/g01,g07.gml,lpsmi,0.07555555555555556,1,0.14049586776859505,(adj)
g_lfr/g02,g07.gml,lpsmi,0.07555555555555556,1,0.14049586776859505,(adj)
g_lfr/g03,g07.gml,lpsmi,0.07555555555555556,1,0.14049586776859505,(adj)
g_lfr/g04,g07.gml,lpsmi,1,0.08823529411764706,0.1621621621621622,()
g_lfr/g05,g07.gml,lpsmi,0.07555555555555556,1,0.14049586776859505,(adj)
g_lfr/g06,g07.gml,lpsmi,0.07555555555555556,1,0.14049586776859505,(adj)
g_lfr/g07,g07.gml,lpsmi,1,0.08823529411764706,0.1621621621621622,()
g_lfr/g08,g07.gml,lpsmi,1,0.08823529411764706,0.1621621621621622,()
g_lfr/g09,g07.gml,lpsmi,0.07555555555555556,1,0.14049586776859505,(adj)
g_lfr/g10,g07.gml,lpsmi,1,0.08823529411764706,0.1621621621621622,()
