training,testing,method,precision,recall,fmeasure,dnf
graphs/lfr-params/N/N1,baseline,lpsfm,0.8095799399914273,0.8784883720930232,0.8426277046620566,(sr)
graphs/lfr-params/N/N2,baseline,lpsfm,0.8095799399914273,0.8784883720930232,0.8426277046620566,(sr)
graphs/lfr-params/N/N3,baseline,lpsfm,0.8095799399914273,0.8784883720930232,0.8426277046620566,(sr)
graphs/lfr-params/N/N4,baseline,lpsfm,0.8288357748650732,1,0.9064080944350759,(sr) + (luoish) + (nm)
graphs/lfr-params/N/N5,baseline,lpsfm,0.8288357748650732,1,0.9064080944350759,(sr) + (luoish) + (nm)
graphs/lfr-params/N/N6,baseline,lpsfm,0.8288357748650732,1,0.9064080944350759,(sr) + (luoish) + (nm)
graphs/lfr-params/N/N7,baseline,lpsfm,0.8288357748650732,1,0.9064080944350759,(sr) + (luoish) + (nm)
graphs/lfr-params/N/N8,baseline,lpsfm,0.8288357748650732,1,0.9064080944350759,(sr) + (luoish) + (nm)
graphs/lfr-params/N/N9,baseline,lpsfm,0.8286760454808249,1,0.9063125724523132,(sr) + (luoish)
graphs/lfr-params/N/N10,baseline,lpsfm,0.8286760454808249,1,0.9063125724523132,(sr) + (luoish)
graphs/lfr-params/k/k1,baseline,lpsfm,0.827958024453644,1,0.9058829725601727,(sr) + (nr)
graphs/lfr-params/k/k2,baseline,lpsfm,0.8286760454808249,1,0.9063125724523132,(sr) + (luoish)
graphs/lfr-params/k/k3,baseline,lpsfm,0.8288357748650732,1,0.9064080944350759,(sr) + (luoish) + (nm)
graphs/lfr-params/k/k4,baseline,lpsfm,0.8286760454808249,1,0.9063125724523132,(sr) + (luoish)
graphs/lfr-params/k/k5,baseline,lpsfm,0.8288357748650732,1,0.9064080944350759,(sr) + (luoish) + (nm)
graphs/lfr-params/k/k6,baseline,lpsfm,0.8288357748650732,1,0.9064080944350759,(sr) + (luoish) + (nm)
graphs/lfr-params/k/k7,baseline,lpsfm,0.8095799399914273,0.8784883720930232,0.8426277046620566,(sr)
graphs/lfr-params/k/k8,baseline,lpsfm,0.8095799399914273,0.8784883720930232,0.8426277046620566,(sr)
graphs/lfr-params/maxk/maxk1,baseline,lpsfm,1,0.3455813953488372,0.5136536467334947,(nm)
graphs/lfr-params/maxk/maxk2,baseline,lpsfm,0.8286760454808249,1,0.9063125724523132,(sr) + (luoish)
graphs/lfr-params/maxk/maxk3,baseline,lpsfm,0.8288357748650732,1,0.9064080944350759,(sr) + (luoish) + (nm)
graphs/lfr-params/maxk/maxk4,baseline,lpsfm,0.8286760454808249,1,0.9063125724523132,(sr) + (luoish)
graphs/lfr-params/maxk/maxk5,baseline,lpsfm,0.8095799399914273,0.8784883720930232,0.8426277046620566,(sr)
graphs/lfr-params/mu/mu1,baseline,lpsfm,1,0.7293023255813953,0.8434642280796126,(nm) + (nr)
graphs/lfr-params/mu/mu2,baseline,lpsfm,1,0.7293023255813953,0.8434642280796126,(nm) + (nr)
graphs/lfr-params/mu/mu3,baseline,lpsfm,0.8286760454808249,1,0.9063125724523132,(sr) + (luoish)
graphs/lfr-params/mu/mu4,baseline,lpsfm,0.8288357748650732,1,0.9064080944350759,(sr) + (luoish) + (nm)
graphs/lfr-params/mu/mu5,baseline,lpsfm,0.8288357748650732,1,0.9064080944350759,(sr) + (luoish) + (nm)
graphs/lfr-params/mu/mu6,baseline,lpsfm,0.8288357748650732,1,0.9064080944350759,(sr) + (luoish) + (nm)
graphs/lfr-params/mu/mu7,baseline,lpsfm,0.8288357748650732,1,0.9064080944350759,(sr) + (luoish) + (nm)
graphs/lfr-params/mu/mu8,baseline,lpsfm,0.8288357748650732,1,0.9064080944350759,(sr) + (luoish) + (nm)
graphs/lfr-params/mu/mu9,baseline,lpsfm,0.8286760454808249,1,0.9063125724523132,(sr) + (luoish)
graphs/lfr-params/t1/t11,baseline,lpsfm,0.8288357748650732,1,0.9064080944350759,(sr) + (luoish) + (nm)
graphs/lfr-params/t1/t12,baseline,lpsfm,0.8288357748650732,1,0.9064080944350759,(sr) + (luoish) + (nm)
graphs/lfr-params/t1/t13,baseline,lpsfm,0.8288357748650732,1,0.9064080944350759,(sr) + (luoish) + (nm)
graphs/lfr-params/t1/t14,baseline,lpsfm,0.8288357748650732,1,0.9064080944350759,(sr) + (luoish) + (nm)
graphs/lfr-params/t1/t15,baseline,lpsfm,0.8288357748650732,1,0.9064080944350759,(sr) + (luoish) + (nm)
graphs/lfr-params/N/N1,baseline,lpsfmv,0.09555555555555556,1,0.1744421906693712,(adj)
graphs/lfr-params/N/N2,baseline,lpsfmv,0.09555555555555556,1,0.1744421906693712,(adj)
graphs/lfr-params/N/N3,baseline,lpsfmv,0.09555555555555556,1,0.1744421906693712,(adj)
graphs/lfr-params/N/N4,baseline,lpsfmv,0.09555555555555556,1,0.1744421906693712,(adj)
graphs/lfr-params/N/N5,baseline,lpsfmv,0.09555555555555556,1,0.1744421906693712,(adj)
graphs/lfr-params/N/N6,baseline,lpsfmv,0.09555555555555556,1,0.1744421906693712,(adj)
graphs/lfr-params/N/N7,baseline,lpsfmv,0.09555555555555556,1,0.1744421906693712,(adj)
graphs/lfr-params/N/N8,baseline,lpsfmv,0.09555555555555556,1,0.1744421906693712,(adj)
graphs/lfr-params/N/N9,baseline,lpsfmv,0.09555555555555556,1,0.1744421906693712,(adj)
graphs/lfr-params/N/N10,baseline,lpsfmv,0.09555555555555556,1,0.1744421906693712,(adj)
graphs/lfr-params/k/k1,baseline,lpsfmv,0.09555555555555556,1,0.1744421906693712,(adj)
graphs/lfr-params/k/k2,baseline,lpsfmv,0.09555555555555556,1,0.1744421906693712,(adj)
graphs/lfr-params/k/k3,baseline,lpsfmv,0.09555555555555556,1,0.1744421906693712,(adj)
graphs/lfr-params/k/k4,baseline,lpsfmv,0.09555555555555556,1,0.1744421906693712,(adj)
graphs/lfr-params/k/k5,baseline,lpsfmv,0.09555555555555556,1,0.1744421906693712,(adj)
graphs/lfr-params/k/k6,baseline,lpsfmv,0.09555555555555556,1,0.1744421906693712,(adj)
graphs/lfr-params/k/k7,baseline,lpsfmv,0.09555555555555556,1,0.1744421906693712,(adj)
graphs/lfr-params/k/k8,baseline,lpsfmv,0.09555555555555556,1,0.1744421906693712,(adj)
graphs/lfr-params/maxk/maxk1,baseline,lpsfmv,0.09555555555555556,1,0.1744421906693712,(adj)
graphs/lfr-params/maxk/maxk2,baseline,lpsfmv,0.09555555555555556,1,0.1744421906693712,(adj)
graphs/lfr-params/maxk/maxk3,baseline,lpsfmv,0.09555555555555556,1,0.1744421906693712,(adj)
graphs/lfr-params/maxk/maxk4,baseline,lpsfmv,0.09555555555555556,1,0.1744421906693712,(adj)
graphs/lfr-params/maxk/maxk5,baseline,lpsfmv,0.09555555555555556,1,0.1744421906693712,(adj)
graphs/lfr-params/mu/mu1,baseline,lpsfmv,0.09555555555555556,1,0.1744421906693712,(adj)
graphs/lfr-params/mu/mu2,baseline,lpsfmv,0.09555555555555556,1,0.1744421906693712,(adj)
graphs/lfr-params/mu/mu3,baseline,lpsfmv,0.09555555555555556,1,0.1744421906693712,(adj)
graphs/lfr-params/mu/mu4,baseline,lpsfmv,0.09555555555555556,1,0.1744421906693712,(adj)
graphs/lfr-params/mu/mu5,baseline,lpsfmv,0.09555555555555556,1,0.1744421906693712,(adj)
graphs/lfr-params/mu/mu6,baseline,lpsfmv,0.09555555555555556,1,0.1744421906693712,(adj)
graphs/lfr-params/mu/mu7,baseline,lpsfmv,0.09555555555555556,1,0.1744421906693712,(adj)
graphs/lfr-params/mu/mu8,baseline,lpsfmv,0.09555555555555556,1,0.1744421906693712,(adj)
graphs/lfr-params/mu/mu9,baseline,lpsfmv,0.09555555555555556,1,0.1744421906693712,(adj)
graphs/lfr-params/t1/t11,baseline,lpsfmv,0.09555555555555556,1,0.1744421906693712,(adj)
graphs/lfr-params/t1/t12,baseline,lpsfmv,0.09555555555555556,1,0.1744421906693712,(adj)
graphs/lfr-params/t1/t13,baseline,lpsfmv,0.09555555555555556,1,0.1744421906693712,(adj)
graphs/lfr-params/t1/t14,baseline,lpsfmv,0.09555555555555556,1,0.1744421906693712,(adj)
graphs/lfr-params/t1/t15,baseline,lpsfmv,0.09555555555555556,1,0.1744421906693712,(adj)
graphs/lfr-params/N/N1,baseline,lpsmi,0.09555555555555556,1,0.1744421906693712,(adj)
graphs/lfr-params/N/N2,baseline,lpsmi,0.09555555555555556,1,0.1744421906693712,(adj)
graphs/lfr-params/N/N3,baseline,lpsmi,0.09555555555555556,1,0.1744421906693712,(adj)
graphs/lfr-params/N/N4,baseline,lpsmi,0.09555555555555556,1,0.1744421906693712,(adj)
graphs/lfr-params/N/N5,baseline,lpsmi,0.09555555555555556,1,0.1744421906693712,(adj)
graphs/lfr-params/N/N6,baseline,lpsmi,0.09555555555555556,1,0.1744421906693712,(adj)
graphs/lfr-params/N/N7,baseline,lpsmi,0.09555555555555556,1,0.1744421906693712,(adj)
graphs/lfr-params/N/N8,baseline,lpsmi,0.09555555555555556,1,0.1744421906693712,(adj)
graphs/lfr-params/N/N9,baseline,lpsmi,0.09555555555555556,1,0.1744421906693712,(adj)
graphs/lfr-params/N/N10,baseline,lpsmi,0.09555555555555556,1,0.1744421906693712,(adj)
graphs/lfr-params/k/k1,baseline,lpsmi,0.09555555555555556,1,0.1744421906693712,(adj)
graphs/lfr-params/k/k2,baseline,lpsmi,0.09555555555555556,1,0.1744421906693712,(adj)
graphs/lfr-params/k/k3,baseline,lpsmi,0.09555555555555556,1,0.1744421906693712,(adj)
graphs/lfr-params/k/k4,baseline,lpsmi,0.09555555555555556,1,0.1744421906693712,(adj)
graphs/lfr-params/k/k5,baseline,lpsmi,0.09555555555555556,1,0.1744421906693712,(adj)
graphs/lfr-params/k/k6,baseline,lpsmi,0.09555555555555556,1,0.1744421906693712,(adj)
graphs/lfr-params/k/k7,baseline,lpsmi,0.09555555555555556,1,0.1744421906693712,(adj)
graphs/lfr-params/k/k8,baseline,lpsmi,0.09555555555555556,1,0.1744421906693712,(adj)
graphs/lfr-params/maxk/maxk1,baseline,lpsmi,0.09555555555555556,1,0.1744421906693712,(adj)
graphs/lfr-params/maxk/maxk2,baseline,lpsmi,0.09555555555555556,1,0.1744421906693712,(adj)
graphs/lfr-params/maxk/maxk3,baseline,lpsmi,0.09555555555555556,1,0.1744421906693712,(adj)
graphs/lfr-params/maxk/maxk4,baseline,lpsmi,0.09555555555555556,1,0.1744421906693712,(adj)
graphs/lfr-params/maxk/maxk5,baseline,lpsmi,0.09555555555555556,1,0.1744421906693712,(adj)
graphs/lfr-params/mu/mu1,baseline,lpsmi,0.09555555555555556,1,0.1744421906693712,(adj)
graphs/lfr-params/mu/mu2,baseline,lpsmi,0.09555555555555556,1,0.1744421906693712,(adj)
graphs/lfr-params/mu/mu3,baseline,lpsmi,0.09555555555555556,1,0.1744421906693712,(adj)
graphs/lfr-params/mu/mu4,baseline,lpsmi,0.09555555555555556,1,0.1744421906693712,(adj)
graphs/lfr-params/mu/mu5,baseline,lpsmi,0.09555555555555556,1,0.1744421906693712,(adj)
graphs/lfr-params/mu/mu6,baseline,lpsmi,0.09555555555555556,1,0.1744421906693712,(adj)
graphs/lfr-params/mu/mu7,baseline,lpsmi,0.09555555555555556,1,0.1744421906693712,(adj)
graphs/lfr-params/mu/mu8,baseline,lpsmi,0.09555555555555556,1,0.1744421906693712,(adj)
graphs/lfr-params/mu/mu9,baseline,lpsmi,0.09555555555555556,1,0.1744421906693712,(adj)
graphs/lfr-params/t1/t11,baseline,lpsmi,0.09555555555555556,1,0.1744421906693712,(adj)
graphs/lfr-params/t1/t12,baseline,lpsmi,0.09555555555555556,1,0.1744421906693712,(adj)
graphs/lfr-params/t1/t13,baseline,lpsmi,0.09555555555555556,1,0.1744421906693712,(adj)
graphs/lfr-params/t1/t14,baseline,lpsmi,0.09555555555555556,1,0.1744421906693712,(adj)
graphs/lfr-params/t1/t15,baseline,lpsmi,0.09555555555555556,1,0.1744421906693712,(adj)
baseline,graphs/lfr-params/N/N1,lpsfm,0.5104669887278583,1,0.67590618336887,(luo.chen) + (nm)
baseline,graphs/lfr-params/N/N1,lpsfmv,0.5072,1,0.673036093418259,(adj)
baseline,graphs/lfr-params/N/N1,lpsmi,0.5072,1,0.673036093418259,(adj)
baseline,graphs/lfr-params/N/N2,lpsfm,0.41225716432328,0.9997397188964081,0.5837829622311725,(luo.chen) + (nm)
baseline,graphs/lfr-params/N/N2,lpsfmv,0.3842,1,0.5551220921832105,(adj)
baseline,graphs/lfr-params/N/N2,lpsmi,0.3842,1,0.5551220921832105,(adj)
baseline,graphs/lfr-params/N/N3,lpsfm,0.5284679089026915,1,0.6915001693193362,(luo.chen) + (nm)
baseline,graphs/lfr-params/N/N3,lpsfmv,0.18151111111111112,1,0.30725248269635874,(adj)
baseline,graphs/lfr-params/N/N3,lpsmi,0.18151111111111112,1,0.30725248269635874,(adj)
baseline,graphs/lfr-params/N/N4,lpsfm,0.6725704963877884,1,0.8042357531001811,(luo.chen) + (nm)
baseline,graphs/lfr-params/N/N4,lpsfmv,0.1443,1,0.2522065891811588,(adj)
baseline,graphs/lfr-params/N/N4,lpsmi,0.1443,1,0.2522065891811588,(adj)
baseline,graphs/lfr-params/N/N5,lpsfm,0.7839844225386394,1,0.8789139777611024,(luo.chen) + (nm)
baseline,graphs/lfr-params/N/N5,lpsfmv,0.103072,1,0.18688172666879405,(adj)
baseline,graphs/lfr-params/N/N5,lpsmi,0.103072,1,0.18688172666879405,(adj)
baseline,graphs/lfr-params/N/N6,lpsfm,0.7843241802186084,1,0.8791274465859854,(luo.chen) + (nm)
baseline,graphs/lfr-params/N/N6,lpsfmv,0.09806666666666666,1,0.17861696314734987,(adj)
baseline,graphs/lfr-params/N/N6,lpsmi,0.09806666666666666,1,0.17861696314734987,(adj)
baseline,graphs/lfr-params/N/N7,lpsfm,0.8058485139022051,1,0.8924873904964162,(luo.chen) + (nm)
baseline,graphs/lfr-params/N/N7,lpsfmv,0.08233469387755102,1,0.1521427601707571,(adj)
baseline,graphs/lfr-params/N/N7,lpsmi,0.08233469387755102,1,0.1521427601707571,(adj)
baseline,graphs/lfr-params/N/N8,lpsfm,0.8028366698677698,1,0.8906371645154681,(luo.chen) + (nm)
baseline,graphs/lfr-params/N/N8,lpsfmv,0.067925,1,0.12720930776974038,(adj)
baseline,graphs/lfr-params/N/N8,lpsmi,0.067925,1,0.12720930776974038,(adj)
baseline,graphs/lfr-params/N/N9,lpsfm,0.8111000991080277,1,0.8956988070482653,(luo.chen) + (nm)
baseline,graphs/lfr-params/N/N9,lpsfmv,0.06062222222222222,1,0.11431444854173652,(adj)
baseline,graphs/lfr-params/N/N9,lpsmi,0.06062222222222222,1,0.11431444854173652,(adj)
baseline,graphs/lfr-params/N/N10,lpsfm,0.8087322695035462,1,0.894253155250582,(luo.chen) + (nm)
baseline,graphs/lfr-params/N/N10,lpsfmv,0.058384,1,0.11032668672239943,(adj)
baseline,graphs/lfr-params/N/N10,lpsmi,0.058384,1,0.11032668672239943,(adj)
baseline,graphs/lfr-params/k/k1,lpsfm,0.6679137982639928,0.5966577540106952,0.6302782092924729,(luo.chen) + (nm)
baseline,graphs/lfr-params/k/k1,lpsfmv,0.08311111111111111,1,0.15346737792367665,(adj)
baseline,graphs/lfr-params/k/k1,lpsmi,0.08311111111111111,1,0.15346737792367665,(adj)
baseline,graphs/lfr-params/k/k2,lpsfm,0.7568385060494477,0.8762180267965896,0.8121648320632232,(luo.chen) + (nm)
baseline,graphs/lfr-params/k/k2,lpsfmv,0.07297777777777778,1,0.13602849805318531,(adj)
baseline,graphs/lfr-params/k/k2,lpsmi,0.07297777777777778,1,0.13602849805318531,(adj)
baseline,graphs/lfr-params/k/k3,lpsfm,0.7993627402170667,0.9975149105367793,0.8875131280747334,(luo.chen) + (nm)
baseline,graphs/lfr-params/k/k3,lpsfmv,0.08942222222222222,1,0.1641644908616188,(adj)
baseline,graphs/lfr-params/k/k3,lpsmi,0.08942222222222222,1,0.1641644908616188,(adj)
baseline,graphs/lfr-params/k/k4,lpsfm,0.7931409452112087,1,0.8846387087745488,(luo.chen) + (nm)
baseline,graphs/lfr-params/k/k4,lpsfmv,0.10535555555555555,1,0.1906274501919945,(adj)
baseline,graphs/lfr-params/k/k4,lpsmi,0.10535555555555555,1,0.1906274501919945,(adj)
baseline,graphs/lfr-params/k/k5,lpsfm,0.7920910724985021,1,0.8839852892009362,(luo.chen) + (nm)
baseline,graphs/lfr-params/k/k5,lpsfmv,0.10282222222222222,1,0.1864710742136337,(adj)
baseline,graphs/lfr-params/k/k5,lpsmi,0.10282222222222222,1,0.1864710742136337,(adj)
baseline,graphs/lfr-params/k/k6,lpsfm,0.7227892321391877,1,0.8390918850145125,(luo.chen) + (nm)
baseline,graphs/lfr-params/k/k6,lpsfmv,0.11724444444444444,1,0.20988145437186728,(adj)
baseline,graphs/lfr-params/k/k6,lpsmi,0.11724444444444444,1,0.20988145437186728,(adj)
baseline,graphs/lfr-params/k/k7,lpsfm,0.7801703247247802,1,0.8765119987553965,(luo.chen) + (nm)
baseline,graphs/lfr-params/k/k7,lpsfmv,0.1252,1,0.2225382154283683,(adj)
baseline,graphs/lfr-params/k/k7,lpsmi,0.1252,1,0.2225382154283683,(adj)
baseline,graphs/lfr-params/k/k8,lpsfm,0.6662965019433648,1,0.7997334221926025,(luo.chen) + (nm)
baseline,graphs/lfr-params/k/k8,lpsfmv,0.14666666666666667,1,0.2558139534883721,(adj)
baseline,graphs/lfr-params/k/k8,lpsmi,0.14666666666666667,1,0.2558139534883721,(adj)
baseline,graphs/lfr-params/maxk/maxk1,lpsfm,0.7691321625432637,1,0.8695022099847837,(luo.chen) + (nm)
baseline,graphs/lfr-params/maxk/maxk1,lpsfmv,0.06666666666666667,1,0.125,(adj)
baseline,graphs/lfr-params/maxk/maxk1,lpsmi,0.06666666666666667,1,0.125,(adj)
baseline,graphs/lfr-params/maxk/maxk2,lpsfm,0.7038446601941748,0.9997793468667255,0.8261087560964493,(luo.chen) + (nm)
baseline,graphs/lfr-params/maxk/maxk2,lpsfmv,0.10071111111111111,1,0.1829928127271259,(adj)
baseline,graphs/lfr-params/maxk/maxk2,lpsmi,0.10071111111111111,1,0.1829928127271259,(adj)
baseline,graphs/lfr-params/maxk/maxk3,lpsfm,0.7688512518409426,0.9962786259541985,0.8679135494596842,(luo.chen) + (nm)
baseline,graphs/lfr-params/maxk/maxk3,lpsfmv,0.11644444444444445,1,0.20859872611464972,(adj)
baseline,graphs/lfr-params/maxk/maxk3,lpsmi,0.11644444444444445,1,0.20859872611464972,(adj)
baseline,graphs/lfr-params/maxk/maxk4,lpsfm,0.6432694527822673,0.9589701225388958,0.7700174124540505,(luo.chen) + (nm)
baseline,graphs/lfr-params/maxk/maxk4,lpsfmv,0.1614,1,0.2779404167384191,(adj)
baseline,graphs/lfr-params/maxk/maxk4,lpsmi,0.1614,1,0.2779404167384191,(adj)
baseline,graphs/lfr-params/maxk/maxk5,lpsfm,0.4773398631840796,0.9286902601330913,0.6305709591291846,(luo.chen) + (nm)
baseline,graphs/lfr-params/maxk/maxk5,lpsfmv,0.14693333333333333,1,0.2562194838409672,(adj)
baseline,graphs/lfr-params/maxk/maxk5,lpsmi,0.14693333333333333,1,0.2562194838409672,(adj)
baseline,graphs/lfr-params/mu/mu1,lpsfm,0.7409848413520385,0.9992381919756221,0.850948802508515,(luo.chen) + (nm)
baseline,graphs/lfr-params/mu/mu1,lpsfmv,0.08751111111111111,1,0.16093833013200376,(adj)
baseline,graphs/lfr-params/mu/mu1,lpsmi,0.08751111111111111,1,0.16093833013200376,(adj)
baseline,graphs/lfr-params/mu/mu2,lpsfm,0.8411338167435728,1,0.9137128535624776,(luo.chen) + (nm)
baseline,graphs/lfr-params/mu/mu2,lpsfmv,0.08506666666666667,1,0.1567952813959204,(adj)
baseline,graphs/lfr-params/mu/mu2,lpsmi,0.08506666666666667,1,0.1567952813959204,(adj)
baseline,graphs/lfr-params/mu/mu3,lpsfm,0.8847616520739365,1,0.938857866829337,(luo.chen) + (nm)
baseline,graphs/lfr-params/mu/mu3,lpsfmv,0.11115555555555555,1,0.2000719971201152,(adj)
baseline,graphs/lfr-params/mu/mu3,lpsmi,0.11115555555555555,1,0.2000719971201152,(adj)
baseline,graphs/lfr-params/mu/mu4,lpsfm,0.8425593098490295,1,0.9145532579008974,(luo.chen) + (nm)
baseline,graphs/lfr-params/mu/mu4,lpsfmv,0.09115555555555556,1,0.1670807706407071,(adj)
baseline,graphs/lfr-params/mu/mu4,lpsmi,0.09115555555555556,1,0.1670807706407071,(adj)
baseline,graphs/lfr-params/mu/mu5,lpsfm,0.8038846496878407,1,0.8912816568697468,(luo.chen) + (nm)
baseline,graphs/lfr-params/mu/mu5,lpsfmv,0.09013333333333333,1,0.16536203522504891,(adj)
baseline,graphs/lfr-params/mu/mu5,lpsmi,0.09013333333333333,1,0.16536203522504891,(adj)
baseline,graphs/lfr-params/mu/mu6,lpsfm,0.6413437090684952,1,0.7814861756560109,(luo.chen) + (nm)
baseline,graphs/lfr-params/mu/mu6,lpsfmv,0.09248888888888888,1,0.16931776575403767,(adj)
baseline,graphs/lfr-params/mu/mu6,lpsmi,0.09248888888888888,1,0.16931776575403767,(adj)
baseline,graphs/lfr-params/mu/mu7,lpsfm,0.3965692245229395,1,0.5679191801729777,(luo.chen) + (nm)
baseline,graphs/lfr-params/mu/mu7,lpsfmv,0.08682222222222222,1,0.15977262968491218,(adj)
baseline,graphs/lfr-params/mu/mu7,lpsmi,0.08682222222222222,1,0.15977262968491218,(adj)
baseline,graphs/lfr-params/mu/mu8,lpsfm,0.17162269478514075,1,0.2929658081036301,(luo.chen) + (nm)
baseline,graphs/lfr-params/mu/mu8,lpsfmv,0.08644444444444445,1,0.1591327469830231,(adj)
baseline,graphs/lfr-params/mu/mu8,lpsmi,0.08644444444444445,1,0.1591327469830231,(adj)
baseline,graphs/lfr-params/mu/mu9,lpsfm,0.0991970802919708,1,0.18049007238196427,(luo.chen) + (nm)
baseline,graphs/lfr-params/mu/mu9,lpsfmv,0.0906,1,0.16614707500458464,(adj)
baseline,graphs/lfr-params/mu/mu9,lpsmi,0.0906,1,0.16614707500458464,(adj)
baseline,graphs/lfr-params/t1/t11,lpsfm,0.7994082840236686,1,0.8885235120026306,(luo.chen) + (nm)
baseline,graphs/lfr-params/t1/t11,lpsfmv,0.09006666666666667,1,0.1652498318145679,(adj)
baseline,graphs/lfr-params/t1/t11,lpsmi,0.09006666666666667,1,0.1652498318145679,(adj)
baseline,graphs/lfr-params/t1/t12,lpsfm,0.7892216693268238,1,0.8821955187070368,(luo.chen) + (nm)
baseline,graphs/lfr-params/t1/t12,lpsfmv,0.0934,1,0.1708432412657765,(adj)
baseline,graphs/lfr-params/t1/t12,lpsmi,0.0934,1,0.1708432412657765,(adj)
baseline,graphs/lfr-params/t1/t13,lpsfm,0.7149696776252793,1,0.8337986227433463,(luo.chen) + (nm)
baseline,graphs/lfr-params/t1/t13,lpsfmv,0.09955555555555555,1,0.18108326596604687,(adj)
baseline,graphs/lfr-params/t1/t13,lpsmi,0.09955555555555555,1,0.18108326596604687,(adj)
baseline,graphs/lfr-params/t1/t14,lpsfm,0.7678915208839039,1,0.8687088679513281,(luo.chen) + (nm)
baseline,graphs/lfr-params/t1/t14,lpsfmv,0.10193333333333333,1,0.1850081674632464,(adj)
baseline,graphs/lfr-params/t1/t14,lpsmi,0.10193333333333333,1,0.1850081674632464,(adj)
baseline,graphs/lfr-params/t1/t15,lpsfm,0.7811559009227781,1,0.8771336641762556,(luo.chen) + (nm)
baseline,graphs/lfr-params/t1/t15,lpsfmv,0.08935555555555555,1,0.16405214091919787,(adj)
baseline,graphs/lfr-params/t1/t15,lpsmi,0.08935555555555555,1,0.16405214091919787,(adj)
NA,graphs/lfr-params/N/N1,global_community,0.5072,1,0.673036093418259,NA
NA,graphs/lfr-params/N/N2,global_community,0.3842,1,0.5551220921832105,NA
NA,graphs/lfr-params/N/N3,global_community,0.18151111111111112,1,0.30725248269635874,NA
NA,graphs/lfr-params/N/N4,global_community,0.1443,1,0.2522065891811588,NA
NA,graphs/lfr-params/N/N5,global_community,0.103072,1,0.18688172666879405,NA
NA,graphs/lfr-params/N/N6,global_community,0.09806666666666666,1,0.17861696314734987,NA
NA,graphs/lfr-params/N/N7,global_community,0.08233469387755102,1,0.1521427601707571,NA
NA,graphs/lfr-params/N/N8,global_community,0.067925,1,0.12720930776974038,NA
NA,graphs/lfr-params/N/N9,global_community,0.06062222222222222,1,0.11431444854173652,NA
NA,graphs/lfr-params/N/N10,global_community,0.058384,1,0.11032668672239943,NA
NA,graphs/lfr-params/k/k1,global_community,0.08311111111111111,1,0.15346737792367665,NA
NA,graphs/lfr-params/k/k2,global_community,0.07297777777777778,1,0.13602849805318531,NA
NA,graphs/lfr-params/k/k3,global_community,0.08942222222222222,1,0.1641644908616188,NA
NA,graphs/lfr-params/k/k4,global_community,0.10535555555555555,1,0.1906274501919945,NA
NA,graphs/lfr-params/k/k5,global_community,0.10282222222222222,1,0.1864710742136337,NA
NA,graphs/lfr-params/k/k6,global_community,0.11724444444444444,1,0.20988145437186728,NA
NA,graphs/lfr-params/k/k7,global_community,0.1252,1,0.2225382154283683,NA
NA,graphs/lfr-params/k/k8,global_community,0.14666666666666667,1,0.2558139534883721,NA
NA,graphs/lfr-params/maxk/maxk1,global_community,0.06666666666666667,1,0.125,NA
NA,graphs/lfr-params/maxk/maxk2,global_community,0.10071111111111111,1,0.1829928127271259,NA
NA,graphs/lfr-params/maxk/maxk3,global_community,0.11644444444444445,1,0.20859872611464972,NA
NA,graphs/lfr-params/maxk/maxk4,global_community,0.1614,1,0.2779404167384191,NA
NA,graphs/lfr-params/maxk/maxk5,global_community,0.14693333333333333,1,0.2562194838409672,NA
NA,graphs/lfr-params/mu/mu1,global_community,0.08751111111111111,1,0.16093833013200376,NA
NA,graphs/lfr-params/mu/mu2,global_community,0.08506666666666667,1,0.1567952813959204,NA
NA,graphs/lfr-params/mu/mu3,global_community,0.11115555555555555,1,0.2000719971201152,NA
NA,graphs/lfr-params/mu/mu4,global_community,0.09115555555555556,1,0.1670807706407071,NA
NA,graphs/lfr-params/mu/mu5,global_community,0.09013333333333333,1,0.16536203522504891,NA
NA,graphs/lfr-params/mu/mu6,global_community,0.09248888888888888,1,0.16931776575403767,NA
NA,graphs/lfr-params/mu/mu7,global_community,0.08682222222222222,1,0.15977262968491218,NA
NA,graphs/lfr-params/mu/mu8,global_community,0.08644444444444445,1,0.1591327469830231,NA
NA,graphs/lfr-params/mu/mu9,global_community,0.0906,1,0.16614707500458464,NA
NA,graphs/lfr-params/t1/t11,global_community,0.09006666666666667,1,0.1652498318145679,NA
NA,graphs/lfr-params/t1/t12,global_community,0.0934,1,0.1708432412657765,NA
NA,graphs/lfr-params/t1/t13,global_community,0.09955555555555555,1,0.18108326596604687,NA
NA,graphs/lfr-params/t1/t14,global_community,0.10193333333333333,1,0.1850081674632464,NA
NA,graphs/lfr-params/t1/t15,global_community,0.08935555555555555,1,0.16405214091919787,NA
