1	17
1	22
2	15
2	29
3	32
3	33
4	10
4	31
5	26
5	33
6	32
6	34
7	20
7	30
8	23
8	31
9	26
9	33
10	4
10	30
11	22
11	30
12	31
12	33
13	30
13	33
14	32
14	34
15	2
15	32
16	24
16	33
16	34
17	1
17	30
17	34
18	31
18	32
18	34
19	28
19	32
19	34
20	7
20	25
20	34
21	24
21	29
21	31
21	32
22	1
22	11
22	33
22	34
23	8
23	25
23	30
23	32
24	16
24	21
24	30
24	31
24	32
25	20
25	23
25	26
25	27
25	33
26	5
26	9
26	25
26	31
26	34
27	25
27	29
27	30
27	31
27	33
27	34
28	19
28	29
28	30
28	31
28	33
28	34
29	2
29	21
29	27
29	28
29	30
29	33
29	34
30	7
30	10
30	11
30	13
30	17
30	23
30	24
30	27
30	28
30	29
30	34
31	4
31	8
31	12
31	18
31	21
31	24
31	26
31	27
31	28
31	32
31	33
32	3
32	6
32	14
32	15
32	18
32	19
32	21
32	23
32	24
32	31
32	33
32	34
33	3
33	5
33	9
33	12
33	13
33	16
33	22
33	25
33	27
33	28
33	29
33	31
33	32
33	34
34	6
34	14
34	16
34	17
34	18
34	19
34	20
34	22
34	26
34	27
34	28
34	29
34	30
34	32
34	33
