1	3 
2	7 
3	15 
4	7 
5	1 
6	11 
7	5 
8	1 
9	7 
10	12 
11	9 
12	11 
13	7 
14	5 
15	14 
16	4 
17	14 
18	2 
19	5 
20	2 
21	2 
22	14 
23	3 
24	15 
25	13 
26	1 
27	7 
28	15 
29	13 
30	9 
31	10 
32	3 
33	12 
34	6 
35	8 
36	6 
37	3 
38	1 
39	5 
40	4 
41	12 
42	4 
43	8 
44	5 
45	9 
46	1 
47	2 
48	2 
49	12 
50	11 
51	9 
52	13 
53	7 
54	4 
55	15 
56	6 
57	15 
58	11 
59	9 
60	10 
61	14 
62	3 
63	13 
64	14 
65	13 
66	10 
67	4 
68	5 
69	13 
70	3 
71	2 
72	6 
73	2 
74	8 
75	2 
76	1 
77	9 
78	4 
79	15 
80	8 
81	10 
82	11 
83	1 
84	6 
85	5 
86	7 
87	10 
88	1 
89	13 
90	2 
91	2 
92	8 
93	2 
94	11 
95	12 
96	13 
97	13 
98	11 
99	14 
100	8 
101	7 
102	12 
103	7 
104	5 
105	9 
106	6 
107	11 
108	7 
109	8 
110	3 
111	11 
112	4 
113	3 
114	15 
115	11 
116	12 
117	15 
118	14 
119	10 
120	8 
121	11 
122	10 
123	14 
124	14 
125	9 
126	10 
127	13 
128	14 
129	13 
130	14 
131	5 
132	13 
133	3 
134	1 
135	15 
136	1 
137	11 
138	10 
139	4 
140	4 
141	12 
142	7 
143	3 
144	14 
145	6 
146	3 
147	11 
148	6 
149	1 
150	10 
151	9 
152	15 
153	10 
154	6 
155	6 
156	6 
157	12 
158	6 
159	13 
160	11 
161	7 
162	3 
163	2 
164	11 
165	13 
166	13 
167	13 
168	10 
169	9 
170	12 
171	4 
172	7 
173	5 
174	9 
175	8 
176	14 
177	8 
178	6 
179	7 
