degree distribution (probability density function of the degree in logarithmic bins) 
4	3.69199
5	0.306019
6	0.146786
7	0.0437478

degree distribution (degree-occurrences) 
4	0.85
5	0.0833333
6	0.05
7	0.0166667


--------------------------------------
community distribution (size-occurrences)
4	0.2
5	0.1
6	0.4
7	0.2
9	0.1


--------------------------------------
mixing parameter
0	0.0666667
0.2	0.0666667
0.25	0.766667
0.285714	0.0166667
0.333333	0.05
0.5	0.0333333

--------------------------------------
