1	2 
2	2 
3	6 
4	7 
5	5 
6	2 
7	7 
8	2 
9	5 
10	6 
11	1 
12	7 
13	3 
14	4 
15	4 
16	5 
17	5 
18	1 
19	6 
20	5 
21	3 
22	1 
23	8 
24	4 
25	8 
26	7 
27	1 
28	8 
29	8 
30	2 
31	1 
32	4 
33	2 
34	4 
35	8 
36	7 
37	4 
38	8 
39	7 
40	4 
41	1 
42	2 
43	3 
44	7 
45	8 
46	2 
47	1 
48	8 
49	3 
50	3 
51	6 
52	3 
53	4 
54	5 
55	6 
56	7 
57	7 
58	1 
59	2 
60	5 
