degree distribution (probability density function of the degree in logarithmic bins) 
10	2.94212
11	0.485612
12	0.197496
13	0.0484965

degree distribution (degree-occurrences) 
10	0.782123
11	0.139665
12	0.0614525
13	0.0167598


--------------------------------------
community distribution (size-occurrences)
10	0.285714
11	0.142857
12	0.0714286
14	0.142857
15	0.214286
16	0.142857


--------------------------------------
mixing parameter
0.166667	0.0167598
0.181818	0.0614525
0.2	0.631285
0.230769	0.0167598
0.25	0.0446927
0.272727	0.0782123
0.3	0.139665
0.4	0.0111732

--------------------------------------
