1	10 
2	10 
3	1 
4	7 
5	5 
6	7 
7	8 
8	3 
9	11 
10	5 
11	3 
12	9 
13	3 
14	5 
15	7 
16	6 
17	10 
18	7 
19	8 
20	10 
21	7 
22	11 
23	4 
24	11 
25	6 
26	4 
27	3 
28	9 
29	1 
30	6 
31	2 
32	4 
33	8 
34	3 
35	7 
36	3 
37	1 
38	6 
39	2 
40	4 
41	4 
42	9 
43	9 
44	3 
45	7 
46	1 
47	4 
48	8 
49	3 
50	1 
51	2 
52	2 
53	8 
54	5 
55	11 
56	11 
57	2 
58	3 
59	7 
60	8 
