1	8 
2	5 
3	8 
4	8 
5	8 
6	4 
7	1 
8	7 
9	6 
10	7 
11	8 
12	2 
13	1 
14	2 
15	8 
16	3 
17	5 
18	3 
19	5 
20	4 
21	1 
22	6 
23	5 
24	3 
25	5 
26	6 
27	6 
28	2 
29	8 
30	6 
31	3 
32	2 
33	7 
34	4 
35	8 
36	6 
37	6 
38	4 
39	2 
40	4 
41	7 
42	3 
43	1 
44	3 
45	7 
46	1 
47	3 
48	1 
49	4 
50	1 
51	3 
52	7 
53	6 
54	5 
55	5 
56	6 
57	5 
58	4 
59	4 
60	7 
