degree distribution (probability density function of the degree in logarithmic bins) 
2	0.922311
3	0.352231
4	0.0359941
5	0.0588512
6	0.0721672
7.5	0.0393317
10	0.0160771
11	0.0131432
15	0.0214894

degree distribution (degree-occurrences) 
2	0.411765
3	0.235294
4	0.0294118
5	0.0588235
6	0.0882353
7	0.0294118
8	0.0294118
10	0.0294118
11	0.0294118
15	0.0588235


--------------------------------------
community distribution (size-occurrences)
14	0.5
20	0.5


--------------------------------------
mixing parameter
0	0.0882353
0.4	0.0882353
0.504377	0.529412
0.571429	0.0294118
0.666667	0.235294
1	0.0294118

--------------------------------------
