1	5 
2	5 
3	9 
4	3 
5	5 
6	3 
7	8 
8	6 
9	9 
10	2 
11	5 
12	7 
13	7 
14	2 
15	8 
16	7 
17	6 
18	1 
19	2 
20	2 
21	9 
22	3 
23	1 
24	7 
25	7 
26	1 
27	7 
28	6 
29	2 
30	9 
31	5 
32	9 
33	8 
34	3 
35	7 
36	2 
37	7 
38	4 
39	3 
40	6 
41	4 
42	2 
43	7 
44	6 
45	6 
46	4 
47	8 
48	2 
49	1 
50	4 
51	3 
52	5 
53	1 
54	5 
55	4 
56	4 
57	3 
58	1 
59	8 
60	8 
