degree distribution (probability density function of the degree in logarithmic bins) 
2	0.724673
3	0.308202
4	0.107982
5	0.0588512
6	0.0481115
7.33333	0.0589975
9.25	0.0643082
14	0.0214894

degree distribution (degree-occurrences) 
2	0.323529
3	0.205882
4	0.0882353
5	0.0588235
6	0.0588235
7	0.0588235
8	0.0294118
9	0.0882353
10	0.0294118
13	0.0294118
15	0.0294118


--------------------------------------
community distribution (size-occurrences)
4	0.4
8	0.4
10	0.2


--------------------------------------
mixing parameter
0.333333	0.0588235
0.4	0.0294118
0.436508	0.0588235
0.461538	0.0294118
0.5	0.5
0.533333	0.0294118
0.571429	0.0294118
0.666667	0.205882
0.75	0.0294118
0.8	0.0294118

--------------------------------------
