degree distribution (probability density function of the degree in logarithmic bins) 
2	2.53433
3	0.45401
4	0.117796
5	0.0458445
6	0.0404464
7	0.035684

degree distribution (degree-occurrences) 
2	0.676471
3	0.176471
4	0.0588235
5	0.0294118
6	0.0294118
7	0.0294118


--------------------------------------
community distribution (size-occurrences)
4	0.25
6	0.25
9	0.25
15	0.25


--------------------------------------
mixing parameter
0.333333	0.117647
0.4	0.0294118
0.5	0.647059
0.571429	0.0294118
0.666667	0.0588235
1	0.117647

--------------------------------------
