1	3
1	7
1	31
1	39
2	26
2	46
2	52
2	57
3	1
3	16
3	19
3	27
4	23
4	38
4	43
4	59
5	18
5	24
5	30
5	53
6	9
6	12
6	25
6	43
7	1
7	16
7	29
7	44
8	11
8	30
8	45
8	55
9	6
9	23
9	46
9	60
10	18
10	32
10	56
10	57
11	8
11	12
11	13
11	45
12	6
12	11
12	42
12	52
13	11
13	20
13	33
13	55
14	17
14	46
14	48
14	58
15	41
15	49
15	54
15	58
16	3
16	7
16	44
16	46
17	14
17	24
17	33
17	34
18	5
18	10
18	21
18	48
19	3
19	20
19	34
19	49
20	13
20	19
20	38
20	58
21	18
21	43
21	47
21	50
22	25
22	37
22	38
22	59
23	4
23	9
23	24
23	50
24	5
24	17
24	23
24	36
25	6
25	22
25	37
25	55
26	2
26	27
26	28
26	41
27	3
27	26
27	50
27	56
28	26
28	31
28	55
28	60
29	7
29	35
29	37
29	54
30	5
30	8
30	49
30	51
31	1
31	28
31	40
31	48
32	10
32	36
32	40
32	43
33	13
33	17
33	57
33	60
34	17
34	19
34	51
34	58
35	29
35	39
35	40
35	50
36	24
36	32
36	49
36	50
37	22
37	25
37	29
37	48
38	4
38	20
38	22
38	49
39	1
39	35
39	52
39	58
40	31
40	32
40	35
40	59
41	15
41	26
41	47
41	53
42	12
42	46
42	47
42	60
43	4
43	6
43	21
43	32
44	7
44	16
44	47
44	54
45	8
45	11
45	53
45	54
46	2
46	9
46	14
46	16
46	42
47	21
47	41
47	42
47	44
47	60
48	14
48	18
48	31
48	37
48	59
49	15
49	19
49	30
49	36
49	38
50	21
50	23
50	27
50	35
50	36
51	30
51	34
51	53
51	59
51	60
52	2
52	12
52	39
52	57
52	60
53	5
53	41
53	45
53	51
53	56
54	15
54	29
54	44
54	45
54	55
55	8
55	13
55	25
55	28
55	54
56	10
56	27
56	53
56	57
56	60
57	2
57	10
57	33
57	52
57	56
57	59
58	14
58	15
58	20
58	34
58	39
58	59
59	4
59	22
59	40
59	48
59	51
59	57
59	58
60	9
60	28
60	33
60	42
60	47
60	51
60	52
60	56
