1	10
1	23
2	26
2	34
3	26
3	28
4	27
4	32
5	21
5	30
6	18
6	25
7	28
7	29
8	17
8	34
9	28
9	31
10	1
10	20
11	19
11	33
12	27
12	30
13	32
13	34
14	24
14	30
15	29
15	34
16	20
16	30
17	8
17	24
18	6
18	32
19	11
19	31
20	10
20	16
20	34
21	5
21	31
21	33
22	25
22	27
22	34
23	1
23	32
23	34
24	14
24	17
24	29
25	6
25	22
25	34
26	2
26	3
26	33
27	4
27	12
27	22
27	33
28	3
28	7
28	9
28	31
28	33
29	7
29	15
29	24
29	30
29	32
30	5
30	12
30	14
30	16
30	29
31	9
31	19
31	21
31	28
31	33
31	34
32	4
32	13
32	18
32	23
32	29
32	34
33	11
33	21
33	26
33	27
33	28
33	31
34	2
34	8
34	13
34	15
34	20
34	22
34	23
34	25
34	31
34	32
