1	12
1	39
1	48
1	57
2	17
2	23
2	51
2	59
3	4
3	15
3	28
3	29
4	3
4	15
4	29
4	50
5	18
5	26
5	30
5	41
6	18
6	26
6	30
6	41
7	14
7	23
7	47
7	49
8	45
8	46
8	50
8	58
9	31
9	46
9	50
9	58
10	24
10	27
10	34
10	56
11	14
11	44
11	53
11	57
12	1
12	44
12	48
12	53
13	16
13	32
13	47
13	49
14	7
14	11
14	38
14	57
15	3
15	4
15	21
15	28
16	13
16	32
16	47
16	49
17	2
17	20
17	59
17	60
18	5
18	6
18	26
18	30
19	31
19	46
19	52
19	58
20	17
20	33
20	45
20	60
21	15
21	28
21	29
21	52
22	25
22	35
22	37
22	43
23	2
23	7
23	51
23	59
24	10
24	34
24	55
24	56
25	22
25	36
25	37
25	40
26	5
26	6
26	18
26	41
27	10
27	34
27	56
27	60
28	3
28	15
28	21
28	29
29	3
29	4
29	21
29	28
30	5
30	6
30	18
30	41
31	9
31	19
31	50
31	58
32	13
32	16
32	47
32	49
33	20
33	51
33	59
33	60
34	10
34	24
34	27
34	55
35	22
35	36
35	40
35	54
36	25
36	35
36	40
36	54
37	22
37	25
37	43
37	54
38	14
38	39
38	53
38	55
39	1
39	38
39	44
39	48
40	25
40	35
40	36
40	54
41	5
41	6
41	26
41	30
42	43
42	52
42	55
42	56
43	22
43	37
43	42
43	54
44	11
44	12
44	39
44	57
45	8
45	20
45	59
45	60
46	8
46	9
46	19
46	58
47	7
47	13
47	16
47	32
47	49
48	1
48	12
48	39
48	53
48	57
49	7
49	13
49	16
49	32
49	47
50	4
50	8
50	9
50	31
50	58
51	2
51	23
51	33
51	59
51	60
52	19
52	21
52	42
52	55
52	56
53	11
53	12
53	38
53	48
53	57
54	35
54	36
54	37
54	40
54	43
55	24
55	34
55	38
55	42
55	52
55	56
56	10
56	24
56	27
56	42
56	52
56	55
57	1
57	11
57	14
57	44
57	48
57	53
58	8
58	9
58	19
58	31
58	46
58	50
59	2
59	17
59	23
59	33
59	45
59	51
59	60
60	17
60	20
60	27
60	33
60	45
60	51
60	59
