dataset,method,precision,recall,fmeasure,dnf,simple_dnf
foot_full_lfr/foot_full-mu0.05,lpsfm,1,1,1,(nm),(nm)
foot_full_lfr/foot_full-mu0.10,lpsfm,0.999113867966327,1,0.9995567375886525,(sr.co30),(sr.co30)
foot_full_lfr/foot_full-mu0.15,lpsfm,1,1,1,(nm) + (i3),(nm) + (i3)
foot_full_lfr/foot_full-mu0.20,lpsfm,1,1,1,(nm) + (i3),(nm) + (i3)
foot_full_lfr/foot_full-mu0.25,lpsfm,0.934297520661157,1,0.9660328989532151,(sr.co15.luo),(sr.co15.luo)
foot_full_lfr/foot_full-mu0.30,lpsfm,0.8341518700415564,0.9570871261378413,0.8914008881711748,(nm) + (sr.luoish.clauset),(nm) + (sr.luoish.clauset)
foot_full_lfr/foot_full-mu0.35,lpsfm,0.6779900920028309,0.8588077095472882,0.7577615186869686,(sr.co15.clauset.luo) + (co15.nm),(sr.co15.clauset.luo) + (co15.nm)
foot_full_lfr/foot_full-mu0.40,lpsfm,0.6403089371092313,0.7652747252747253,0.6972366840208251,(sr.co15.clauset.luo) + (nm),(sr.co15.clauset.luo) + (nm)
foot_full_lfr/foot_full-mu0.45,lpsfm,0.5971459934138309,0.7321668909825033,0.6577992744860942,(sr.co15.clauset.chen) + (sr.i3.clauset),(sr.co15.clauset.chen) + (sr.i3.clauset)
foot_full_lfr/foot_full-mu0.50,lpsfm,0.503739837398374,0.7393794749403342,0.5992263056092842,(sr.clauset.luo) + (luoish.clauset) + (co30.nm),(sr.clauset.luo) + (luoish.clauset) + (co30.nm)
