dataset,method,precision,recall,fmeasure,dnf,simple_dnf
graphs/lfr-params/N/N1,lpsfm,0.5591493132476739,0.9952681388012619,0.7160283687943263,(sr),(sr)
graphs/lfr-params/N/N2,lpsfm,0.646779303062302,0.6376887038001041,0.6422018348623854,(sr),(sr)
graphs/lfr-params/N/N3,lpsfm,0.7831074035453598,0.9194417238001958,0.8458159702669219,(sr),(sr)
graphs/lfr-params/N/N4,lpsfm,0.7972375690607735,1,0.887181063633569,(sr) + (luoish) + (nm),(sr) + (luoish) + (nm)
graphs/lfr-params/N/N5,lpsfm,0.8109264853977844,1,0.895592937578201,(sr) + (luoish) + (nm),(sr) + (luoish) + (nm)
graphs/lfr-params/N/N6,lpsfm,0.8306823529411764,1,0.907511181944373,(sr) + (luoish) + (nm),(sr) + (luoish) + (nm)
graphs/lfr-params/N/N7,lpsfm,0.8307388188781814,1,0.9075448778512619,(sr) + (luoish) + (nm),(sr) + (luoish) + (nm)
graphs/lfr-params/N/N8,lpsfm,0.8143874110153616,1,0.8976995828687069,(sr) + (luoish) + (nm),(sr) + (luoish) + (nm)
graphs/lfr-params/N/N9,lpsfm,0.8191645535833445,1,0.9005942337319346,(sr) + (luoish),(sr) + (luoish)
graphs/lfr-params/N/N10,lpsfm,0.8257524326770762,1,0.9045612295488349,(sr) + (luoish),(sr) + (luoish)
graphs/lfr-params/k/k1,lpsfm,0.7081377151799687,0.7259358288770054,0.7169263269078426,(sr) + (nr),(sr) + (nr)
graphs/lfr-params/k/k2,lpsfm,0.7975009187798603,0.991169305724726,0.8838503835449052,(sr) + (luoish),(sr) + (luoish)
graphs/lfr-params/k/k3,lpsfm,0.8438712383349062,1,0.9153255615581463,(sr) + (luoish) + (nm),(sr) + (luoish) + (nm)
graphs/lfr-params/k/k4,lpsfm,0.8391893087883884,1,0.9125643616765314,(sr) + (luoish),(sr) + (luoish)
graphs/lfr-params/k/k5,lpsfm,0.8037870233648918,1,0.8912216497327491,(sr) + (luoish) + (nm),(sr) + (luoish) + (nm)
graphs/lfr-params/k/k6,lpsfm,0.7945783132530121,1,0.8855320577374959,(sr) + (luoish) + (nm),(sr) + (luoish) + (nm)
graphs/lfr-params/k/k7,lpsfm,0.7813063375398697,1,0.8772284935772674,(sr),(sr)
graphs/lfr-params/k/k8,lpsfm,0.7857142857142857,1,0.88,(sr),(sr)
graphs/lfr-params/maxk/maxk1,lpsfm,1,1,1,(nm),(nm)
graphs/lfr-params/maxk/maxk2,lpsfm,0.8282163742690059,1,0.9060375849660136,(sr) + (luoish),(sr) + (luoish)
graphs/lfr-params/maxk/maxk3,lpsfm,0.8407541115122342,1,0.9134887775114404,(sr) + (luoish) + (nm),(sr) + (luoish) + (nm)
graphs/lfr-params/maxk/maxk4,lpsfm,0.63137306037293,1,0.7740388458156822,(sr) + (luoish),(sr) + (luoish)
graphs/lfr-params/maxk/maxk5,lpsfm,0.7627524820267032,0.6739261947973382,0.7155933836518388,(sr),(sr)
graphs/lfr-params/mu/mu1,lpsfm,1,1,1,(nm) + (nr),(nm) + (nr)
graphs/lfr-params/mu/mu2,lpsfm,1,1,1,(nm) + (nr),(nm) + (nr)
graphs/lfr-params/mu/mu3,lpsfm,0.8887704335465529,1,0.941110065851364,(sr) + (luoish),(sr) + (luoish)
graphs/lfr-params/mu/mu4,lpsfm,0.8458603979791731,1,0.9164944422722449,(sr) + (luoish) + (nm),(sr) + (luoish) + (nm)
graphs/lfr-params/mu/mu5,lpsfm,0.815932407966204,1,0.898637421070123,(sr) + (luoish) + (nm),(sr) + (luoish) + (nm)
graphs/lfr-params/mu/mu6,lpsfm,0.7981589797679547,1,0.8877512931264331,(sr) + (luoish) + (nm),(sr) + (luoish) + (nm)
graphs/lfr-params/mu/mu7,lpsfm,0.7581991073161265,1,0.8624724061810154,(sr) + (luoish) + (nm),(sr) + (luoish) + (nm)
graphs/lfr-params/mu/mu8,lpsfm,0.7309571716010348,0.9805912596401029,0.8375693033979251,(sr) + (luoish) + (nm),(sr) + (luoish) + (nm)
graphs/lfr-params/mu/mu9,lpsfm,0.6438386041439477,0.7240618101545254,0.6815977834218426,(sr) + (luoish),(sr) + (luoish)
graphs/lfr-params/t1/t11,lpsfm,0.8132838366609813,1,0.8970287168704698,(sr) + (luoish) + (nm),(sr) + (luoish) + (nm)
graphs/lfr-params/t1/t12,lpsfm,0.8210588005469819,1,0.90173782450118,(sr) + (luoish) + (nm),(sr) + (luoish) + (nm)
graphs/lfr-params/t1/t13,lpsfm,0.8334422556250584,0.9963169642857143,0.9076305220883534,(sr) + (luoish) + (nm),(sr) + (luoish) + (nm)
graphs/lfr-params/t1/t14,lpsfm,0.838420764028514,1,0.9121097633724399,(sr) + (luoish) + (nm),(sr) + (luoish) + (nm)
graphs/lfr-params/t1/t15,lpsfm,0.8186908276493943,1,0.9003078645396025,(sr) + (luoish) + (nm),(sr) + (luoish) + (nm)
baseline,lpsfm,0.7976256724169912,1,0.887421318749355,(luo.chen) + (nm),(luo.chen) + (nm)
