1	3
1	5
1	25
1	28
2	10
2	20
2	26
2	50
3	1
3	5
3	21
3	28
4	12
4	15
4	45
4	49
5	1
5	3
5	27
5	28
6	18
6	26
6	51
6	54
7	14
7	21
7	51
7	53
8	36
8	43
8	48
8	54
9	14
9	31
9	42
9	60
10	2
10	16
10	20
10	50
11	19
11	33
11	37
11	56
12	4
12	32
12	55
12	57
13	27
13	47
13	52
13	59
14	7
14	9
14	21
14	30
15	4
15	40
15	45
15	49
16	10
16	18
16	26
16	51
17	35
17	43
17	48
17	54
18	6
18	16
18	39
18	51
19	11
19	33
19	37
19	50
20	2
20	10
20	47
20	50
21	3
21	7
21	14
21	53
22	24
22	33
22	34
22	38
23	24
23	36
23	39
23	46
24	22
24	23
24	34
24	38
25	1
25	30
25	42
25	53
26	2
26	6
26	16
26	51
27	5
27	13
27	58
27	59
28	1
28	3
28	5
28	29
29	28
29	31
29	46
29	60
30	14
30	25
30	37
30	53
31	9
31	29
31	46
31	60
32	12
32	35
32	55
32	57
33	11
33	19
33	22
33	37
34	22
34	24
34	36
34	60
35	17
35	32
35	55
35	57
36	8
36	23
36	34
36	39
37	11
37	19
37	30
37	33
38	22
38	24
38	39
38	41
39	18
39	23
39	36
39	38
40	15
40	45
40	49
40	60
41	38
41	43
41	48
41	54
42	9
42	25
42	46
42	60
43	8
43	17
43	41
43	58
44	53
44	56
44	58
44	59
45	4
45	15
45	40
45	49
45	57
46	23
46	29
46	31
46	42
46	60
47	13
47	20
47	52
47	56
47	58
48	8
48	17
48	41
48	52
48	54
49	4
49	15
49	40
49	45
49	55
50	2
50	10
50	19
50	20
50	57
51	6
51	7
51	16
51	18
51	26
52	13
52	47
52	48
52	56
52	59
53	7
53	21
53	25
53	30
53	44
54	6
54	8
54	17
54	41
54	48
55	12
55	32
55	35
55	49
55	57
56	11
56	44
56	47
56	52
56	58
56	59
57	12
57	32
57	35
57	45
57	50
57	55
58	27
58	43
58	44
58	47
58	56
58	59
59	13
59	27
59	44
59	52
59	56
59	58
60	9
60	29
60	31
60	34
60	40
60	42
60	46
