degree distribution (probability density function of the degree in logarithmic bins) 
10	2.79502
11	0.582735
12	0.179542
13	0.096993

degree distribution (degree-occurrences) 
10	0.743017
11	0.167598
12	0.0558659
13	0.0335196


--------------------------------------
community distribution (size-occurrences)
10	0.4
11	0.0666667
12	0.2
13	0.133333
14	0.0666667
16	0.133333


--------------------------------------
mixing parameter
0.1	0.0111732
0.181818	0.100559
0.2	0.424581
0.230769	0.0335196
0.25	0.0558659
0.272727	0.0670391
0.3	0.301676
0.4	0.00558659

--------------------------------------
