degree distribution (probability density function of the degree in logarithmic bins) 
4	2.61239
5	0.565845
6	0.0820994
8	0.0290265

degree distribution (degree-occurrences) 
4	0.75
5	0.2
6	0.0333333
8	0.0166667


--------------------------------------
community distribution (size-occurrences)
5	0.222222
6	0.333333
7	0.222222
9	0.222222


--------------------------------------
mixing parameter
0	0.0666667
0.166667	0.0166667
0.2	0.2
0.25	0.666667
0.333333	0.0166667
0.5	0.0333333

--------------------------------------
