degree distribution (probability density function of the degree in logarithmic bins) 
10	3.00517
11	0.427339
12	0.179542
13	0.064662

degree distribution (degree-occurrences) 
10	0.798883
11	0.122905
12	0.0558659
13	0.0223464


--------------------------------------
community distribution (size-occurrences)
10	0.214286
11	0.214286
13	0.142857
14	0.285714
16	0.0714286
18	0.0714286


--------------------------------------
mixing parameter
0.4	0.00558659
0.5	0.0893855
0.544289	0.0670391
0.583333	0.0502793
0.6	0.687151
0.615385	0.0111732
0.636364	0.0670391
0.666667	0.00558659
0.7	0.0167598

--------------------------------------
