degree distribution (probability density function of the degree in logarithmic bins) 
2	0.827087
3	0.568449
4	0.102283
5	0.0553862
6	0.0224938
7	0.0365413
11	0.0120541
16	0.00795276

degree distribution (degree-occurrences) 
2	0.382353
3	0.323529
4	0.0882353
5	0.0588235
6	0.0294118
7	0.0588235
11	0.0294118
16	0.0294118


--------------------------------------
community distribution (size-occurrences)
3	0.2
5	0.4
7	0.2
14	0.2


--------------------------------------
mixing parameter
0	0.411765
0.142857	0.0588235
0.178662	0.0882353
0.2	0.0588235
0.25	0.0588235
0.333333	0.147059
0.5	0.147059
1	0.0294118

--------------------------------------
