degree distribution (probability density function of the degree in logarithmic bins) 
2	1.38347
3	0.0880577
4	0.0359941
5	0.117702
6	0.0721672
7.5	0.0393317
15	0.0107447

degree distribution (degree-occurrences) 
2	0.617647
3	0.0588235
4	0.0294118
5	0.117647
6	0.0882353
7	0.0294118
8	0.0294118
15	0.0294118


--------------------------------------
community distribution (size-occurrences)
6	0.25
8	0.25
9	0.25
11	0.25


--------------------------------------
mixing parameter
0	0.0588235
0.333333	0.0294118
0.4	0.0588235
0.501389	0.705882
0.590476	0.0882353
0.666667	0.0294118
1	0.0294118

--------------------------------------
