1	4 
2	11 
3	1 
4	4 
5	10 
6	12 
7	3 
8	1 
9	5 
10	2 
11	8 
12	1 
13	9 
14	9 
15	1 
16	5 
17	3 
18	10 
19	9 
20	10 
21	2 
22	4 
23	1 
24	10 
25	11 
26	9 
27	6 
28	1 
29	7 
30	11 
31	6 
32	5 
33	4 
34	9 
35	5 
36	3 
37	8 
38	14 
39	1 
40	6 
41	12 
42	13 
43	4 
44	6 
45	4 
46	4 
47	10 
48	2 
49	13 
50	3 
51	1 
52	6 
53	5 
54	5 
55	4 
56	5 
57	14 
58	10 
59	5 
60	4 
61	13 
62	7 
63	1 
64	4 
65	4 
66	4 
67	3 
68	14 
69	5 
70	2 
71	9 
72	2 
73	1 
74	2 
75	2 
76	6 
77	7 
78	13 
79	3 
80	7 
81	12 
82	6 
83	8 
84	11 
85	8 
86	11 
87	8 
88	12 
89	8 
90	6 
91	2 
92	12 
93	7 
94	12 
95	5 
96	9 
97	10 
98	2 
99	10 
100	3 
101	14 
102	14 
103	6 
104	12 
105	14 
106	8 
107	12 
108	7 
109	8 
110	13 
111	14 
112	11 
113	1 
114	14 
115	7 
116	13 
117	14 
118	3 
119	13 
120	9 
121	2 
122	8 
123	12 
124	11 
125	6 
126	12 
127	9 
128	14 
129	5 
130	4 
131	5 
132	11 
133	7 
134	3 
135	5 
136	13 
137	8 
138	5 
139	4 
140	3 
141	4 
142	14 
143	9 
144	6 
145	4 
146	2 
147	6 
148	11 
149	7 
150	6 
151	4 
152	12 
153	9 
154	10 
155	1 
156	12 
157	13 
158	5 
159	13 
160	4 
161	14 
162	1 
163	7 
164	10 
165	3 
166	3 
167	14 
168	10 
169	12 
170	11 
171	6 
172	9 
173	14 
174	14 
175	12 
176	12 
177	12 
178	5 
179	9 
