degree distribution (probability density function of the degree in logarithmic bins) 
3	0.053909
4	1.94949
5	0.330124
6	0.0813963
7	0.0245973
8	0.0202159

degree distribution (degree-occurrences) 
3	0.0166667
4	0.733333
5	0.166667
6	0.05
7	0.0166667
8	0.0166667


--------------------------------------
community distribution (size-occurrences)
6	0.375
7	0.125
8	0.25
9	0.125
10	0.125


--------------------------------------
mixing parameter
0	0.65
0.166667	0.0333333
0.2	0.0666667
0.25	0.2
0.4	0.0166667
0.5	0.0333333

--------------------------------------
