1	6
1	7
1	14
1	19
1	23
1	42
1	62
1	63
1	101
1	145
1	179
1	181
1	182
1	194
1	197
1	204
1	208
1	213
1	219
1	246
1	262
1	277
1	283
1	290
2	47
2	50
2	60
2	81
2	87
2	97
2	101
2	128
2	137
2	158
2	161
2	165
2	175
2	180
2	209
2	217
2	227
2	252
2	276
2	279
2	281
2	285
2	290
2	295
3	108
3	119
3	122
3	150
3	151
3	153
3	184
3	187
3	190
3	193
3	194
3	212
3	223
3	225
3	226
3	232
3	236
3	243
3	251
3	264
3	265
3	271
3	278
3	287
4	9
4	21
4	24
4	72
4	82
4	127
4	139
4	155
4	171
4	179
4	184
4	185
4	202
4	209
4	214
4	216
4	224
4	226
4	248
4	249
4	267
4	273
4	282
4	297
5	18
5	26
5	27
5	69
5	85
5	90
5	125
5	126
5	131
5	134
5	155
5	158
5	180
5	217
5	242
5	245
5	246
5	252
5	257
5	264
5	276
5	281
5	285
5	295
6	1
6	7
6	14
6	29
6	32
6	42
6	49
6	72
6	79
6	80
6	120
6	160
6	164
6	193
6	199
6	229
6	236
6	255
6	264
6	277
6	283
6	285
6	292
6	296
7	1
7	6
7	19
7	29
7	37
7	42
7	70
7	89
7	104
7	129
7	142
7	160
7	163
7	181
7	197
7	201
7	207
7	252
7	253
7	270
7	283
7	288
7	290
7	300
8	32
8	40
8	46
8	88
8	96
8	105
8	123
8	174
8	181
8	182
8	204
8	209
8	223
8	238
8	246
8	247
8	262
8	264
8	270
8	271
8	277
8	284
8	288
8	300
9	4
9	30
9	54
9	62
9	82
9	97
9	112
9	140
9	160
9	165
9	170
9	185
9	203
9	207
9	214
9	248
9	249
9	257
9	267
9	277
9	282
9	284
9	296
9	298
10	43
10	53
10	65
10	71
10	86
10	92
10	115
10	118
10	155
10	173
10	174
10	189
10	206
10	211
10	215
10	237
10	243
10	256
10	263
10	272
10	280
10	289
10	293
10	294
11	19
11	63
11	64
11	80
11	101
11	104
11	105
11	127
11	142
11	181
11	197
11	205
11	208
11	222
11	223
11	232
11	238
11	255
11	262
11	267
11	274
11	277
11	288
11	296
12	19
12	55
12	67
12	101
12	103
12	106
12	109
12	123
12	146
12	154
12	164
12	189
12	206
12	210
12	213
12	216
12	220
12	228
12	232
12	234
12	259
12	268
12	275
12	291
13	15
13	23
13	26
13	44
13	53
13	78
13	94
13	118
13	120
13	134
13	135
13	145
13	165
13	186
13	191
13	196
13	200
13	222
13	233
13	235
13	239
13	259
13	288
13	294
14	1
14	6
14	22
14	29
14	46
14	51
14	68
14	69
14	80
14	83
14	87
14	136
14	142
14	150
14	181
14	188
14	208
14	223
14	229
14	238
14	253
14	255
14	264
14	296
15	13
15	27
15	78
15	79
15	94
15	108
15	122
15	134
15	157
15	159
15	165
15	168
15	170
15	196
15	209
15	222
15	233
15	235
15	247
15	261
15	264
15	278
15	294
15	300
16	34
16	42
16	52
16	62
16	106
16	148
16	151
16	153
16	166
16	185
16	190
16	191
16	192
16	194
16	204
16	212
16	225
16	243
16	251
16	260
16	265
16	268
16	271
16	278
17	26
17	32
17	44
17	68
17	94
17	108
17	122
17	125
17	135
17	151
17	157
17	160
17	217
17	222
17	233
17	235
17	239
17	244
17	247
17	258
17	261
17	269
17	294
17	300
18	5
18	24
18	27
18	91
18	110
18	151
18	152
18	153
18	161
18	162
18	176
18	180
18	186
18	189
18	242
18	258
18	273
18	276
18	277
18	279
18	285
18	286
18	295
18	299
19	1
19	7
19	11
19	12
19	22
19	24
19	37
19	40
19	47
19	65
19	140
19	143
19	168
19	172
19	178
19	181
19	219
19	231
19	238
19	246
19	253
19	257
19	274
19	296
20	35
20	52
20	55
20	59
20	61
20	72
20	74
20	99
20	132
20	149
20	150
20	184
20	191
20	206
20	212
20	236
20	243
20	260
20	265
20	270
20	271
20	280
20	287
20	295
21	4
21	58
21	74
21	80
21	111
21	112
21	127
21	139
21	170
21	172
21	185
21	195
21	203
21	214
21	224
21	226
21	249
21	253
21	265
21	267
21	272
21	273
21	282
21	284
22	14
22	19
22	23
22	30
22	32
22	42
22	54
22	71
22	89
22	105
22	129
22	164
22	176
22	181
22	183
22	202
22	204
22	223
22	260
22	262
22	264
22	290
22	292
22	296
23	1
23	13
23	22
23	32
23	63
23	85
23	89
23	129
23	147
23	152
23	215
23	220
23	223
23	229
23	246
23	253
23	255
23	258
23	262
23	266
23	270
23	274
23	277
23	290
24	4
24	18
24	19
24	27
24	56
24	69
24	73
24	74
24	91
24	131
24	142
24	152
24	158
24	161
24	165
24	180
24	199
24	209
24	217
24	258
24	273
24	276
24	279
24	299
25	38
25	39
25	45
25	49
25	71
25	86
25	90
25	92
25	114
25	125
25	141
25	142
25	143
25	155
25	167
25	174
25	177
25	218
25	231
25	263
25	272
25	283
25	289
25	293
26	5
26	13
26	17
26	42
26	78
26	84
26	87
26	94
26	113
26	118
26	122
26	134
26	138
26	157
26	196
26	197
26	222
26	231
26	247
26	261
26	265
26	267
26	294
26	300
27	5
27	15
27	18
27	24
27	53
27	81
27	90
27	91
27	94
27	128
27	131
27	174
27	193
27	217
27	219
27	223
27	242
27	245
27	252
27	273
27	276
27	285
27	286
27	299
28	39
28	43
28	48
28	49
28	68
28	71
28	86
28	92
28	103
28	141
28	144
28	155
28	167
28	173
28	178
28	191
28	209
28	212
28	215
28	237
28	256
28	263
28	268
28	272
28	293
29	6
29	7
29	14
29	46
29	54
29	63
29	76
29	112
29	133
29	160
29	175
29	189
29	196
29	197
29	208
29	214
29	219
29	220
29	223
29	257
29	270
29	274
29	277
29	283
29	290
30	9
30	22
30	34
30	71
30	77
30	83
30	100
30	132
30	150
30	172
30	184
30	191
30	202
30	214
30	218
30	223
30	224
30	226
30	249
30	257
30	267
30	282
30	284
30	297
30	298
31	43
31	44
31	48
31	53
31	71
31	119
31	123
31	137
31	141
31	151
31	156
31	163
31	167
31	177
31	178
31	215
31	227
31	231
31	237
31	253
31	256
31	272
31	279
31	280
31	289
32	6
32	8
32	17
32	22
32	23
32	51
32	54
32	56
32	76
32	96
32	105
32	109
32	140
32	160
32	161
32	180
32	199
32	204
32	215
32	229
32	244
32	246
32	264
32	266
32	274
33	34
33	37
33	62
33	67
33	70
33	74
33	75
33	85
33	91
33	107
33	116
33	121
33	147
33	180
33	186
33	200
33	201
33	221
33	232
33	240
33	250
33	257
33	259
33	291
33	292
34	16
34	30
34	33
34	51
34	66
34	77
34	104
34	107
34	110
34	115
34	121
34	133
34	183
34	200
34	201
34	221
34	228
34	232
34	238
34	250
34	271
34	282
34	290
34	291
34	292
35	20
35	52
35	65
35	111
35	132
35	140
35	143
35	144
35	149
35	153
35	163
35	185
35	187
35	189
35	190
35	194
35	225
35	228
35	243
35	251
35	260
35	265
35	271
35	278
35	287
36	78
36	87
36	102
36	109
36	117
36	123
36	154
36	179
36	188
36	201
36	205
36	206
36	210
36	216
36	228
36	230
36	231
36	237
36	241
36	244
36	245
36	254
36	259
36	271
36	275
37	7
37	19
37	33
37	46
37	64
37	76
37	86
37	89
37	93
37	99
37	105
37	123
37	160
37	162
37	171
37	219
37	238
37	253
37	264
37	266
37	270
37	272
37	277
37	290
37	296
38	25
38	52
38	71
38	86
38	92
38	108
38	111
38	130
38	147
38	155
38	173
38	174
38	178
38	187
38	208
38	211
38	215
38	216
38	227
38	237
38	263
38	272
38	280
38	289
38	296
39	25
39	28
39	75
39	114
39	136
39	155
39	163
39	167
39	170
39	174
39	177
39	178
39	196
39	211
39	215
39	237
39	254
39	256
39	261
39	262
39	263
39	280
39	289
39	293
39	295
40	8
40	19
40	46
40	47
40	62
40	65
40	82
40	89
40	112
40	131
40	136
40	142
40	164
40	174
40	181
40	204
40	207
40	219
40	253
40	262
40	264
40	270
40	277
40	290
40	296
41	52
41	55
41	61
41	78
41	95
41	99
41	102
41	119
41	150
41	153
41	186
41	190
41	191
41	192
41	212
41	236
41	243
41	244
41	260
41	262
41	265
41	271
41	278
41	287
41	297
42	1
42	6
42	7
42	16
42	22
42	26
42	47
42	51
42	54
42	80
42	89
42	137
42	151
42	164
42	168
42	197
42	199
42	231
42	238
42	258
42	262
42	264
42	288
42	290
42	294
43	10
43	28
43	31
43	56
43	83
43	86
43	114
43	126
43	130
43	141
43	155
43	166
43	173
43	174
43	178
43	211
43	219
43	237
43	247
43	256
43	263
43	272
43	276
43	280
43	293
44	13
44	17
44	31
44	68
44	78
44	84
44	87
44	108
44	122
44	125
44	127
44	138
44	158
44	165
44	168
44	177
44	196
44	233
44	239
44	241
44	247
44	258
44	261
44	294
44	300
45	25
45	60
45	81
45	90
45	91
45	101
45	126
45	131
45	158
45	167
45	180
45	200
45	204
45	245
45	252
45	256
45	258
45	265
45	273
45	281
45	285
45	286
45	289
45	290
45	295
46	8
46	14
46	29
46	37
46	40
46	51
46	64
46	79
46	85
46	127
46	132
46	140
46	168
46	180
46	181
46	208
46	218
46	229
46	241
46	253
46	255
46	270
46	276
46	277
46	283
47	2
47	19
47	40
47	42
47	54
47	65
47	76
47	93
47	96
47	129
47	170
47	179
47	193
47	199
47	204
47	206
47	219
47	255
47	262
47	270
47	271
47	274
47	283
47	290
47	291
48	28
48	31
48	49
48	92
48	126
48	130
48	141
48	155
48	162
48	163
48	173
48	174
48	177
48	192
48	215
48	231
48	235
48	237
48	256
48	260
48	262
48	280
48	289
48	293
48	297
49	6
49	25
49	28
49	48
49	53
49	64
49	86
49	152
49	173
49	174
49	177
49	185
49	187
49	211
49	215
49	218
49	227
49	230
49	231
49	256
49	263
49	272
49	280
49	289
49	293
50	2
50	58
50	115
50	117
50	123
50	138
50	154
50	156
50	171
50	188
50	189
50	198
50	206
50	213
50	220
50	223
50	228
50	230
50	234
50	241
50	244
50	254
50	269
50	273
50	294
51	14
51	32
51	34
51	42
51	46
51	65
51	85
51	93
51	96
51	124
51	149
51	157
51	181
51	197
51	209
51	221
51	229
51	238
51	251
51	255
51	261
51	262
51	274
51	288
51	290
52	16
52	20
52	35
52	38
52	41
52	55
52	72
52	78
52	142
52	144
52	149
52	151
52	183
52	190
52	197
52	201
52	225
52	236
52	243
52	251
52	260
52	265
52	271
52	285
52	287
53	10
53	13
53	27
53	31
53	49
53	86
53	140
53	141
53	151
53	173
53	174
53	177
53	200
53	211
53	227
53	231
53	237
53	256
53	260
53	263
53	272
53	280
53	289
53	293
53	298
54	9
54	22
54	29
54	32
54	42
54	47
54	80
54	89
54	93
54	124
54	129
54	164
54	168
54	181
54	205
54	238
54	246
54	251
54	253
54	259
54	266
54	267
54	270
54	274
54	285
55	12
55	20
55	41
55	52
55	61
55	105
55	119
55	132
55	139
55	143
55	145
55	148
55	150
55	151
55	153
55	166
55	181
55	191
55	212
55	228
55	251
55	260
55	265
55	280
55	287
56	24
56	32
56	43
56	62
56	63
56	70
56	73
56	75
56	85
56	98
56	104
56	107
56	116
56	121
56	183
56	186
56	198
56	200
56	211
56	232
56	240
56	250
56	269
56	291
56	292
57	71
57	82
57	127
57	139
57	171
57	176
57	182
57	184
57	185
57	195
57	202
57	206
57	207
57	226
57	237
57	239
57	242
57	248
57	257
57	259
57	260
57	264
57	282
57	297
57	298
58	21
58	50
58	67
58	95
58	102
58	103
58	117
58	123
58	149
58	156
58	173
58	183
58	188
58	198
58	205
58	216
58	220
58	230
58	234
58	236
58	254
58	265
58	268
58	282
58	290
59	20
59	68
59	80
59	84
59	113
59	117
59	118
59	120
59	122
59	135
59	138
59	145
59	157
59	165
59	196
59	227
59	233
59	235
59	239
59	261
59	285
59	291
59	294
59	299
59	300
60	2
60	45
60	113
60	126
60	131
60	137
60	139
60	161
60	177
60	179
60	180
60	204
60	209
60	213
60	217
60	251
60	252
60	276
60	278
60	279
60	281
60	285
60	286
60	295
60	300
61	20
61	41
61	55
61	82
61	105
61	132
61	143
61	144
61	150
61	151
61	153
61	158
61	166
61	169
61	171
61	191
61	194
61	212
61	243
61	248
61	251
61	260
61	271
61	287
61	288
62	1
62	9
62	16
62	33
62	40
62	56
62	66
62	77
62	86
62	107
62	119
62	121
62	133
62	147
62	169
62	170
62	183
62	186
62	201
62	221
62	232
62	240
62	250
62	291
62	292
63	1
63	11
63	23
63	29
63	56
63	64
63	85
63	88
63	93
63	96
63	105
63	106
63	120
63	124
63	131
63	160
63	164
63	165
63	168
63	197
63	199
63	208
63	223
63	253
63	280
64	11
64	37
64	46
64	49
64	63
64	76
64	88
64	96
64	101
64	116
64	124
64	142
64	173
64	188
64	195
64	200
64	208
64	219
64	246
64	264
64	274
64	283
64	284
64	288
64	290
64	296
65	10
65	19
65	35
65	40
65	47
65	51
65	66
65	98
65	114
65	129
65	140
65	154
65	160
65	166
65	181
65	189
65	208
65	223
65	238
65	246
65	255
65	262
65	264
65	270
65	274
65	288
66	34
66	62
66	65
66	70
66	73
66	75
66	85
66	88
66	98
66	104
66	107
66	115
66	147
66	161
66	185
66	201
66	219
66	221
66	232
66	240
66	250
66	278
66	282
66	288
66	291
66	292
67	12
67	33
67	58
67	95
67	102
67	103
67	105
67	114
67	123
67	126
67	129
67	132
67	136
67	156
67	174
67	205
67	213
67	216
67	228
67	230
67	241
67	244
67	259
67	267
67	268
67	269
68	14
68	17
68	28
68	44
68	59
68	70
68	84
68	94
68	103
68	115
68	118
68	120
68	125
68	135
68	138
68	196
68	207
68	222
68	231
68	233
68	235
68	239
68	247
68	261
68	294
68	300
69	5
69	14
69	24
69	81
69	82
69	94
69	101
69	117
69	122
69	128
69	137
69	147
69	158
69	161
69	169
69	176
69	179
69	180
69	242
69	258
69	273
69	276
69	281
69	286
69	295
69	299
70	7
70	33
70	56
70	66
70	68
70	78
70	107
70	115
70	116
70	119
70	121
70	133
70	147
70	183
70	184
70	200
70	201
70	206
70	221
70	232
70	240
70	248
70	250
70	266
70	291
70	292
71	10
71	22
71	25
71	28
71	30
71	31
71	38
71	57
71	92
71	96
71	166
71	167
71	174
71	177
71	178
71	211
71	215
71	227
71	237
71	242
71	272
71	280
71	282
71	284
71	289
71	293
72	4
72	6
72	20
72	52
72	89
72	93
72	99
72	115
72	122
72	126
72	143
72	148
72	149
72	153
72	166
72	187
72	190
72	193
72	194
72	225
72	236
72	243
72	251
72	260
72	265
72	300
73	24
73	56
73	66
73	98
73	104
73	110
73	113
73	115
73	121
73	133
73	141
73	147
73	183
73	186
73	194
73	201
73	202
73	221
73	227
73	232
73	233
73	238
73	240
73	250
73	291
73	292
74	20
74	21
74	24
74	33
74	97
74	106
74	126
74	128
74	158
74	161
74	162
74	163
74	175
74	179
74	214
74	217
74	242
74	243
74	245
74	252
74	270
74	273
74	276
74	285
74	286
74	299
75	33
75	39
75	56
75	66
75	77
75	85
75	104
75	110
75	115
75	116
75	133
75	140
75	147
75	180
75	183
75	186
75	190
75	198
75	221
75	232
75	249
75	250
75	265
75	288
75	291
75	292
76	29
76	32
76	37
76	47
76	64
76	77
76	79
76	89
76	110
76	121
76	124
76	140
76	152
76	160
76	162
76	166
76	168
76	169
76	199
76	204
76	208
76	219
76	223
76	262
76	288
76	289
77	30
77	34
77	62
77	75
77	76
77	95
77	98
77	104
77	110
77	115
77	116
77	130
77	136
77	172
77	183
77	186
77	200
77	201
77	221
77	232
77	240
77	250
77	281
77	285
77	291
77	292
78	13
78	15
78	26
78	36
78	41
78	44
78	52
78	70
78	108
78	118
78	122
78	125
78	135
78	145
78	157
78	196
78	200
78	222
78	233
78	234
78	235
78	239
78	247
78	263
78	294
78	300
79	6
79	15
79	46
79	76
79	80
79	88
79	89
79	96
79	122
79	129
79	138
79	164
79	191
79	197
79	204
79	208
79	210
79	223
79	229
79	243
79	257
79	262
79	266
79	274
79	280
79	296
80	6
80	11
80	14
80	21
80	42
80	54
80	59
80	79
80	96
80	105
80	128
80	142
80	164
80	166
80	171
80	187
80	204
80	213
80	218
80	238
80	274
80	277
80	283
80	288
80	290
80	296
81	2
81	27
81	45
81	69
81	91
81	93
81	101
81	106
81	157
81	158
81	172
81	175
81	179
81	197
81	206
81	217
81	218
81	221
81	242
81	256
81	258
81	273
81	276
81	279
81	281
81	295
82	4
82	9
82	40
82	57
82	61
82	69
82	83
82	93
82	112
82	127
82	171
82	184
82	202
82	203
82	204
82	207
82	218
82	224
82	238
82	247
82	248
82	249
82	252
82	267
82	284
82	298
83	14
83	30
83	43
83	82
83	95
83	100
83	112
83	118
83	143
83	172
83	174
83	182
83	184
83	185
83	203
83	207
83	224
83	239
83	248
83	257
83	267
83	270
83	282
83	284
83	297
83	298
84	26
84	44
84	59
84	68
84	90
84	94
84	120
84	121
84	134
84	135
84	145
84	157
84	163
84	179
84	196
84	222
84	233
84	235
84	242
84	245
84	247
84	253
84	261
84	266
84	294
84	300
85	5
85	23
85	33
85	46
85	51
85	56
85	63
85	66
85	75
85	98
85	107
85	115
85	116
85	121
85	152
85	183
85	186
85	200
85	201
85	221
85	235
85	240
85	250
85	291
85	292
85	296
86	10
86	25
86	28
86	37
86	38
86	43
86	49
86	53
86	62
86	89
86	92
86	130
86	148
86	173
86	178
86	188
86	215
86	227
86	229
86	230
86	237
86	256
86	263
86	272
86	280
86	297
87	2
87	14
87	26
87	36
87	44
87	94
87	108
87	110
87	118
87	122
87	134
87	138
87	157
87	165
87	196
87	203
87	222
87	233
87	235
87	237
87	247
87	261
87	278
87	287
87	294
87	300
88	8
88	63
88	64
88	66
88	79
88	93
88	144
88	160
88	164
88	197
88	199
88	204
88	208
88	210
88	215
88	218
88	220
88	229
88	238
88	241
88	253
88	258
88	262
88	264
88	270
88	296
89	7
89	22
89	23
89	37
89	40
89	42
89	54
89	72
89	76
89	79
89	86
89	91
89	92
89	124
89	129
89	175
89	197
89	199
89	229
89	253
89	266
89	268
89	277
89	286
89	288
89	289
90	5
90	25
90	27
90	45
90	84
90	91
90	106
90	112
90	142
90	152
90	162
90	179
90	180
90	200
90	217
90	241
90	242
90	258
90	264
90	265
90	273
90	276
90	279
90	285
90	295
90	299
91	18
91	24
91	27
91	33
91	45
91	81
91	89
91	90
91	99
91	105
91	128
91	162
91	179
91	181
91	209
91	217
91	242
91	245
91	252
91	257
91	258
91	271
91	273
91	285
91	294
91	299
92	10
92	25
92	28
92	38
92	48
92	71
92	86
92	89
92	110
92	114
92	130
92	163
92	164
92	167
92	173
92	178
92	196
92	217
92	223
92	225
92	227
92	246
92	263
92	272
92	289
92	293
93	37
93	47
93	51
93	54
93	63
93	72
93	81
93	82
93	88
93	96
93	124
93	129
93	140
93	158
93	168
93	172
93	199
93	207
93	229
93	259
93	266
93	274
93	277
93	283
93	284
93	296
94	13
94	15
94	17
94	26
94	27
94	68
94	69
94	84
94	87
94	118
94	131
94	134
94	135
94	138
94	145
94	181
94	184
94	196
94	222
94	233
94	239
94	259
94	261
94	280
94	283
94	294
94	300
95	41
95	58
95	67
95	77
95	83
95	96
95	103
95	117
95	146
95	154
95	159
95	181
95	188
95	189
95	197
95	198
95	206
95	213
95	220
95	222
95	228
95	230
95	234
95	268
95	269
95	275
95	295
96	8
96	32
96	47
96	51
96	63
96	64
96	71
96	79
96	80
96	93
96	95
96	103
96	105
96	124
96	136
96	153
96	187
96	195
96	199
96	229
96	264
96	266
96	282
96	283
96	288
96	290
96	296
97	2
97	9
97	74
97	100
97	106
97	111
97	136
97	170
97	171
97	176
97	182
97	184
97	195
97	203
97	214
97	220
97	222
97	224
97	248
97	249
97	254
97	257
97	282
97	284
97	293
97	297
97	298
98	56
98	65
98	66
98	73
98	77
98	85
98	110
98	111
98	116
98	133
98	137
98	147
98	183
98	186
98	190
98	200
98	201
98	214
98	221
98	226
98	231
98	232
98	238
98	240
98	250
98	291
98	292
99	20
99	37
99	41
99	72
99	91
99	119
99	129
99	132
99	148
99	150
99	153
99	166
99	180
99	187
99	191
99	193
99	194
99	199
99	212
99	236
99	237
99	243
99	251
99	253
99	260
99	271
99	292
100	30
100	83
100	97
100	122
100	139
100	149
100	152
100	170
100	171
100	182
100	191
100	192
100	193
100	203
100	207
100	214
100	218
100	226
100	246
100	248
100	249
100	257
100	276
100	282
100	284
100	297
100	298
101	1
101	2
101	11
101	12
101	45
101	64
101	69
101	81
101	106
101	110
101	124
101	126
101	131
101	137
101	152
101	158
101	179
101	180
101	209
101	245
101	252
101	256
101	274
101	276
101	281
101	285
101	295
102	36
102	41
102	58
102	67
102	103
102	123
102	140
102	145
102	146
102	156
102	159
102	166
102	175
102	188
102	189
102	191
102	198
102	210
102	213
102	215
102	228
102	241
102	254
102	259
102	263
102	275
102	297
103	12
103	28
103	58
103	67
103	68
103	95
103	96
103	102
103	109
103	132
103	146
103	154
103	156
103	169
103	210
103	216
103	228
103	230
103	234
103	237
103	244
103	248
103	249
103	254
103	258
103	269
103	275
104	7
104	11
104	34
104	56
104	66
104	73
104	75
104	77
104	116
104	121
104	133
104	148
104	183
104	186
104	192
104	200
104	201
104	208
104	214
104	221
104	232
104	240
104	250
104	269
104	291
104	292
104	294
105	8
105	11
105	22
105	32
105	37
105	55
105	61
105	63
105	67
105	80
105	91
105	96
105	121
105	129
105	142
105	197
105	208
105	211
105	223
105	229
105	255
105	262
105	264
105	272
105	276
105	283
105	296
106	12
106	16
106	63
106	74
106	81
106	90
106	97
106	101
106	126
106	161
106	179
106	180
106	209
106	217
106	242
106	243
106	250
106	252
106	253
106	264
106	273
106	276
106	281
106	285
106	286
106	295
106	299
107	33
107	34
107	56
107	62
107	66
107	70
107	85
107	110
107	133
107	137
107	147
107	168
107	186
107	200
107	201
107	221
107	232
107	234
107	240
107	250
107	267
107	278
107	279
107	281
107	291
107	292
107	293
108	3
108	15
108	17
108	38
108	44
108	78
108	87
108	118
108	121
108	122
108	134
108	137
108	138
108	145
108	157
108	165
108	183
108	195
108	222
108	233
108	239
108	247
108	261
108	263
108	292
108	294
108	300
109	12
109	32
109	36
109	103
109	117
109	146
109	156
109	159
109	174
109	189
109	198
109	202
109	211
109	213
109	216
109	219
109	228
109	229
109	230
109	234
109	254
109	259
109	268
109	269
109	275
109	281
109	295
110	18
110	34
110	73
110	75
110	76
110	77
110	87
110	92
110	98
110	101
110	107
110	115
110	116
110	121
110	133
110	183
110	186
110	201
110	203
110	221
110	232
110	240
110	250
110	268
110	279
110	291
110	292
111	21
111	35
111	38
111	97
111	98
111	139
111	141
111	170
111	172
111	176
111	185
111	188
111	189
111	195
111	202
111	203
111	204
111	207
111	214
111	224
111	248
111	254
111	257
111	282
111	284
111	297
111	298
112	9
112	21
112	29
112	40
112	82
112	83
112	90
112	113
112	127
112	145
112	157
112	160
112	170
112	171
112	176
112	182
112	185
112	195
112	199
112	207
112	218
112	224
112	226
112	233
112	267
112	269
112	298
113	26
113	59
113	60
113	73
113	112
113	127
113	139
113	145
113	170
113	172
113	184
113	185
113	195
113	203
113	207
113	224
113	226
113	230
113	240
113	248
113	257
113	259
113	267
113	282
113	284
113	297
113	298
114	25
114	39
114	43
114	65
114	67
114	92
114	130
114	155
114	160
114	163
114	167
114	173
114	175
114	177
114	178
114	231
114	237
114	248
114	256
114	263
114	272
114	273
114	280
114	289
114	293
114	295
114	297
115	10
115	34
115	50
115	66
115	68
115	70
115	72
115	73
115	75
115	77
115	85
115	110
115	116
115	117
115	121
115	133
115	147
115	150
115	153
115	183
115	200
115	221
115	240
115	250
115	267
115	291
115	292
116	33
116	56
116	64
116	70
116	75
116	77
116	85
116	98
116	104
116	110
116	115
116	119
116	120
116	130
116	133
116	175
116	183
116	186
116	201
116	232
116	234
116	239
116	240
116	250
116	268
116	291
116	292
117	36
117	50
117	58
117	59
117	69
117	95
117	109
117	115
117	135
117	136
117	169
117	188
117	198
117	206
117	220
117	230
117	234
117	241
117	245
117	254
117	259
117	264
117	268
117	269
117	275
117	287
117	297
118	10
118	13
118	26
118	59
118	68
118	78
118	83
118	87
118	94
118	108
118	120
118	122
118	125
118	142
118	145
118	165
118	198
118	222
118	233
118	235
118	247
118	251
118	264
118	273
118	275
118	289
118	294
119	3
119	31
119	41
119	55
119	62
119	70
119	99
119	116
119	123
119	125
119	132
119	143
119	148
119	153
119	166
119	187
119	190
119	191
119	192
119	193
119	194
119	225
119	226
119	251
119	256
119	278
119	296
120	6
120	13
120	59
120	63
120	68
120	84
120	116
120	118
120	121
120	125
120	138
120	145
120	157
120	165
120	195
120	196
120	228
120	229
120	232
120	233
120	235
120	239
120	247
120	261
120	271
120	294
120	300
121	33
121	34
121	56
121	62
121	70
121	73
121	76
121	84
121	85
121	104
121	105
121	108
121	110
121	115
121	120
121	133
121	186
121	200
121	204
121	221
121	227
121	232
121	240
121	250
121	266
121	291
121	292
122	3
122	15
122	17
122	26
122	44
122	59
122	69
122	72
122	78
122	79
122	87
122	100
122	108
122	118
122	125
122	135
122	138
122	157
122	173
122	187
122	196
122	222
122	239
122	247
122	261
122	286
122	295
122	300
123	8
123	12
123	31
123	36
123	37
123	50
123	58
123	67
123	102
123	119
123	136
123	142
123	154
123	159
123	188
123	189
123	190
123	197
123	205
123	210
123	213
123	216
123	230
123	234
123	254
123	259
123	266
123	269
124	51
124	54
124	63
124	64
124	76
124	89
124	93
124	96
124	101
124	129
124	140
124	142
124	153
124	164
124	176
124	178
124	194
124	201
124	204
124	208
124	223
124	238
124	247
124	249
124	266
124	270
124	283
124	296
125	5
125	17
125	25
125	44
125	68
125	78
125	118
125	119
125	120
125	122
125	128
125	130
125	134
125	135
125	138
125	145
125	177
125	200
125	222
125	233
125	235
125	239
125	247
125	261
125	279
125	289
125	294
125	300
126	5
126	43
126	45
126	48
126	60
126	67
126	72
126	74
126	101
126	106
126	146
126	162
126	175
126	179
126	209
126	217
126	242
126	245
126	264
126	270
126	273
126	276
126	279
126	281
126	286
126	289
126	295
126	299
127	4
127	11
127	21
127	44
127	46
127	57
127	82
127	112
127	113
127	140
127	156
127	166
127	172
127	182
127	185
127	202
127	203
127	214
127	218
127	226
127	248
127	255
127	257
127	282
127	284
127	288
127	297
127	298
128	2
128	27
128	69
128	74
128	80
128	91
128	125
128	131
128	137
128	152
128	162
128	175
128	180
128	199
128	203
128	217
128	238
128	239
128	242
128	243
128	245
128	252
128	258
128	269
128	279
128	281
128	286
128	295
129	7
129	22
129	23
129	47
129	54
129	65
129	67
129	79
129	89
129	93
129	99
129	105
129	124
129	160
129	164
129	184
129	187
129	197
129	223
129	227
129	228
129	229
129	231
129	255
129	277
129	290
129	296
129	299
130	38
130	43
130	48
130	77
130	86
130	92
130	114
130	116
130	125
130	145
130	155
130	163
130	174
130	179
130	211
130	215
130	225
130	227
130	231
130	250
130	256
130	263
130	272
130	278
130	280
130	289
130	293
130	298
131	5
131	24
131	27
131	40
131	45
131	60
131	63
131	94
131	101
131	128
131	152
131	158
131	161
131	173
131	175
131	226
131	242
131	245
131	258
131	276
131	279
131	281
131	285
131	286
131	293
131	294
131	295
131	297
132	20
132	30
132	35
132	46
132	55
132	61
132	67
132	99
132	103
132	119
132	150
132	151
132	166
132	187
132	192
132	193
132	196
132	197
132	215
132	225
132	235
132	236
132	243
132	251
132	265
132	271
132	287
132	299
133	29
133	34
133	62
133	70
133	73
133	75
133	98
133	104
133	107
133	110
133	115
133	116
133	121
133	143
133	146
133	147
133	148
133	186
133	200
133	201
133	232
133	250
133	251
133	260
133	280
133	287
133	291
133	292
134	5
134	13
134	15
134	26
134	84
134	87
134	94
134	108
134	125
134	135
134	140
134	145
134	154
134	157
134	165
134	170
134	196
134	216
134	218
134	222
134	224
134	233
134	235
134	239
134	247
134	261
134	272
134	294
135	13
135	17
135	59
135	68
135	78
135	84
135	94
135	117
135	122
135	125
135	134
135	165
135	196
135	199
135	203
135	205
135	222
135	233
135	239
135	243
135	247
135	253
135	261
135	266
135	270
135	285
135	294
135	300
136	14
136	39
136	40
136	67
136	77
136	96
136	97
136	117
136	123
136	144
136	146
136	147
136	159
136	169
136	189
136	198
136	205
136	206
136	213
136	216
136	228
136	241
136	244
136	254
136	259
136	268
136	269
136	275
137	2
137	31
137	42
137	60
137	69
137	98
137	101
137	107
137	108
137	128
137	152
137	158
137	161
137	162
137	168
137	179
137	182
137	205
137	209
137	221
137	245
137	252
137	258
137	273
137	279
137	281
137	286
137	299
138	26
138	44
138	50
138	59
138	68
138	79
138	87
138	94
138	108
138	120
138	122
138	125
138	145
138	165
138	167
138	169
138	190
138	211
138	222
138	233
138	235
138	239
138	247
138	257
138	261
138	283
138	294
138	300
139	4
139	21
139	55
139	57
139	60
139	100
139	111
139	113
139	144
139	170
139	172
139	175
139	176
139	184
139	185
139	195
139	202
139	203
139	214
139	218
139	221
139	232
139	239
139	244
139	249
139	257
139	279
139	282
139	284
140	9
140	19
140	32
140	35
140	46
140	53
140	65
140	75
140	76
140	93
140	102
140	124
140	127
140	134
140	160
140	168
140	193
140	197
140	219
140	238
140	246
140	253
140	262
140	266
140	283
140	286
140	288
140	290
140	296
141	25
141	28
141	31
141	43
141	48
141	53
141	73
141	111
141	146
141	155
141	163
141	173
141	174
141	178
141	211
141	218
141	225
141	227
141	231
141	237
141	238
141	246
141	263
141	272
141	274
141	280
141	289
141	291
141	293
142	7
142	11
142	14
142	24
142	25
142	40
142	52
142	64
142	80
142	90
142	105
142	118
142	123
142	124
142	168
142	194
142	199
142	208
142	223
142	238
142	246
142	248
142	255
142	264
142	265
142	266
142	277
142	283
142	296
143	19
143	25
143	35
143	55
143	61
143	72
143	83
143	119
143	133
143	144
143	149
143	151
143	166
143	178
143	191
143	192
143	193
143	194
143	225
143	237
143	243
143	260
143	265
143	266
143	271
143	277
143	278
143	282
143	287
144	28
144	35
144	52
144	61
144	88
144	136
144	139
144	143
144	148
144	149
144	150
144	153
144	166
144	177
144	187
144	190
144	193
144	202
144	215
144	225
144	234
144	243
144	251
144	260
144	262
144	265
144	271
144	278
144	287
145	1
145	13
145	55
145	59
145	78
145	84
145	94
145	102
145	108
145	112
145	113
145	118
145	120
145	125
145	130
145	134
145	138
145	157
145	165
145	201
145	222
145	233
145	235
145	239
145	247
145	252
145	261
145	294
145	300
146	12
146	95
146	102
146	103
146	109
146	126
146	133
146	136
146	141
146	154
146	159
146	189
146	201
146	205
146	206
146	210
146	213
146	216
146	220
146	231
146	232
146	241
146	248
146	259
146	262
146	268
146	269
146	275
146	286
147	23
147	33
147	38
147	62
147	66
147	69
147	70
147	73
147	75
147	98
147	107
147	115
147	133
147	136
147	183
147	186
147	200
147	201
147	221
147	232
147	240
147	250
147	270
147	271
147	274
147	275
147	282
147	291
147	292
148	16
148	55
148	72
148	86
148	99
148	104
148	119
148	133
148	144
148	158
148	166
148	169
148	187
148	191
148	192
148	193
148	194
148	195
148	212
148	221
148	225
148	236
148	243
148	251
148	265
148	278
148	285
148	287
148	292
149	20
149	35
149	51
149	52
149	58
149	72
149	100
149	143
149	144
149	151
149	154
149	166
149	190
149	191
149	192
149	193
149	194
149	212
149	223
149	236
149	243
149	251
149	261
149	265
149	268
149	271
149	278
149	287
149	291
150	3
150	14
150	20
150	30
150	41
150	55
150	61
150	99
150	115
150	132
150	144
150	182
150	187
150	190
150	192
150	193
150	198
150	203
150	212
150	225
150	236
150	247
150	260
150	265
150	267
150	271
150	278
150	287
150	297
151	3
151	16
151	17
151	18
151	31
151	42
151	52
151	53
151	55
151	61
151	132
151	143
151	149
151	153
151	187
151	193
151	194
151	204
151	212
151	225
151	242
151	251
151	260
151	263
151	265
151	271
151	278
151	287
151	294
152	18
152	23
152	24
152	49
152	76
152	85
152	90
152	100
152	101
152	128
152	131
152	137
152	161
152	168
152	180
152	221
152	234
152	242
152	244
152	245
152	258
152	273
152	276
152	279
152	281
152	285
152	286
152	295
152	299
153	3
153	16
153	18
153	35
153	41
153	55
153	61
153	72
153	96
153	99
153	115
153	119
153	124
153	144
153	151
153	158
153	171
153	192
153	193
153	212
153	224
153	225
153	236
153	243
153	262
153	265
153	278
153	287
153	291
154	12
154	36
154	50
154	65
154	95
154	103
154	123
154	134
154	146
154	149
154	156
154	165
154	169
154	188
154	205
154	206
154	212
154	228
154	234
154	241
154	244
154	254
154	259
154	269
154	275
154	279
154	283
154	287
154	298
155	4
155	5
155	10
155	25
155	28
155	38
155	39
155	43
155	48
155	114
155	130
155	141
155	159
155	163
155	167
155	168
155	178
155	200
155	215
155	227
155	231
155	237
155	248
155	256
155	265
155	272
155	279
155	289
155	293
155	296
156	31
156	50
156	58
156	67
156	102
156	103
156	109
156	127
156	154
156	169
156	175
156	187
156	188
156	189
156	198
156	206
156	210
156	220
156	234
156	241
156	244
156	252
156	257
156	259
156	262
156	268
156	269
156	275
156	278
156	293
157	15
157	17
157	26
157	51
157	59
157	78
157	81
157	84
157	87
157	108
157	112
157	120
157	122
157	134
157	145
157	165
157	186
157	196
157	208
157	210
157	222
157	235
157	238
157	239
157	247
157	261
157	273
157	294
157	296
157	300
158	2
158	5
158	24
158	44
158	45
158	61
158	69
158	74
158	81
158	93
158	101
158	131
158	137
158	148
158	153
158	162
158	175
158	208
158	209
158	217
158	245
158	252
158	258
158	279
158	280
158	281
158	286
158	293
158	295
158	299
159	15
159	95
159	102
159	109
159	123
159	136
159	146
159	155
159	167
159	169
159	183
159	186
159	188
159	198
159	205
159	206
159	210
159	213
159	216
159	220
159	230
159	233
159	234
159	244
159	247
159	268
159	269
159	273
159	275
159	283
160	6
160	7
160	9
160	17
160	29
160	32
160	37
160	63
160	65
160	76
160	88
160	112
160	114
160	129
160	140
160	168
160	172
160	190
160	191
160	214
160	238
160	253
160	262
160	263
160	266
160	270
160	274
160	277
160	288
160	296
161	2
161	18
161	24
161	32
161	60
161	66
161	69
161	74
161	106
161	131
161	137
161	152
161	162
161	163
161	164
161	171
161	178
161	179
161	197
161	209
161	217
161	245
161	251
161	252
161	258
161	279
161	281
161	285
161	293
161	299
162	18
162	37
162	48
162	74
162	76
162	90
162	91
162	126
162	128
162	137
162	158
162	161
162	175
162	179
162	205
162	209
162	230
162	252
162	254
162	256
162	258
162	260
162	270
162	273
162	276
162	279
162	281
162	286
162	295
162	299
163	7
163	31
163	35
163	39
163	48
163	74
163	84
163	92
163	114
163	130
163	141
163	155
163	161
163	167
163	177
163	178
163	207
163	211
163	215
163	227
163	229
163	237
163	245
163	256
163	263
163	266
163	272
163	280
163	289
163	293
164	6
164	12
164	22
164	40
164	42
164	54
164	63
164	79
164	80
164	88
164	92
164	124
164	129
164	161
164	169
164	172
164	181
164	192
164	199
164	208
164	214
164	219
164	229
164	246
164	261
164	262
164	264
164	270
164	283
164	287
165	2
165	9
165	13
165	15
165	24
165	44
165	59
165	63
165	87
165	108
165	118
165	120
165	134
165	135
165	138
165	145
165	154
165	157
165	196
165	199
165	203
165	215
165	233
165	235
165	239
165	247
165	261
165	275
165	294
165	300
166	16
166	43
166	55
166	61
166	65
166	71
166	72
166	76
166	80
166	99
166	102
166	119
166	127
166	132
166	143
166	144
166	148
166	149
166	187
166	191
166	192
166	212
166	225
166	243
166	260
166	265
166	266
166	271
166	277
166	278
167	25
167	28
167	31
167	39
167	45
167	71
167	92
167	114
167	138
167	155
167	159
167	163
167	173
167	174
167	189
167	203
167	208
167	211
167	215
167	227
167	229
167	233
167	237
167	256
167	257
167	263
167	272
167	280
167	289
167	293
168	15
168	19
168	42
168	44
168	46
168	54
168	63
168	76
168	93
168	107
168	137
168	140
168	142
168	152
168	155
168	160
168	178
168	207
168	208
168	219
168	223
168	230
168	238
168	253
168	255
168	264
168	270
168	274
168	288
168	290
169	61
169	62
169	69
169	76
169	103
169	117
169	136
169	138
169	148
169	154
169	156
169	159
169	164
169	178
169	188
169	189
169	198
169	205
169	206
169	213
169	216
169	220
169	226
169	234
169	241
169	244
169	254
169	268
169	269
169	275
170	9
170	15
170	21
170	39
170	47
170	62
170	97
170	100
170	111
170	112
170	113
170	134
170	139
170	176
170	184
170	195
170	202
170	203
170	207
170	226
170	249
170	253
170	257
170	267
170	268
170	275
170	278
170	282
170	284
170	297
170	298
171	4
171	37
171	50
171	57
171	61
171	80
171	82
171	97
171	100
171	112
171	153
171	161
171	172
171	176
171	185
171	202
171	203
171	207
171	211
171	214
171	218
171	245
171	248
171	249
171	255
171	257
171	267
171	277
171	284
171	297
171	298
172	19
172	21
172	30
172	77
172	81
172	83
172	93
172	111
172	113
172	127
172	139
172	160
172	164
172	171
172	181
172	182
172	184
172	202
172	203
172	207
172	214
172	218
172	224
172	226
172	249
172	250
172	257
172	267
172	275
172	297
172	298
173	10
173	28
173	38
173	43
173	48
173	49
173	53
173	58
173	64
173	86
173	92
173	114
173	122
173	131
173	141
173	167
173	177
173	208
173	215
173	226
173	227
173	231
173	241
173	255
173	256
173	263
173	277
173	280
173	283
173	289
173	293
174	8
174	10
174	25
174	27
174	38
174	39
174	40
174	43
174	48
174	49
174	53
174	67
174	71
174	83
174	109
174	130
174	141
174	167
174	177
174	195
174	211
174	215
174	225
174	227
174	231
174	256
174	263
174	280
174	287
174	289
174	293
175	2
175	29
175	74
175	81
175	89
175	102
175	114
175	116
175	126
175	128
175	131
175	139
175	156
175	158
175	162
175	210
175	217
175	242
175	245
175	248
175	252
175	258
175	261
175	273
175	276
175	279
175	281
175	285
175	286
175	295
175	299
176	18
176	22
176	57
176	69
176	97
176	111
176	112
176	124
176	139
176	170
176	171
176	182
176	184
176	185
176	195
176	203
176	218
176	226
176	229
176	248
176	249
176	256
176	257
176	267
176	269
176	282
176	284
176	290
176	295
176	297
176	298
177	25
177	31
177	39
177	44
177	48
177	49
177	53
177	60
177	71
177	114
177	125
177	144
177	163
177	173
177	174
177	178
177	211
177	215
177	227
177	230
177	231
177	237
177	250
177	256
177	263
177	272
177	276
177	278
177	289
177	293
177	297
178	19
178	28
178	31
178	38
178	39
178	43
178	71
178	86
178	92
178	114
178	124
178	141
178	143
178	155
178	161
178	163
178	168
178	169
178	177
178	211
178	212
178	219
178	227
178	229
178	231
178	263
178	272
178	279
178	280
178	289
178	293
179	1
179	4
179	36
179	47
179	60
179	69
179	74
179	81
179	84
179	90
179	91
179	101
179	106
179	126
179	130
179	137
179	161
179	162
179	215
179	217
179	234
179	242
179	245
179	246
179	258
179	272
179	273
179	281
179	285
179	286
179	299
180	2
180	5
180	18
180	24
180	32
180	33
180	45
180	46
180	60
180	69
180	75
180	90
180	99
180	101
180	106
180	128
180	152
180	209
180	222
180	224
180	227
180	242
180	252
180	258
180	263
180	268
180	279
180	285
180	286
180	295
180	299
181	1
181	7
181	8
181	11
181	14
181	19
181	22
181	40
181	46
181	51
181	54
181	55
181	65
181	91
181	94
181	95
181	164
181	172
181	186
181	204
181	250
181	253
181	262
181	264
181	270
181	276
181	283
181	284
181	285
181	288
181	290
182	1
182	8
182	57
182	83
182	97
182	100
182	112
182	127
182	137
182	150
182	172
182	176
182	184
182	195
182	199
182	202
182	203
182	214
182	218
182	219
182	224
182	228
182	249
182	252
182	257
182	261
182	282
182	284
182	292
182	297
182	298
183	22
183	34
183	52
183	56
183	58
183	62
183	70
183	73
183	75
183	77
183	85
183	98
183	104
183	108
183	110
183	115
183	116
183	147
183	159
183	186
183	200
183	201
183	221
183	224
183	240
183	242
183	250
183	274
183	280
183	291
183	292
184	3
184	4
184	20
184	30
184	57
184	70
184	82
184	83
184	94
184	97
184	113
184	129
184	139
184	170
184	172
184	176
184	182
184	207
184	213
184	214
184	226
184	243
184	248
184	249
184	257
184	267
184	269
184	274
184	282
184	284
184	298
185	4
185	9
185	16
185	21
185	35
185	49
185	57
185	66
185	83
185	111
185	112
185	113
185	127
185	139
185	171
185	176
185	202
185	207
185	208
185	213
185	214
185	218
185	224
185	246
185	248
185	249
185	257
185	279
185	284
185	293
185	297
186	13
186	18
186	33
186	41
186	56
186	62
186	73
186	75
186	77
186	85
186	98
186	104
186	107
186	110
186	116
186	121
186	133
186	147
186	157
186	159
186	181
186	183
186	194
186	200
186	205
186	232
186	240
186	250
186	274
186	291
186	292
187	3
187	35
187	38
187	49
187	72
187	80
187	96
187	99
187	119
187	122
187	129
187	132
187	144
187	148
187	150
187	151
187	156
187	166
187	190
187	191
187	193
187	212
187	236
187	243
187	251
187	253
187	260
187	265
187	271
187	281
187	287
187	298
188	14
188	36
188	50
188	58
188	64
188	86
188	95
188	102
188	111
188	117
188	123
188	154
188	156
188	159
188	169
188	192
188	194
188	196
188	198
188	205
188	213
188	216
188	220
188	228
188	230
188	234
188	235
188	241
188	259
188	268
188	269
188	296
189	10
189	12
189	18
189	29
189	35
189	50
189	65
189	95
189	102
189	109
189	111
189	123
189	136
189	146
189	156
189	167
189	169
189	205
189	206
189	210
189	213
189	228
189	230
189	241
189	254
189	255
189	259
189	261
189	268
189	269
189	275
189	284
190	3
190	16
190	35
190	41
190	52
190	72
190	75
190	98
190	119
190	123
190	138
190	144
190	149
190	150
190	160
190	187
190	192
190	212
190	217
190	225
190	232
190	235
190	236
190	243
190	251
190	260
190	265
190	268
190	271
190	278
190	287
190	292
191	13
191	16
191	20
191	28
191	30
191	41
191	55
191	61
191	79
191	99
191	100
191	102
191	119
191	143
191	148
191	149
191	160
191	166
191	187
191	192
191	194
191	212
191	225
191	236
191	246
191	251
191	253
191	265
191	271
191	276
191	278
191	287
192	16
192	41
192	48
192	100
192	104
192	119
192	132
192	143
192	148
192	149
192	150
192	153
192	164
192	166
192	188
192	190
192	191
192	193
192	194
192	212
192	217
192	235
192	236
192	243
192	244
192	251
192	256
192	260
192	265
192	278
192	287
192	288
193	3
193	6
193	27
193	47
193	72
193	99
193	100
193	119
193	132
193	140
193	143
193	144
193	148
193	149
193	150
193	151
193	153
193	187
193	192
193	194
193	205
193	225
193	236
193	251
193	260
193	267
193	271
193	272
193	278
193	279
193	287
193	293
194	1
194	3
194	16
194	35
194	61
194	72
194	73
194	99
194	119
194	124
194	142
194	143
194	148
194	149
194	151
194	186
194	188
194	191
194	192
194	193
194	212
194	218
194	225
194	236
194	243
194	251
194	260
194	265
194	270
194	278
194	287
194	296
195	21
195	57
195	64
195	96
195	97
195	108
195	111
195	112
195	113
195	120
195	139
195	148
195	170
195	174
195	176
195	182
195	196
195	202
195	203
195	207
195	214
195	216
195	218
195	224
195	226
195	248
195	254
195	257
195	282
195	284
195	295
195	297
196	13
196	15
196	26
196	29
196	39
196	44
196	59
196	68
196	78
196	84
196	87
196	92
196	94
196	120
196	122
196	132
196	134
196	135
196	157
196	165
196	188
196	195
196	222
196	235
196	247
196	261
196	271
196	273
196	285
196	294
196	298
196	300
197	1
197	7
197	11
197	26
197	29
197	42
197	51
197	52
197	63
197	79
197	81
197	88
197	89
197	95
197	105
197	123
197	129
197	132
197	140
197	161
197	208
197	212
197	229
197	235
197	246
197	255
197	264
197	266
197	269
197	274
197	277
197	290
198	50
198	56
198	58
198	75
198	95
198	102
198	109
198	117
198	118
198	136
198	150
198	156
198	159
198	169
198	188
198	199
198	205
198	216
198	220
198	228
198	234
198	238
198	240
198	241
198	244
198	254
198	259
198	268
198	275
198	288
198	294
198	299
199	6
199	24
199	32
199	42
199	47
199	63
199	76
199	88
199	89
199	93
199	96
199	99
199	112
199	128
199	135
199	142
199	164
199	165
199	182
199	198
199	208
199	229
199	246
199	253
199	255
199	262
199	264
199	266
199	274
199	277
199	288
199	299
200	13
200	33
200	34
200	45
200	53
200	56
200	64
200	70
200	77
200	78
200	85
200	90
200	98
200	104
200	107
200	115
200	121
200	125
200	133
200	147
200	155
200	183
200	186
200	201
200	221
200	232
200	233
200	240
200	250
200	259
200	291
200	292
201	7
201	33
201	34
201	36
201	52
201	62
201	66
201	70
201	73
201	77
201	85
201	98
201	104
201	107
201	110
201	116
201	124
201	133
201	145
201	146
201	147
201	183
201	200
201	209
201	210
201	221
201	231
201	232
201	240
201	250
201	291
201	292
202	4
202	22
202	30
202	57
202	73
202	82
202	109
202	111
202	127
202	139
202	144
202	170
202	171
202	172
202	182
202	185
202	195
202	207
202	214
202	218
202	226
202	229
202	240
202	248
202	257
202	267
202	273
202	274
202	282
202	284
202	296
202	297
203	9
203	21
203	82
203	83
203	87
203	97
203	100
203	110
203	111
203	113
203	127
203	128
203	135
203	139
203	150
203	165
203	167
203	170
203	171
203	172
203	176
203	182
203	195
203	218
203	226
203	230
203	242
203	249
203	265
203	267
203	282
203	297
203	298
204	1
204	8
204	16
204	22
204	32
204	40
204	45
204	47
204	60
204	76
204	79
204	80
204	82
204	88
204	111
204	121
204	124
204	151
204	181
204	208
204	212
204	216
204	223
204	226
204	229
204	238
204	253
204	264
204	277
204	283
204	288
204	290
204	296
205	11
205	36
205	54
205	58
205	67
205	123
205	135
205	136
205	137
205	146
205	154
205	159
205	162
205	169
205	186
205	188
205	189
205	193
205	198
205	206
205	210
205	213
205	216
205	230
205	234
205	236
205	241
205	243
205	244
205	254
205	259
205	275
205	284
206	10
206	12
206	20
206	36
206	47
206	50
206	57
206	70
206	81
206	95
206	117
206	136
206	146
206	154
206	156
206	159
206	169
206	189
206	205
206	210
206	213
206	216
206	220
206	230
206	234
206	244
206	246
206	255
206	268
206	269
206	275
206	282
206	286
207	7
207	9
207	40
207	57
207	68
207	82
207	83
207	93
207	100
207	111
207	112
207	113
207	163
207	168
207	170
207	171
207	172
207	184
207	185
207	195
207	202
207	222
207	224
207	226
207	248
207	249
207	255
207	267
207	282
207	286
207	291
207	297
207	298
208	1
208	11
208	14
208	29
208	38
208	46
208	63
208	64
208	65
208	76
208	79
208	88
208	104
208	105
208	124
208	142
208	157
208	158
208	164
208	167
208	168
208	173
208	185
208	197
208	199
208	204
208	209
208	214
208	219
208	238
208	266
208	274
208	280
209	2
209	4
209	8
209	15
209	24
209	28
209	51
209	60
209	91
209	101
209	106
209	126
209	137
209	158
209	161
209	162
209	180
209	201
209	208
209	217
209	242
209	245
209	254
209	270
209	273
209	276
209	279
209	281
209	285
209	286
209	295
209	298
209	299
210	12
210	36
210	79
210	88
210	102
210	103
210	123
210	146
210	156
210	157
210	159
210	175
210	189
210	201
210	205
210	206
210	213
210	216
210	220
210	228
210	230
210	234
210	237
210	242
210	244
210	245
210	248
210	254
210	259
210	268
210	269
210	275
210	298
211	10
211	38
211	39
211	43
211	49
211	53
211	56
211	71
211	105
211	109
211	130
211	138
211	141
211	163
211	167
211	171
211	174
211	177
211	178
211	215
211	225
211	227
211	228
211	231
211	237
211	246
211	252
211	256
211	263
211	272
211	280
211	286
211	289
212	3
212	16
212	20
212	28
212	41
212	55
212	61
212	99
212	148
212	149
212	150
212	151
212	153
212	154
212	166
212	178
212	187
212	190
212	191
212	192
212	194
212	197
212	204
212	236
212	246
212	258
212	260
212	268
212	271
212	278
212	280
212	287
212	295
213	1
213	12
213	50
213	60
213	67
213	80
213	95
213	102
213	109
213	123
213	136
213	146
213	159
213	169
213	184
213	185
213	188
213	189
213	205
213	206
213	210
213	220
213	225
213	227
213	228
213	241
213	244
213	251
213	254
213	259
213	268
213	269
213	277
214	4
214	9
214	21
214	29
214	30
214	74
214	97
214	98
214	100
214	104
214	111
214	127
214	139
214	160
214	164
214	171
214	172
214	182
214	184
214	185
214	195
214	202
214	208
214	217
214	218
214	224
214	226
214	249
214	254
214	257
214	267
214	277
214	284
215	10
215	23
215	28
215	31
215	32
215	38
215	39
215	48
215	49
215	71
215	86
215	88
215	102
215	130
215	132
215	144
215	155
215	163
215	165
215	167
215	173
215	174
215	177
215	179
215	211
215	231
215	257
215	260
215	263
215	272
215	280
215	289
215	293
216	4
216	12
216	36
216	38
216	58
216	67
216	103
216	109
216	123
216	134
216	136
216	146
216	159
216	169
216	188
216	195
216	198
216	204
216	205
216	206
216	210
216	220
216	228
216	229
216	230
216	244
216	252
216	254
216	259
216	268
216	272
216	275
216	287
216	299
217	2
217	5
217	17
217	24
217	27
217	60
217	74
217	81
217	90
217	91
217	92
217	106
217	126
217	128
217	158
217	161
217	175
217	179
217	190
217	192
217	209
217	214
217	224
217	233
217	242
217	252
217	274
217	276
217	278
217	279
217	285
217	295
217	298
217	299
218	25
218	30
218	46
218	49
218	80
218	81
218	82
218	88
218	100
218	112
218	127
218	134
218	139
218	141
218	171
218	172
218	176
218	182
218	185
218	194
218	195
218	202
218	203
218	214
218	224
218	226
218	232
218	248
218	249
218	274
218	282
218	284
218	297
218	298
219	1
219	19
219	27
219	29
219	37
219	40
219	43
219	47
219	64
219	66
219	76
219	109
219	140
219	164
219	168
219	178
219	182
219	208
219	223
219	226
219	229
219	238
219	242
219	246
219	255
219	262
219	264
219	266
219	267
219	274
219	277
219	283
219	288
219	291
220	12
220	23
220	29
220	50
220	58
220	88
220	95
220	97
220	117
220	146
220	156
220	159
220	169
220	188
220	198
220	206
220	210
220	213
220	216
220	222
220	228
220	230
220	234
220	241
220	242
220	244
220	254
220	258
220	266
220	268
220	269
220	270
220	275
220	300
221	33
221	34
221	51
221	62
221	66
221	70
221	73
221	75
221	77
221	81
221	85
221	98
221	104
221	107
221	110
221	115
221	121
221	137
221	139
221	147
221	148
221	152
221	183
221	200
221	201
221	232
221	240
221	250
221	263
221	275
221	290
221	291
221	292
221	299
222	11
222	13
222	15
222	17
222	26
222	68
222	78
222	84
222	87
222	94
222	95
222	97
222	108
222	118
222	122
222	125
222	134
222	135
222	138
222	145
222	157
222	180
222	196
222	207
222	220
222	235
222	239
222	247
222	261
222	267
222	284
222	285
222	286
222	300
223	3
223	8
223	11
223	14
223	22
223	23
223	27
223	29
223	30
223	50
223	63
223	65
223	76
223	79
223	92
223	105
223	124
223	129
223	142
223	149
223	168
223	204
223	219
223	229
223	230
223	246
223	250
223	258
223	263
223	270
223	274
223	277
223	283
223	296
224	4
224	21
224	30
224	82
224	83
224	97
224	111
224	112
224	113
224	134
224	153
224	172
224	180
224	182
224	183
224	185
224	195
224	207
224	214
224	217
224	218
224	226
224	236
224	238
224	248
224	257
224	260
224	267
224	282
224	284
224	288
224	293
224	297
224	298
225	3
225	16
225	35
225	52
225	72
225	92
225	119
225	130
225	132
225	141
225	143
225	144
225	148
225	150
225	151
225	153
225	166
225	174
225	190
225	191
225	193
225	194
225	211
225	213
225	227
225	236
225	243
225	256
225	260
225	271
225	278
225	287
225	297
225	300
226	3
226	4
226	21
226	30
226	57
226	98
226	100
226	112
226	113
226	119
226	127
226	131
226	169
226	170
226	172
226	173
226	176
226	184
226	195
226	202
226	203
226	204
226	207
226	214
226	218
226	219
226	224
226	248
226	267
226	282
226	283
226	297
226	298
226	300
227	2
227	31
227	38
227	49
227	53
227	59
227	71
227	73
227	86
227	92
227	121
227	129
227	130
227	141
227	155
227	163
227	167
227	173
227	174
227	177
227	178
227	180
227	211
227	213
227	225
227	231
227	237
227	254
227	256
227	263
227	272
227	280
227	293
227	300
228	12
228	34
228	35
228	36
228	50
228	55
228	67
228	95
228	102
228	103
228	109
228	120
228	129
228	136
228	154
228	182
228	188
228	189
228	198
228	210
228	211
228	213
228	216
228	220
228	230
228	234
228	241
228	244
228	254
228	259
228	262
228	268
228	273
228	298
229	6
229	14
229	23
229	32
229	46
229	51
229	79
229	86
229	88
229	89
229	93
229	96
229	105
229	109
229	120
229	129
229	163
229	164
229	167
229	176
229	178
229	197
229	199
229	202
229	204
229	216
229	219
229	223
229	237
229	246
229	255
229	283
229	290
229	296
230	36
230	49
230	50
230	58
230	67
230	86
230	95
230	103
230	109
230	113
230	117
230	123
230	159
230	162
230	168
230	177
230	188
230	189
230	203
230	205
230	206
230	210
230	216
230	220
230	223
230	228
230	240
230	241
230	244
230	254
230	264
230	268
230	269
230	275
231	19
231	25
231	26
231	31
231	36
231	42
231	48
231	49
231	53
231	68
231	98
231	114
231	129
231	130
231	141
231	146
231	155
231	173
231	174
231	177
231	178
231	201
231	211
231	215
231	227
231	237
231	256
231	263
231	272
231	280
231	289
231	290
231	293
231	300
232	3
232	11
232	12
232	33
232	34
232	56
232	62
232	66
232	70
232	73
232	75
232	77
232	98
232	104
232	107
232	110
232	116
232	120
232	121
232	133
232	139
232	146
232	147
232	186
232	190
232	200
232	201
232	218
232	221
232	240
232	284
232	291
232	292
232	299
233	13
233	15
233	17
233	44
233	59
233	68
233	73
233	78
233	84
233	87
233	94
233	108
233	112
233	118
233	120
233	125
233	134
233	135
233	138
233	145
233	159
233	165
233	167
233	200
233	217
233	235
233	239
233	261
233	264
233	265
233	290
233	291
233	294
233	295
233	300
234	12
234	50
234	58
234	78
234	95
234	103
234	107
234	109
234	116
234	117
234	123
234	144
234	152
234	154
234	156
234	159
234	169
234	179
234	188
234	198
234	205
234	206
234	210
234	220
234	228
234	241
234	244
234	259
234	268
234	269
234	271
234	275
234	287
234	290
234	295
235	13
235	15
235	17
235	48
235	59
235	68
235	78
235	84
235	85
235	87
235	118
235	120
235	125
235	132
235	134
235	138
235	145
235	157
235	165
235	188
235	190
235	192
235	196
235	197
235	222
235	233
235	239
235	240
235	245
235	247
235	261
235	274
235	294
235	297
235	300
236	3
236	6
236	20
236	41
236	52
236	58
236	72
236	99
236	132
236	148
236	149
236	150
236	153
236	187
236	190
236	191
236	192
236	193
236	194
236	205
236	212
236	224
236	225
236	239
236	240
236	249
236	250
236	251
236	259
236	260
236	261
236	265
236	271
236	278
236	287
237	10
237	28
237	31
237	36
237	38
237	39
237	43
237	48
237	53
237	57
237	71
237	86
237	87
237	99
237	103
237	114
237	141
237	143
237	155
237	163
237	167
237	177
237	210
237	211
237	227
237	229
237	231
237	254
237	256
237	261
237	263
237	266
237	280
237	289
237	293
238	8
238	11
238	14
238	19
238	34
238	37
238	42
238	51
238	54
238	65
238	73
238	80
238	82
238	88
238	98
238	124
238	128
238	140
238	141
238	142
238	157
238	160
238	168
238	198
238	204
238	208
238	219
238	224
238	243
238	246
238	253
238	255
238	266
238	270
238	283
239	13
239	17
239	44
239	57
239	59
239	68
239	78
239	83
239	94
239	108
239	116
239	120
239	122
239	125
239	128
239	134
239	135
239	138
239	139
239	145
239	157
239	165
239	222
239	233
239	235
239	236
239	247
239	253
239	259
239	261
239	277
239	288
239	292
239	294
239	300
240	33
240	56
240	62
240	66
240	70
240	73
240	77
240	85
240	98
240	104
240	107
240	110
240	113
240	115
240	116
240	121
240	147
240	183
240	186
240	198
240	200
240	201
240	202
240	221
240	230
240	232
240	235
240	236
240	252
240	270
240	289
240	291
240	292
240	296
240	299
241	36
241	44
241	46
241	50
241	67
241	88
241	90
241	102
241	117
241	136
241	146
241	154
241	156
241	169
241	173
241	188
241	189
241	198
241	205
241	213
241	220
241	228
241	230
241	234
241	244
241	247
241	249
241	254
241	259
241	262
241	268
241	269
241	275
241	280
241	287
242	5
242	18
242	27
242	57
242	69
242	71
242	74
242	81
242	84
242	90
242	91
242	106
242	126
242	128
242	131
242	151
242	152
242	175
242	179
242	180
242	183
242	203
242	209
242	210
242	217
242	219
242	220
242	245
242	252
242	273
242	281
242	286
242	291
242	293
242	295
243	3
243	10
243	16
243	20
243	35
243	41
243	52
243	61
243	72
243	74
243	79
243	99
243	106
243	128
243	132
243	135
243	143
243	144
243	148
243	149
243	153
243	166
243	184
243	187
243	190
243	192
243	194
243	205
243	225
243	238
243	251
243	265
243	271
243	278
243	290
244	17
244	32
244	36
244	41
244	50
244	67
244	103
244	136
244	139
244	152
244	154
244	156
244	159
244	169
244	192
244	198
244	205
244	206
244	210
244	213
244	216
244	220
244	228
244	230
244	234
244	241
244	248
244	254
244	259
244	268
244	269
244	272
244	275
244	287
244	290
244	294
245	5
245	27
245	36
245	45
245	74
245	84
245	91
245	101
245	117
245	126
245	128
245	131
245	137
245	152
245	158
245	161
245	163
245	171
245	175
245	179
245	209
245	210
245	235
245	242
245	250
245	252
245	255
245	258
245	267
245	273
245	276
245	281
245	285
245	295
245	298
245	299
246	1
246	5
246	8
246	19
246	23
246	32
246	54
246	64
246	65
246	92
246	100
246	140
246	141
246	142
246	164
246	179
246	185
246	191
246	197
246	199
246	206
246	211
246	212
246	219
246	223
246	229
246	238
246	255
246	262
246	266
246	270
246	274
246	277
246	281
246	288
246	290
247	8
247	15
247	17
247	26
247	43
247	44
247	68
247	78
247	82
247	84
247	87
247	108
247	118
247	120
247	122
247	124
247	125
247	134
247	135
247	138
247	145
247	150
247	157
247	159
247	165
247	196
247	222
247	235
247	239
247	241
247	261
247	270
247	274
247	279
247	294
247	300
248	4
248	9
248	57
248	61
248	70
248	82
248	83
248	97
248	100
248	103
248	111
248	113
248	114
248	127
248	142
248	146
248	155
248	171
248	175
248	176
248	184
248	185
248	195
248	202
248	207
248	210
248	218
248	224
248	226
248	244
248	249
248	257
248	267
248	292
248	297
248	298
249	4
249	9
249	21
249	30
249	75
249	82
249	97
249	100
249	103
249	124
249	139
249	170
249	171
249	172
249	176
249	182
249	184
249	185
249	203
249	207
249	214
249	218
249	236
249	241
249	248
249	257
249	265
249	267
249	271
249	276
249	282
249	284
249	285
249	297
249	298
249	299
250	33
250	34
250	56
250	62
250	66
250	70
250	73
250	75
250	77
250	85
250	98
250	104
250	106
250	107
250	110
250	115
250	116
250	121
250	130
250	133
250	147
250	172
250	177
250	181
250	183
250	186
250	200
250	201
250	221
250	223
250	236
250	245
250	258
250	271
250	291
250	292
250	300
251	3
251	16
251	35
251	51
251	52
251	54
251	55
251	60
251	61
251	72
251	99
251	118
251	119
251	132
251	133
251	144
251	148
251	149
251	151
251	161
251	187
251	190
251	191
251	192
251	193
251	194
251	213
251	236
251	243
251	255
251	260
251	265
251	271
251	278
251	280
251	281
251	289
252	2
252	5
252	7
252	27
252	45
252	60
252	74
252	82
252	91
252	101
252	106
252	128
252	137
252	145
252	156
252	158
252	161
252	162
252	175
252	180
252	182
252	211
252	216
252	217
252	240
252	242
252	245
252	258
252	266
252	273
252	276
252	277
252	279
252	281
252	284
252	286
252	299
253	7
253	14
253	19
253	21
253	23
253	31
253	37
253	40
253	46
253	54
253	63
253	84
253	88
253	89
253	99
253	106
253	135
253	140
253	160
253	168
253	170
253	181
253	187
253	191
253	199
253	204
253	238
253	239
253	255
253	262
253	270
253	274
253	276
253	277
253	283
253	284
253	288
254	36
254	39
254	50
254	58
254	97
254	102
254	103
254	109
254	111
254	117
254	123
254	136
254	154
254	162
254	169
254	189
254	195
254	198
254	205
254	209
254	210
254	213
254	214
254	216
254	220
254	227
254	228
254	230
254	237
254	241
254	244
254	259
254	268
254	269
254	275
254	281
254	294
255	6
255	11
255	14
255	23
255	46
255	47
255	51
255	65
255	105
255	127
255	129
255	142
255	168
255	171
255	173
255	189
255	197
255	199
255	206
255	207
255	219
255	229
255	238
255	245
255	246
255	251
255	253
255	260
255	264
255	266
255	274
255	277
255	287
255	288
255	290
255	291
255	296
256	10
256	28
256	31
256	39
256	43
256	45
256	48
256	49
256	53
256	81
256	86
256	101
256	114
256	119
256	130
256	155
256	162
256	163
256	167
256	173
256	174
256	176
256	177
256	192
256	211
256	225
256	227
256	231
256	237
256	263
256	272
256	275
256	277
256	280
256	289
256	293
256	300
257	5
257	9
257	19
257	29
257	30
257	33
257	57
257	79
257	83
257	91
257	97
257	100
257	111
257	113
257	127
257	138
257	139
257	156
257	167
257	170
257	171
257	172
257	176
257	182
257	184
257	185
257	195
257	202
257	214
257	215
257	224
257	248
257	249
257	267
257	275
257	284
257	298
258	17
258	18
258	23
258	24
258	42
258	44
258	45
258	69
258	81
258	88
258	90
258	91
258	103
258	128
258	131
258	137
258	152
258	158
258	161
258	162
258	175
258	179
258	180
258	212
258	220
258	223
258	245
258	250
258	252
258	272
258	273
258	276
258	279
258	285
258	286
258	295
258	299
259	12
259	13
259	33
259	36
259	54
259	57
259	67
259	93
259	94
259	102
259	109
259	113
259	117
259	123
259	136
259	146
259	154
259	156
259	188
259	189
259	198
259	200
259	205
259	210
259	213
259	216
259	228
259	234
259	236
259	239
259	241
259	244
259	254
259	268
259	269
259	275
259	300
260	16
260	20
260	22
260	35
260	41
260	48
260	52
260	53
260	55
260	57
260	61
260	72
260	99
260	133
260	143
260	144
260	150
260	151
260	162
260	166
260	187
260	190
260	192
260	193
260	194
260	212
260	215
260	224
260	225
260	236
260	251
260	255
260	261
260	265
260	271
260	278
260	287
260	293
261	15
261	17
261	26
261	39
261	44
261	51
261	59
261	68
261	84
261	87
261	94
261	108
261	120
261	122
261	125
261	134
261	135
261	138
261	145
261	149
261	157
261	164
261	165
261	175
261	182
261	189
261	196
261	222
261	233
261	235
261	236
261	237
261	239
261	247
261	260
261	288
261	294
261	300
262	1
262	8
262	11
262	22
262	23
262	39
262	40
262	41
262	42
262	47
262	48
262	51
262	65
262	76
262	79
262	88
262	105
262	140
262	144
262	146
262	153
262	156
262	160
262	164
262	181
262	199
262	219
262	228
262	241
262	246
262	253
262	266
262	270
262	277
262	288
262	289
262	290
262	294
263	10
263	25
263	28
263	38
263	39
263	43
263	49
263	53
263	78
263	86
263	92
263	102
263	108
263	114
263	130
263	141
263	151
263	160
263	163
263	167
263	173
263	174
263	177
263	178
263	180
263	211
263	215
263	221
263	223
263	227
263	231
263	237
263	256
263	278
263	286
263	289
263	293
263	295
264	3
264	5
264	6
264	8
264	14
264	15
264	22
264	32
264	37
264	40
264	42
264	57
264	64
264	65
264	88
264	90
264	96
264	105
264	106
264	117
264	118
264	126
264	142
264	164
264	168
264	181
264	197
264	199
264	204
264	219
264	230
264	233
264	255
264	266
264	283
264	288
264	290
264	296
265	3
265	16
265	20
265	21
265	26
265	35
265	41
265	45
265	52
265	55
265	58
265	72
265	75
265	90
265	132
265	142
265	143
265	144
265	148
265	149
265	150
265	151
265	153
265	155
265	166
265	187
265	190
265	191
265	192
265	194
265	203
265	233
265	236
265	243
265	249
265	251
265	260
265	278
266	23
266	32
266	37
266	54
266	70
266	79
266	84
266	89
266	93
266	96
266	121
266	123
266	124
266	135
266	140
266	142
266	143
266	160
266	163
266	166
266	197
266	199
266	208
266	219
266	220
266	237
266	238
266	246
266	252
266	255
266	262
266	264
266	269
266	274
266	283
266	288
266	290
266	296
267	4
267	9
267	11
267	21
267	26
267	30
267	54
267	67
267	82
267	83
267	107
267	112
267	113
267	115
267	150
267	170
267	171
267	172
267	176
267	184
267	193
267	202
267	203
267	207
267	214
267	219
267	222
267	224
267	226
267	245
267	248
267	249
267	257
267	282
267	284
267	289
267	297
267	298
268	12
268	16
268	28
268	58
268	67
268	89
268	95
268	109
268	110
268	116
268	117
268	136
268	146
268	149
268	156
268	159
268	169
268	170
268	180
268	188
268	189
268	190
268	198
268	206
268	210
268	212
268	213
268	216
268	220
268	228
268	230
268	234
268	241
268	244
268	254
268	259
268	269
268	288
269	17
269	50
269	56
269	67
269	95
269	103
269	104
269	109
269	112
269	117
269	123
269	128
269	136
269	146
269	154
269	156
269	159
269	169
269	176
269	184
269	188
269	189
269	197
269	206
269	210
269	213
269	220
269	230
269	234
269	241
269	244
269	254
269	259
269	266
269	268
269	275
269	281
269	282
270	7
270	8
270	20
270	23
270	29
270	37
270	40
270	46
270	47
270	54
270	65
270	74
270	83
270	88
270	124
270	126
270	135
270	147
270	160
270	162
270	164
270	168
270	181
270	194
270	209
270	220
270	223
270	238
270	240
270	246
270	247
270	253
270	262
270	274
270	277
270	283
270	288
270	296
271	3
271	8
271	16
271	20
271	34
271	35
271	36
271	41
271	47
271	52
271	61
271	91
271	99
271	120
271	132
271	143
271	144
271	147
271	149
271	150
271	151
271	166
271	187
271	190
271	191
271	193
271	196
271	212
271	225
271	234
271	236
271	243
271	249
271	250
271	251
271	260
271	278
271	287
272	10
272	21
272	25
272	28
272	31
272	37
272	38
272	43
272	49
272	53
272	71
272	86
272	92
272	105
272	114
272	130
272	134
272	141
272	155
272	163
272	167
272	177
272	178
272	179
272	193
272	211
272	215
272	216
272	227
272	231
272	244
272	256
272	258
272	276
272	280
272	286
272	289
272	293
273	4
273	18
273	21
273	24
273	27
273	45
273	50
273	69
273	74
273	81
273	90
273	91
273	106
273	114
273	118
273	126
273	137
273	152
273	157
273	159
273	162
273	175
273	179
273	196
273	202
273	209
273	228
273	242
273	245
273	252
273	258
273	275
273	276
273	279
273	285
273	286
273	295
273	299
274	11
274	19
274	23
274	29
274	32
274	47
274	51
274	54
274	64
274	65
274	79
274	80
274	93
274	101
274	141
274	147
274	160
274	168
274	183
274	184
274	186
274	197
274	199
274	202
274	208
274	217
274	218
274	219
274	223
274	235
274	246
274	247
274	253
274	255
274	266
274	270
274	283
274	290
275	12
275	36
275	95
275	102
275	103
275	109
275	117
275	118
275	136
275	146
275	147
275	154
275	156
275	159
275	165
275	169
275	170
275	172
275	189
275	198
275	205
275	206
275	210
275	216
275	220
275	221
275	230
275	234
275	241
275	244
275	254
275	256
275	257
275	259
275	269
275	273
275	281
275	293
275	296
276	2
276	5
276	18
276	24
276	27
276	43
276	46
276	60
276	69
276	74
276	81
276	90
276	100
276	101
276	105
276	106
276	126
276	131
276	152
276	162
276	175
276	177
276	181
276	191
276	209
276	217
276	245
276	249
276	252
276	253
276	258
276	272
276	273
276	279
276	281
276	282
276	285
276	286
276	295
277	1
277	6
277	8
277	9
277	11
277	18
277	23
277	29
277	37
277	40
277	46
277	80
277	89
277	93
277	129
277	142
277	143
277	160
277	166
277	171
277	173
277	197
277	199
277	204
277	213
277	214
277	219
277	223
277	239
277	246
277	252
277	253
277	255
277	256
277	262
277	270
277	283
277	290
277	296
278	3
278	15
278	16
278	35
278	41
278	60
278	66
278	87
278	107
278	119
278	130
278	143
278	144
278	148
278	149
278	150
278	151
278	153
278	156
278	166
278	170
278	177
278	190
278	191
278	192
278	193
278	194
278	212
278	217
278	225
278	236
278	243
278	251
278	260
278	263
278	265
278	271
278	283
278	287
279	2
279	18
279	24
279	31
279	60
279	81
279	90
279	107
279	110
279	125
279	126
279	128
279	131
279	137
279	139
279	152
279	154
279	155
279	158
279	161
279	162
279	175
279	178
279	180
279	185
279	193
279	209
279	217
279	247
279	252
279	258
279	273
279	276
279	281
279	285
279	286
279	290
279	295
279	299
280	10
280	20
280	31
280	38
280	39
280	43
280	48
280	49
280	53
280	55
280	63
280	71
280	79
280	86
280	94
280	114
280	130
280	133
280	141
280	158
280	163
280	167
280	173
280	174
280	178
280	183
280	208
280	211
280	212
280	215
280	227
280	231
280	237
280	241
280	251
280	256
280	272
280	289
280	293
281	2
281	5
281	45
281	60
281	69
281	77
281	81
281	101
281	106
281	107
281	109
281	126
281	128
281	131
281	137
281	152
281	158
281	161
281	162
281	175
281	179
281	187
281	209
281	242
281	245
281	246
281	251
281	252
281	254
281	269
281	275
281	276
281	279
281	285
281	286
281	295
281	298
281	299
281	300
282	4
282	9
282	21
282	30
282	34
282	57
282	58
282	66
282	71
282	83
282	96
282	97
282	100
282	111
282	113
282	127
282	139
282	143
282	147
282	170
282	176
282	182
282	184
282	195
282	202
282	203
282	206
282	207
282	218
282	224
282	226
282	249
282	267
282	269
282	276
282	284
282	291
282	297
282	298
283	1
283	6
283	7
283	25
283	29
283	46
283	47
283	64
283	80
283	93
283	94
283	96
283	105
283	124
283	138
283	140
283	142
283	154
283	159
283	164
283	173
283	181
283	204
283	219
283	223
283	226
283	229
283	238
283	253
283	264
283	266
283	270
283	274
283	277
283	278
283	285
283	292
283	294
283	299
284	8
284	9
284	21
284	30
284	64
284	71
284	82
284	83
284	93
284	97
284	100
284	111
284	113
284	127
284	139
284	170
284	171
284	176
284	181
284	182
284	184
284	185
284	189
284	195
284	202
284	205
284	214
284	218
284	222
284	224
284	232
284	249
284	252
284	253
284	257
284	267
284	282
284	289
284	297
285	2
285	5
285	6
285	18
285	27
285	45
285	52
285	54
285	59
285	60
285	74
285	77
285	90
285	91
285	101
285	106
285	131
285	135
285	148
285	152
285	161
285	175
285	179
285	180
285	181
285	196
285	209
285	217
285	222
285	245
285	249
285	258
285	273
285	276
285	279
285	281
285	283
285	286
285	299
286	18
286	27
286	45
286	60
286	69
286	74
286	89
286	106
286	122
286	126
286	128
286	131
286	137
286	140
286	146
286	152
286	158
286	162
286	175
286	179
286	180
286	206
286	207
286	209
286	211
286	222
286	242
286	252
286	258
286	263
286	272
286	273
286	276
286	279
286	281
286	285
286	297
286	298
286	299
287	3
287	20
287	35
287	41
287	52
287	55
287	61
287	87
287	117
287	132
287	133
287	143
287	144
287	148
287	149
287	150
287	151
287	153
287	154
287	164
287	174
287	187
287	190
287	191
287	192
287	193
287	194
287	212
287	216
287	225
287	234
287	236
287	241
287	244
287	255
287	260
287	271
287	278
287	299
288	7
288	8
288	11
288	13
288	42
288	51
288	61
288	64
288	65
288	66
288	75
288	76
288	80
288	89
288	96
288	127
288	140
288	160
288	168
288	181
288	192
288	198
288	199
288	204
288	219
288	224
288	239
288	246
288	253
288	255
288	261
288	262
288	264
288	266
288	268
288	270
288	290
288	292
288	296
289	10
289	25
289	31
289	38
289	39
289	45
289	48
289	49
289	53
289	71
289	76
289	89
289	92
289	114
289	118
289	125
289	126
289	130
289	141
289	155
289	163
289	167
289	173
289	174
289	177
289	178
289	211
289	215
289	231
289	237
289	240
289	251
289	256
289	262
289	263
289	267
289	272
289	280
289	284
290	1
290	2
290	7
290	22
290	23
290	29
290	34
290	37
290	40
290	42
290	45
290	47
290	51
290	58
290	64
290	80
290	96
290	129
290	140
290	168
290	176
290	181
290	197
290	204
290	221
290	229
290	231
290	233
290	234
290	243
290	244
290	246
290	255
290	262
290	264
290	266
290	274
290	277
290	279
290	288
291	12
291	33
291	34
291	47
291	56
291	59
291	62
291	66
291	70
291	73
291	75
291	77
291	85
291	98
291	104
291	107
291	110
291	115
291	116
291	121
291	133
291	141
291	147
291	149
291	153
291	183
291	186
291	200
291	201
291	207
291	219
291	221
291	232
291	233
291	240
291	242
291	250
291	255
291	282
291	292
292	6
292	22
292	33
292	34
292	56
292	62
292	66
292	70
292	73
292	75
292	77
292	85
292	98
292	99
292	104
292	107
292	108
292	110
292	115
292	116
292	121
292	133
292	147
292	148
292	182
292	183
292	186
292	190
292	200
292	201
292	221
292	232
292	239
292	240
292	248
292	250
292	283
292	288
292	291
292	296
293	10
293	25
293	28
293	39
293	43
293	48
293	49
293	53
293	71
293	92
293	97
293	107
293	114
293	130
293	131
293	141
293	155
293	156
293	158
293	161
293	163
293	167
293	173
293	174
293	177
293	178
293	185
293	193
293	215
293	224
293	227
293	231
293	237
293	242
293	256
293	260
293	263
293	272
293	275
293	280
294	10
294	13
294	15
294	17
294	26
294	42
294	44
294	50
294	59
294	68
294	78
294	84
294	87
294	91
294	94
294	104
294	108
294	118
294	120
294	125
294	131
294	134
294	135
294	138
294	145
294	151
294	157
294	165
294	196
294	198
294	233
294	235
294	239
294	244
294	247
294	254
294	261
294	262
294	283
294	300
295	2
295	5
295	18
295	20
295	39
295	45
295	60
295	69
295	81
295	90
295	95
295	101
295	106
295	109
295	114
295	122
295	126
295	128
295	131
295	152
295	158
295	162
295	175
295	176
295	180
295	195
295	209
295	212
295	217
295	233
295	234
295	242
295	245
295	258
295	263
295	273
295	276
295	279
295	281
295	299
296	6
296	9
296	11
296	14
296	19
296	22
296	37
296	38
296	40
296	64
296	79
296	80
296	85
296	88
296	93
296	96
296	105
296	119
296	124
296	129
296	140
296	142
296	155
296	157
296	160
296	188
296	194
296	202
296	204
296	223
296	229
296	240
296	255
296	264
296	266
296	270
296	275
296	277
296	288
296	292
297	4
297	30
297	41
297	48
297	57
297	83
297	86
297	97
297	100
297	102
297	111
297	113
297	114
297	117
297	127
297	131
297	150
297	170
297	171
297	172
297	176
297	177
297	182
297	185
297	195
297	202
297	203
297	207
297	218
297	224
297	225
297	226
297	235
297	248
297	249
297	267
297	282
297	284
297	286
297	298
298	9
298	30
298	53
298	57
298	82
298	83
298	97
298	100
298	111
298	112
298	113
298	127
298	130
298	154
298	170
298	171
298	172
298	176
298	182
298	184
298	187
298	196
298	203
298	207
298	209
298	210
298	217
298	218
298	224
298	226
298	228
298	245
298	248
298	249
298	257
298	267
298	281
298	282
298	286
298	297
299	18
299	24
299	27
299	59
299	69
299	74
299	90
299	91
299	106
299	126
299	129
299	132
299	137
299	152
299	158
299	161
299	162
299	175
299	179
299	180
299	198
299	199
299	209
299	216
299	217
299	221
299	232
299	240
299	245
299	249
299	252
299	258
299	273
299	279
299	281
299	283
299	285
299	286
299	287
299	295
300	7
300	8
300	15
300	17
300	26
300	44
300	59
300	60
300	68
300	72
300	78
300	84
300	87
300	94
300	108
300	120
300	122
300	125
300	135
300	138
300	145
300	157
300	165
300	196
300	220
300	222
300	225
300	226
300	227
300	231
300	233
300	235
300	239
300	247
300	250
300	256
300	259
300	261
300	281
300	294
