1	9 
2	8 
3	6 
4	11 
5	8 
6	3 
7	4 
8	11 
9	10 
10	3 
11	1 
12	1 
13	6 
14	11 
15	10 
16	5 
17	6 
18	2 
19	6 
20	8 
21	7 
22	4 
23	5 
24	7 
25	5 
26	2 
27	6 
28	1 
29	4 
30	10 
31	1 
32	5 
33	7 
34	9 
35	4 
36	2 
37	6 
38	4 
39	1 
40	9 
41	10 
42	7 
43	3 
44	6 
45	8 
46	11 
47	4 
48	11 
49	4 
50	6 
51	3 
52	11 
53	2 
54	9 
55	8 
56	11 
57	1 
58	3 
59	8 
60	4 
