1	2 
2	5 
3	5 
4	7 
5	13 
6	5 
7	3 
8	4 
9	11 
10	11 
11	1 
12	7 
13	12 
14	8 
15	8 
16	3 
17	14 
18	11 
19	10 
20	5 
21	1 
22	1 
23	8 
24	8 
25	14 
26	5 
27	6 
28	2 
29	3 
30	12 
31	1 
32	5 
33	14 
34	13 
35	11 
36	10 
37	7 
38	6 
39	2 
40	3 
41	8 
42	6 
43	5 
44	6 
45	5 
46	3 
47	5 
48	11 
49	10 
50	4 
51	9 
52	5 
53	3 
54	14 
55	9 
56	3 
57	4 
58	13 
59	6 
60	12 
61	2 
62	2 
63	10 
64	6 
65	5 
66	8 
67	8 
68	7 
69	4 
70	4 
71	9 
72	13 
73	8 
74	1 
75	3 
76	4 
77	9 
78	13 
79	2 
80	5 
81	4 
82	4 
83	12 
84	4 
85	2 
86	4 
87	7 
88	7 
89	1 
90	8 
91	6 
92	12 
93	9 
94	3 
95	3 
96	7 
97	12 
98	3 
99	10 
100	5 
101	1 
102	14 
103	2 
104	9 
105	13 
106	2 
107	11 
108	10 
109	13 
110	14 
111	9 
112	8 
113	9 
114	10 
115	4 
116	1 
117	8 
118	14 
119	14 
120	1 
121	6 
122	13 
123	2 
124	8 
125	7 
126	8 
127	6 
128	12 
129	4 
130	12 
131	7 
132	9 
133	14 
134	14 
135	11 
136	9 
137	13 
138	2 
139	10 
140	12 
141	2 
142	10 
143	14 
144	3 
145	7 
146	14 
147	11 
148	2 
149	14 
150	12 
151	11 
152	4 
153	14 
154	6 
155	1 
156	7 
157	8 
158	5 
159	13 
160	11 
161	8 
162	12 
163	6 
164	12 
165	9 
166	10 
167	4 
168	12 
169	1 
170	12 
171	1 
172	10 
173	8 
174	14 
175	7 
176	1 
177	2 
178	4 
179	14 
