degree distribution (probability density function of the degree in logarithmic bins) 
4	5.13536
5	0.657726
6	0.0699067

degree distribution (degree-occurrences) 
4	0.85
5	0.133333
6	0.0166667


--------------------------------------
community distribution (size-occurrences)
5	0.545455
6	0.454545


--------------------------------------
mixing parameter
0.25	0.25
0.333333	0.0166667
0.4	0.0833333
0.5	0.6
0.6	0.05

--------------------------------------
