1	20
1	30
2	27
2	33
3	14
3	20
4	29
4	31
5	31
5	34
6	25
6	32
7	10
7	32
8	17
8	24
9	15
9	22
9	30
10	7
10	27
10	28
11	22
11	26
11	34
12	17
12	20
12	24
13	27
13	30
13	34
14	3
14	18
14	32
14	34
15	9
15	19
15	29
15	31
16	29
16	32
16	33
16	34
17	8
17	12
17	20
17	32
18	14
18	27
18	29
18	31
19	15
19	24
19	31
19	33
19	34
20	1
20	3
20	12
20	17
20	22
21	22
21	23
21	32
21	33
21	34
22	9
22	11
22	20
22	21
22	25
22	30
23	21
23	27
23	28
23	30
23	33
23	34
24	8
24	12
24	19
24	32
24	33
24	34
25	6
25	22
25	27
25	28
25	29
25	30
25	31
26	11
26	28
26	29
26	31
26	33
27	2
27	10
27	13
27	18
27	23
27	25
27	33
28	10
28	23
28	25
28	26
28	32
28	33
28	34
29	4
29	15
29	16
29	18
29	25
29	26
29	31
29	33
30	1
30	9
30	13
30	22
30	23
30	25
30	33
30	34
31	4
31	5
31	15
31	18
31	19
31	25
31	26
31	29
31	32
31	34
32	6
32	7
32	14
32	16
32	17
32	21
32	24
32	28
32	31
32	33
32	34
33	2
33	16
33	19
33	21
33	23
33	24
33	26
33	27
33	28
33	29
33	30
33	32
33	34
34	5
34	11
34	13
34	14
34	16
34	19
34	21
34	23
34	24
34	28
34	30
34	31
34	32
34	33
