1	17
1	66
1	98
1	102
1	150
1	154
1	158
1	163
2	3
2	35
2	43
2	125
2	143
2	155
2	162
2	174
3	2
3	29
3	75
3	95
3	143
3	149
3	155
3	174
4	18
4	32
4	50
4	70
4	81
4	105
4	122
4	161
5	28
5	60
5	64
5	81
5	150
5	154
5	156
5	158
6	43
6	51
6	126
6	137
6	147
6	148
6	167
6	169
7	23
7	41
7	61
7	104
7	107
7	116
7	117
7	124
8	37
8	62
8	79
8	106
8	120
8	166
8	169
8	175
9	71
9	77
9	128
9	134
9	143
9	153
9	155
9	172
10	12
10	57
10	62
10	137
10	138
10	166
10	168
10	179
11	74
11	114
11	130
11	138
11	144
11	151
11	165
11	173
12	10
12	22
12	62
12	74
12	106
12	130
12	166
12	179
13	36
13	82
13	103
13	105
13	135
13	161
13	177
13	178
14	19
14	68
14	86
14	87
14	99
14	112
14	113
14	168
15	59
15	88
15	91
15	95
15	146
15	171
15	173
15	179
16	26
16	27
16	57
16	110
16	140
16	155
16	159
16	176
17	1
17	23
17	39
17	46
17	58
17	102
17	107
17	158
18	4
18	29
18	32
18	48
18	70
18	96
18	133
18	161
19	14
19	44
19	83
19	87
19	99
19	113
19	157
19	168
20	23
20	32
20	49
20	58
20	80
20	101
20	117
20	134
21	48
21	76
21	92
21	96
21	101
21	111
21	142
21	149
22	12
22	39
22	47
22	62
22	106
22	164
22	166
22	168
23	7
23	17
23	20
23	91
23	101
23	107
23	108
23	117
24	40
24	51
24	60
24	64
24	79
24	81
24	115
24	122
25	71
25	77
25	85
25	118
25	131
25	143
25	155
25	162
26	16
26	27
26	80
26	94
26	136
26	140
26	159
26	176
27	16
27	26
27	107
27	115
27	116
27	136
27	164
27	176
28	5
28	51
28	60
28	150
28	154
28	156
28	158
28	175
29	3
29	18
29	48
29	54
29	65
29	73
29	75
29	96
30	36
30	67
30	70
30	103
30	105
30	133
30	136
30	161
31	97
31	120
31	129
31	132
31	152
31	163
31	177
31	178
32	4
32	18
32	20
32	48
32	96
32	103
32	133
32	161
33	51
33	58
33	73
33	144
33	151
33	152
33	167
33	170
34	42
34	53
34	92
34	142
34	150
34	160
34	172
34	175
35	2
35	77
35	83
35	84
35	123
35	146
35	165
35	179
36	13
36	30
36	103
36	105
36	111
36	133
36	135
36	161
37	8
37	73
37	112
37	139
37	147
37	148
37	154
37	167
38	55
38	66
38	90
38	104
38	124
38	141
38	145
38	178
39	17
39	22
39	45
39	46
39	47
39	62
39	72
39	170
40	24
40	46
40	47
40	50
40	64
40	72
40	115
40	122
41	7
41	78
41	104
41	116
41	118
41	124
41	141
41	145
42	34
42	61
42	85
42	120
42	142
42	150
42	160
42	175
43	2
43	6
43	51
43	78
43	125
43	126
43	144
43	170
44	19
44	68
44	86
44	87
44	99
44	113
44	156
44	157
45	39
45	75
45	92
45	100
45	111
45	129
45	149
45	159
46	17
46	39
46	40
46	47
46	72
46	107
46	158
46	170
47	22
47	39
47	40
47	46
47	50
47	62
47	72
47	156
47	170
48	18
48	21
48	29
48	32
48	54
48	92
48	96
48	142
48	149
49	20
49	58
49	61
49	76
49	88
49	98
49	101
49	116
49	140
50	4
50	40
50	47
50	60
50	64
50	72
50	81
50	115
50	122
51	6
51	24
51	28
51	33
51	43
51	73
51	122
51	125
51	144
52	53
52	82
52	127
52	135
52	152
52	160
52	163
52	167
52	178
53	34
53	52
53	71
53	127
53	152
53	160
53	163
53	172
53	175
54	29
54	48
54	79
54	93
54	96
54	100
54	111
54	149
54	151
55	38
55	67
55	78
55	90
55	109
55	114
55	124
55	141
55	145
56	77
56	78
56	95
56	109
56	119
56	145
56	149
56	154
56	174
57	10
57	16
57	61
57	110
57	132
57	159
57	164
57	176
57	177
58	17
58	20
58	33
58	49
58	63
58	80
58	94
58	101
58	102
59	15
59	76
59	89
59	91
59	102
59	110
59	164
59	171
59	179
60	5
60	24
60	28
60	50
60	64
60	81
60	115
60	122
60	158
61	7
61	42
61	49
61	57
61	101
61	107
61	115
61	116
61	140
62	8
62	10
62	12
62	22
62	39
62	47
62	106
62	164
62	166
63	58
63	80
63	91
63	94
63	107
63	108
63	117
63	140
63	176
64	5
64	24
64	40
64	50
64	60
64	81
64	115
64	122
64	158
65	29
65	93
65	110
65	132
65	136
65	159
65	162
65	164
65	176
66	1
66	38
66	127
66	129
66	135
66	163
66	167
66	177
66	178
67	30
67	55
67	90
67	104
67	109
67	118
67	119
67	131
67	162
68	14
68	44
68	69
68	86
68	87
68	99
68	112
68	113
68	156
69	68
69	75
69	86
69	88
69	98
69	108
69	113
69	171
69	173
70	4
70	18
70	30
70	73
70	105
70	120
70	128
70	133
70	161
71	9
71	25
71	53
71	77
71	85
71	131
71	143
71	155
71	172
72	39
72	40
72	46
72	47
72	50
72	87
72	154
72	156
72	170
73	29
73	33
73	37
73	51
73	70
73	96
73	112
73	144
73	167
74	11
74	12
74	114
74	130
74	138
74	144
74	165
74	166
74	179
75	3
75	29
75	45
75	69
75	92
75	100
75	111
75	149
75	171
76	21
76	49
76	59
76	88
76	89
76	98
76	134
76	171
76	173
77	9
77	25
77	35
77	56
77	71
77	131
77	143
77	153
77	155
78	41
78	43
78	55
78	56
78	109
78	119
78	141
78	145
78	174
79	8
79	24
79	54
79	101
79	106
79	139
79	157
79	168
79	169
80	20
80	26
80	58
80	63
80	94
80	101
80	140
80	159
80	176
81	4
81	5
81	24
81	50
81	60
81	64
81	115
81	122
81	158
82	13
82	52
82	135
82	152
82	160
82	161
82	163
82	167
82	177
82	178
83	19
83	35
83	84
83	89
83	108
83	114
83	146
83	165
83	173
83	179
84	35
84	83
84	121
84	123
84	130
84	138
84	144
84	146
84	165
84	179
85	25
85	42
85	71
85	120
85	128
85	131
85	153
85	162
85	174
85	175
86	14
86	44
86	68
86	69
86	87
86	99
86	112
86	113
86	156
86	171
87	14
87	19
87	44
87	68
87	72
87	86
87	99
87	113
87	156
87	157
88	15
88	49
88	69
88	76
88	95
88	98
88	108
88	119
88	171
88	173
89	59
89	76
89	83
89	91
89	95
89	108
89	134
89	165
89	171
89	173
90	38
90	55
90	67
90	104
90	114
90	124
90	141
90	145
90	154
90	178
91	15
91	23
91	59
91	63
91	89
91	98
91	108
91	117
91	171
91	173
92	21
92	34
92	45
92	48
92	75
92	100
92	111
92	142
92	149
92	172
93	54
93	65
93	97
93	123
93	137
93	139
93	148
93	157
93	166
93	168
94	26
94	58
94	63
94	80
94	107
94	116
94	117
94	140
94	159
94	176
95	3
95	15
95	56
95	88
95	89
95	119
95	143
95	155
95	171
95	174
96	18
96	21
96	29
96	32
96	48
96	54
96	73
96	100
96	142
96	149
97	31
97	93
97	123
97	134
97	137
97	139
97	145
97	157
97	168
97	169
98	1
98	49
98	69
98	76
98	88
98	91
98	100
98	108
98	171
98	173
99	14
99	19
99	44
99	68
99	86
99	87
99	113
99	156
99	157
99	168
100	45
100	54
100	75
100	92
100	96
100	98
100	111
100	129
100	149
100	160
101	20
101	21
101	23
101	49
101	58
101	61
101	79
101	80
101	111
101	140
102	1
102	17
102	58
102	59
102	150
102	154
102	156
102	158
102	163
102	170
103	13
103	30
103	32
103	36
103	105
103	122
103	133
103	135
103	136
103	161
104	7
104	38
104	41
104	67
104	90
104	118
104	124
104	141
104	145
104	178
105	4
105	13
105	30
105	36
105	70
105	103
105	122
105	128
105	133
105	161
106	8
106	12
106	22
106	62
106	79
106	130
106	165
106	166
106	169
106	179
107	7
107	17
107	23
107	27
107	46
107	61
107	63
107	94
107	115
107	116
107	117
108	23
108	63
108	69
108	83
108	88
108	89
108	91
108	98
108	117
108	171
108	173
109	55
109	56
109	67
109	78
109	118
109	119
109	124
109	131
109	141
109	162
109	174
110	16
110	57
110	59
110	65
110	132
110	136
110	159
110	162
110	164
110	176
110	177
111	21
111	36
111	45
111	54
111	75
111	92
111	100
111	101
111	129
111	135
111	149
112	14
112	37
112	68
112	73
112	86
112	113
112	126
112	147
112	148
112	151
112	167
113	14
113	19
113	44
113	68
113	69
113	86
113	87
113	99
113	112
113	157
113	168
114	11
114	55
114	74
114	83
114	90
114	124
114	130
114	138
114	141
114	146
114	179
115	24
115	27
115	40
115	50
115	60
115	61
115	64
115	81
115	107
115	116
115	122
116	7
116	27
116	41
116	49
116	61
116	94
116	107
116	115
116	117
116	140
116	176
117	7
117	20
117	23
117	63
117	91
117	94
117	107
117	108
117	116
117	171
117	173
118	25
118	41
118	67
118	104
118	109
118	119
118	124
118	131
118	141
118	162
118	174
119	56
119	67
119	78
119	88
119	95
119	109
119	118
119	146
119	162
119	174
119	175
120	8
120	31
120	42
120	70
120	85
120	121
120	128
120	134
120	153
120	166
120	175
121	84
121	120
121	128
121	134
121	138
121	153
121	160
121	165
121	172
121	175
121	179
122	4
122	24
122	40
122	50
122	51
122	60
122	64
122	81
122	103
122	105
122	115
123	35
123	84
123	93
123	97
123	137
123	139
123	146
123	157
123	165
123	168
123	169
124	7
124	38
124	41
124	55
124	90
124	104
124	109
124	114
124	118
124	141
124	145
125	2
125	43
125	51
125	126
125	138
125	144
125	147
125	148
125	150
125	151
125	170
126	6
126	43
126	112
126	125
126	137
126	139
126	147
126	148
126	151
126	167
126	169
127	52
127	53
127	66
127	129
127	142
127	152
127	160
127	163
127	167
127	172
127	177
127	178
128	9
128	70
128	85
128	105
128	120
128	121
128	133
128	134
128	153
128	160
128	161
128	175
129	31
129	45
129	66
129	100
129	111
129	127
129	132
129	135
129	149
129	163
129	177
129	178
130	11
130	12
130	74
130	84
130	106
130	114
130	138
130	146
130	165
130	166
130	173
130	179
131	25
131	67
131	71
131	77
131	85
131	109
131	118
131	143
131	153
131	155
131	162
131	174
132	31
132	57
132	65
132	110
132	129
132	133
132	136
132	159
132	162
132	164
132	176
132	177
133	18
133	30
133	32
133	36
133	70
133	103
133	105
133	128
133	132
133	136
133	161
133	164
134	9
134	20
134	76
134	89
134	97
134	120
134	121
134	128
134	142
134	153
134	172
134	175
135	13
135	36
135	52
135	66
135	82
135	103
135	111
135	129
135	152
135	161
135	177
135	178
136	26
136	27
136	30
136	65
136	103
136	110
136	132
136	133
136	140
136	159
136	164
136	176
137	6
137	10
137	93
137	97
137	123
137	126
137	139
137	147
137	148
137	157
137	168
137	169
138	10
138	11
138	74
138	84
138	114
138	121
138	125
138	130
138	146
138	151
138	165
138	179
139	37
139	79
139	93
139	97
139	123
139	126
139	137
139	147
139	148
139	157
139	168
139	169
140	16
140	26
140	49
140	61
140	63
140	80
140	94
140	101
140	116
140	136
140	159
140	176
141	38
141	41
141	55
141	78
141	90
141	104
141	109
141	114
141	118
141	124
141	145
141	178
142	21
142	34
142	42
142	48
142	92
142	96
142	127
142	134
142	153
142	160
142	172
142	175
143	2
143	3
143	9
143	25
143	71
143	77
143	95
143	131
143	153
143	155
143	172
143	174
144	11
144	33
144	43
144	51
144	73
144	74
144	84
144	125
144	151
144	158
144	167
144	170
145	38
145	41
145	55
145	56
145	78
145	90
145	97
145	104
145	124
145	141
145	154
145	178
146	15
146	35
146	83
146	84
146	114
146	119
146	123
146	130
146	138
146	165
146	173
146	179
147	6
147	37
147	112
147	125
147	126
147	137
147	139
147	148
147	151
147	152
147	166
147	167
147	169
148	6
148	37
148	93
148	112
148	125
148	126
148	137
148	139
148	147
148	151
148	167
148	169
148	170
149	3
149	21
149	45
149	48
149	54
149	56
149	75
149	92
149	96
149	100
149	111
149	129
149	174
150	1
150	5
150	28
150	34
150	42
150	102
150	125
150	154
150	156
150	158
150	163
150	170
150	175
151	11
151	33
151	54
151	112
151	125
151	126
151	138
151	144
151	147
151	148
151	167
151	169
151	170
152	31
152	33
152	52
152	53
152	82
152	127
152	135
152	147
152	163
152	167
152	172
152	177
152	178
153	9
153	77
153	85
153	120
153	121
153	128
153	131
153	134
153	142
153	143
153	160
153	172
153	174
154	1
154	5
154	28
154	37
154	56
154	72
154	90
154	102
154	145
154	150
154	156
154	158
154	170
155	2
155	3
155	9
155	16
155	25
155	71
155	77
155	95
155	131
155	143
155	162
155	168
155	174
156	5
156	28
156	44
156	47
156	68
156	72
156	86
156	87
156	99
156	102
156	150
156	154
156	158
156	170
157	19
157	44
157	79
157	87
157	93
157	97
157	99
157	113
157	123
157	137
157	139
157	166
157	168
157	169
158	1
158	5
158	17
158	28
158	46
158	60
158	64
158	81
158	102
158	144
158	150
158	154
158	156
158	170
159	16
159	26
159	45
159	57
159	65
159	80
159	94
159	110
159	132
159	136
159	140
159	164
159	176
159	177
160	34
160	42
160	52
160	53
160	82
160	100
160	121
160	127
160	128
160	142
160	153
160	161
160	172
160	175
161	4
161	13
161	18
161	30
161	32
161	36
161	70
161	82
161	103
161	105
161	128
161	133
161	135
161	160
162	2
162	25
162	65
162	67
162	85
162	109
162	110
162	118
162	119
162	131
162	132
162	155
162	164
162	174
163	1
163	31
163	52
163	53
163	66
163	82
163	102
163	127
163	129
163	150
163	152
163	172
163	177
163	178
164	22
164	27
164	57
164	59
164	62
164	65
164	110
164	132
164	133
164	136
164	159
164	162
164	176
164	177
165	11
165	35
165	74
165	83
165	84
165	89
165	106
165	121
165	123
165	130
165	138
165	146
165	173
165	179
166	8
166	10
166	12
166	22
166	62
166	74
166	93
166	106
166	120
166	130
166	147
166	157
166	169
166	175
166	179
167	6
167	33
167	37
167	52
167	66
167	73
167	82
167	112
167	126
167	127
167	144
167	147
167	148
167	151
167	152
168	10
168	14
168	19
168	22
168	79
168	93
168	97
168	99
168	113
168	123
168	137
168	139
168	155
168	157
168	169
169	6
169	8
169	79
169	97
169	106
169	123
169	126
169	137
169	139
169	147
169	148
169	151
169	157
169	166
169	168
170	33
170	39
170	43
170	46
170	47
170	72
170	102
170	125
170	144
170	148
170	150
170	151
170	154
170	156
170	158
171	15
171	59
171	69
171	75
171	76
171	86
171	88
171	89
171	91
171	95
171	98
171	108
171	117
171	173
171	174
172	9
172	34
172	53
172	71
172	92
172	121
172	127
172	134
172	142
172	143
172	152
172	153
172	160
172	163
172	175
173	11
173	15
173	69
173	76
173	83
173	88
173	89
173	91
173	98
173	108
173	117
173	130
173	146
173	165
173	171
174	2
174	3
174	56
174	78
174	85
174	95
174	109
174	118
174	119
174	131
174	143
174	149
174	153
174	155
174	162
174	171
175	8
175	28
175	34
175	42
175	53
175	85
175	119
175	120
175	121
175	128
175	134
175	142
175	150
175	160
175	166
175	172
176	16
176	26
176	27
176	57
176	63
176	65
176	80
176	94
176	110
176	116
176	132
176	136
176	140
176	159
176	164
176	177
177	13
177	31
177	57
177	66
177	82
177	110
177	127
177	129
177	132
177	135
177	152
177	159
177	163
177	164
177	176
177	178
178	13
178	31
178	38
178	52
178	66
178	82
178	90
178	104
178	127
178	129
178	135
178	141
178	145
178	152
178	163
178	177
179	10
179	12
179	15
179	35
179	59
179	74
179	83
179	84
179	106
179	114
179	121
179	130
179	138
179	146
179	165
179	166
