1	5 
2	10 
3	14 
4	6 
5	2 
6	3 
7	6 
8	11 
9	11 
10	7 
11	3 
12	7 
13	7 
14	11 
15	10 
16	6 
17	11 
18	2 
19	9 
20	4 
21	1 
22	13 
23	10 
24	14 
25	13 
26	6 
27	14 
28	3 
29	10 
30	7 
31	12 
32	5 
33	10 
34	13 
35	4 
36	12 
37	2 
38	1 
39	9 
40	4 
41	4 
42	11 
43	9 
44	2 
45	4 
46	3 
47	3 
48	6 
49	6 
50	8 
51	4 
52	1 
53	2 
54	10 
55	9 
56	9 
57	6 
58	5 
59	9 
60	9 
61	13 
62	8 
63	7 
64	4 
65	3 
66	12 
67	5 
68	7 
69	4 
70	14 
71	2 
72	2 
73	14 
74	2 
75	12 
76	12 
77	3 
78	1 
79	12 
80	13 
81	1 
82	14 
83	1 
84	11 
85	9 
86	9 
87	8 
88	12 
89	4 
90	10 
91	14 
92	14 
93	13 
94	1 
95	7 
96	8 
97	6 
98	13 
99	5 
100	10 
101	14 
102	5 
103	8 
104	4 
105	12 
106	8 
107	10 
108	10 
109	1 
110	6 
111	12 
112	13 
113	7 
114	1 
115	7 
116	7 
117	11 
118	10 
119	6 
120	13 
121	12 
122	6 
123	8 
124	11 
125	14 
126	2 
127	5 
128	7 
129	4 
130	3 
131	6 
132	11 
133	7 
134	7 
135	4 
136	13 
137	12 
138	3 
139	8 
140	12 
141	8 
142	1 
143	9 
144	12 
145	9 
146	14 
147	1 
148	5 
149	13 
150	3 
151	6 
152	13 
153	9 
154	2 
155	7 
156	14 
157	2 
158	9 
159	8 
160	10 
161	1 
162	10 
163	1 
164	12 
165	5 
166	5 
167	14 
168	3 
169	4 
170	13 
171	7 
172	5 
173	7 
174	8 
175	11 
176	10 
177	5 
178	3 
179	10 
