degree distribution (probability density function of the degree in logarithmic bins) 
4	2.72849
5	0.282922
6	0.205248
8	0.058053

degree distribution (degree-occurrences) 
4	0.783333
5	0.1
6	0.0833333
8	0.0333333


--------------------------------------
community distribution (size-occurrences)
6	0.125
7	0.5
8	0.125
9	0.25


--------------------------------------
mixing parameter
0.25	0.0166667
0.375	0.0166667
0.4	0.0833333
0.5	0.866667
0.6	0.0166667

--------------------------------------
