1	2
1	22
1	32
1	63
1	87
1	92
1	112
1	113
1	136
1	146
2	1
2	5
2	22
2	45
2	70
2	97
2	136
2	141
2	142
2	166
3	8
3	31
3	59
3	86
3	136
3	142
3	156
3	162
3	164
3	175
4	24
4	59
4	62
4	72
4	78
4	93
4	95
4	103
4	122
4	128
5	2
5	35
5	40
5	67
5	69
5	114
5	140
5	147
5	163
5	175
6	11
6	15
6	35
6	53
6	73
6	75
6	118
6	143
6	157
6	169
7	11
7	23
7	24
7	26
7	32
7	38
7	64
7	76
7	99
7	126
8	3
8	13
8	25
8	59
8	67
8	80
8	113
8	169
8	175
8	177
9	53
9	56
9	84
9	90
9	105
9	134
9	152
9	155
9	173
9	179
10	12
10	17
10	52
10	59
10	72
10	105
10	149
10	159
10	160
10	171
11	6
11	7
11	14
11	41
11	53
11	68
11	71
11	162
11	165
11	177
12	10
12	35
12	57
12	60
12	89
12	142
12	163
12	172
12	174
12	177
13	8
13	21
13	22
13	45
13	55
13	87
13	96
13	106
13	129
13	138
14	11
14	33
14	42
14	70
14	104
14	108
14	127
14	140
14	161
14	167
15	6
15	33
15	35
15	36
15	43
15	47
15	50
15	75
15	154
15	157
16	20
16	41
16	59
16	90
16	109
16	140
16	157
16	165
16	166
16	167
17	10
17	43
17	47
17	73
17	102
17	122
17	133
17	138
17	171
17	175
18	24
18	40
18	45
18	75
18	88
18	90
18	98
18	115
18	131
18	144
19	30
19	40
19	57
19	69
19	70
19	73
19	96
19	101
19	114
19	120
20	16
20	45
20	48
20	98
20	99
20	107
20	110
20	128
20	166
20	178
21	13
21	28
21	54
21	92
21	104
21	132
21	141
21	144
21	172
21	177
22	1
22	2
22	13
22	30
22	43
22	76
22	94
22	110
22	136
22	141
23	7
23	24
23	63
23	75
23	78
23	100
23	115
23	120
23	144
23	163
24	4
24	7
24	18
24	23
24	47
24	56
24	87
24	124
24	150
24	153
25	8
25	36
25	52
25	84
25	91
25	113
25	125
25	149
25	162
25	174
26	7
26	68
26	79
26	95
26	120
26	129
26	133
26	136
26	167
26	170
27	47
27	52
27	60
27	61
27	66
27	109
27	115
27	127
27	161
27	178
28	21
28	50
28	54
28	83
28	90
28	117
28	118
28	152
28	162
28	175
29	40
29	78
29	84
29	89
29	122
29	133
29	143
29	172
29	173
29	179
30	19
30	22
30	31
30	44
30	48
30	61
30	66
30	115
30	137
30	166
31	3
31	30
31	39
31	46
31	50
31	108
31	109
31	118
31	119
31	169
32	1
32	7
32	42
32	44
32	50
32	64
32	68
32	127
32	147
32	170
33	14
33	15
33	36
33	40
33	48
33	53
33	66
33	119
33	157
33	160
34	38
34	57
34	58
34	98
34	113
34	125
34	143
34	151
34	152
34	168
35	5
35	6
35	12
35	15
35	49
35	96
35	126
35	159
35	162
35	171
36	15
36	25
36	33
36	37
36	53
36	90
36	106
36	114
36	154
36	171
37	36
37	74
37	111
37	120
37	129
37	152
37	154
37	157
37	160
37	171
38	7
38	34
38	39
38	50
38	63
38	76
38	81
38	169
38	172
38	173
39	31
39	38
39	44
39	45
39	64
39	83
39	84
39	123
39	148
39	151
40	5
40	18
40	19
40	29
40	33
40	86
40	111
40	154
40	177
40	179
41	11
41	16
41	44
41	56
41	74
41	106
41	121
41	132
41	142
41	173
42	14
42	32
42	65
42	66
42	69
42	82
42	132
42	145
42	153
42	165
43	15
43	17
43	22
43	61
43	86
43	96
43	97
43	124
43	133
43	161
44	30
44	32
44	39
44	41
44	63
44	84
44	92
44	118
44	155
44	169
45	2
45	13
45	18
45	20
45	39
45	90
45	108
45	127
45	135
45	145
46	31
46	57
46	70
46	87
46	89
46	96
46	107
46	138
46	143
46	176
47	15
47	17
47	24
47	27
47	82
47	93
47	106
47	134
47	153
47	170
48	20
48	30
48	33
48	116
48	121
48	132
48	137
48	144
48	161
48	163
49	35
49	73
49	77
49	81
49	87
49	105
49	133
49	141
49	150
49	159
50	15
50	28
50	31
50	32
50	38
50	83
50	98
50	105
50	117
50	169
51	56
51	63
51	65
51	77
51	79
51	84
51	87
51	111
51	156
51	179
52	10
52	25
52	27
52	58
52	60
52	124
52	130
52	143
52	174
52	177
53	6
53	9
53	11
53	33
53	36
53	86
53	139
53	154
53	160
53	176
54	21
54	28
54	57
54	63
54	89
54	108
54	114
54	150
54	153
54	172
55	13
55	71
55	96
55	102
55	103
55	126
55	134
55	160
55	168
55	169
56	9
56	24
56	41
56	51
56	79
56	88
56	104
56	152
56	154
56	161
57	12
57	19
57	34
57	46
57	54
57	62
57	105
57	139
57	140
57	171
58	34
58	52
58	79
58	113
58	121
58	149
58	167
58	174
58	176
58	179
59	3
59	4
59	8
59	10
59	16
59	94
59	139
59	164
59	166
59	175
60	12
60	27
60	52
60	65
60	83
60	95
60	134
60	139
60	148
60	159
61	27
61	30
61	43
61	72
61	91
61	94
61	110
61	144
61	147
61	178
62	4
62	57
62	69
62	79
62	107
62	125
62	147
62	152
62	158
62	164
63	1
63	23
63	38
63	44
63	51
63	54
63	100
63	105
63	154
63	169
64	7
64	32
64	39
64	77
64	99
64	129
64	148
64	149
64	166
64	167
65	42
65	51
65	60
65	76
65	81
65	86
65	132
65	141
65	146
65	168
66	27
66	30
66	33
66	42
66	83
66	98
66	107
66	126
66	127
66	179
67	5
67	8
67	85
67	92
67	101
67	117
67	119
67	131
67	151
67	155
68	11
68	26
68	32
68	81
68	83
68	99
68	111
68	151
68	165
68	174
69	5
69	19
69	42
69	62
69	78
69	96
69	111
69	158
69	169
69	177
70	2
70	14
70	19
70	46
70	91
70	97
70	107
70	124
70	150
70	165
71	11
71	55
71	112
71	114
71	117
71	127
71	131
71	138
71	145
71	178
72	4
72	10
72	61
72	75
72	88
72	89
72	141
72	145
72	148
72	166
73	6
73	17
73	19
73	49
73	102
73	110
73	123
73	126
73	129
73	137
74	37
74	41
74	79
74	82
74	101
74	106
74	132
74	139
74	166
74	172
75	6
75	15
75	18
75	23
75	72
75	93
75	99
75	119
75	175
75	176
76	7
76	22
76	38
76	65
76	93
76	99
76	136
76	141
76	142
76	156
77	49
77	51
77	64
77	87
77	102
77	122
77	133
77	137
77	150
77	156
78	4
78	23
78	29
78	69
78	94
78	103
78	128
78	153
78	159
78	164
79	26
79	51
79	56
79	58
79	62
79	74
79	106
79	116
79	165
79	173
80	8
80	99
80	100
80	139
80	147
80	151
80	152
80	156
80	158
80	167
81	38
81	49
81	65
81	68
81	83
81	85
81	95
81	102
81	110
81	173
82	42
82	47
82	74
82	116
82	127
82	129
82	130
82	142
82	148
82	167
83	28
83	39
83	50
83	60
83	66
83	68
83	81
83	108
83	111
83	178
84	9
84	25
84	29
84	39
84	44
84	51
84	89
84	101
84	118
84	120
85	67
85	81
85	101
85	104
85	117
85	120
85	125
85	128
85	135
85	163
86	3
86	40
86	43
86	53
86	65
86	128
86	136
86	142
86	146
86	161
87	1
87	13
87	24
87	46
87	49
87	51
87	77
87	151
87	168
87	176
88	18
88	56
88	72
88	92
88	107
88	116
88	139
88	140
88	146
88	163
89	12
89	29
89	46
89	54
89	72
89	84
89	104
89	160
89	173
89	179
90	9
90	16
90	18
90	28
90	36
90	45
90	122
90	140
90	168
90	175
91	25
91	61
91	70
91	98
91	104
91	107
91	121
91	160
91	163
91	171
92	1
92	21
92	44
92	67
92	88
92	108
92	114
92	125
92	129
92	172
93	4
93	47
93	75
93	76
93	94
93	120
93	124
93	128
93	138
93	178
94	22
94	59
94	61
94	78
94	93
94	121
94	140
94	147
94	156
94	164
95	4
95	26
95	60
95	81
95	110
95	112
95	122
95	133
95	136
95	160
96	13
96	19
96	35
96	43
96	46
96	55
96	69
96	112
96	152
96	164
97	2
97	43
97	70
97	98
97	102
97	109
97	117
97	121
97	159
97	174
98	18
98	20
98	34
98	50
98	66
98	91
98	97
98	124
98	149
98	154
99	7
99	20
99	64
99	68
99	75
99	76
99	80
99	145
99	148
99	161
100	23
100	63
100	80
100	103
100	115
100	120
100	125
100	153
100	170
100	177
101	19
101	67
101	74
101	84
101	85
101	117
101	128
101	141
101	147
101	153
102	17
102	55
102	73
102	77
102	81
102	97
102	118
102	123
102	155
102	165
103	4
103	55
103	78
103	100
103	109
103	112
103	120
103	133
103	147
103	170
104	14
104	21
104	56
104	85
104	89
104	91
104	123
104	134
104	135
104	162
105	9
105	10
105	49
105	50
105	57
105	63
105	113
105	123
105	139
105	173
106	13
106	36
106	41
106	47
106	74
106	79
106	125
106	132
106	138
106	176
107	20
107	46
107	62
107	66
107	70
107	88
107	91
107	144
107	155
107	167
108	14
108	31
108	45
108	54
108	83
108	92
108	120
108	140
108	155
108	172
109	16
109	27
109	31
109	97
109	103
109	110
109	121
109	144
109	158
109	161
110	20
110	22
110	61
110	73
110	81
110	95
110	109
110	146
110	155
110	177
111	37
111	40
111	51
111	68
111	69
111	83
111	117
111	121
111	163
111	177
112	1
112	71
112	95
112	96
112	103
112	116
112	145
112	151
112	153
112	168
113	1
113	8
113	25
113	34
113	58
113	105
113	127
113	130
113	147
113	149
114	5
114	19
114	36
114	54
114	71
114	92
114	127
114	163
114	173
114	177
115	18
115	23
115	27
115	30
115	100
115	124
115	137
115	144
115	153
115	172
116	48
116	79
116	82
116	88
116	112
116	119
116	132
116	166
116	170
116	178
117	28
117	50
117	67
117	71
117	85
117	97
117	101
117	111
117	148
117	175
118	6
118	28
118	31
118	44
118	84
118	102
118	138
118	154
118	157
118	160
119	31
119	33
119	67
119	75
119	116
119	139
119	148
119	162
119	169
119	178
120	19
120	23
120	26
120	37
120	84
120	85
120	93
120	100
120	103
120	108
121	41
121	48
121	58
121	91
121	94
121	97
121	109
121	111
121	124
121	135
122	4
122	17
122	29
122	77
122	90
122	95
122	126
122	150
122	158
122	176
123	39
123	73
123	102
123	104
123	105
123	134
123	135
123	162
123	165
123	175
124	24
124	43
124	52
124	70
124	93
124	98
124	115
124	121
124	150
124	156
125	25
125	34
125	62
125	85
125	92
125	100
125	106
125	140
125	143
125	149
126	7
126	35
126	55
126	66
126	73
126	122
126	150
126	155
126	156
126	159
127	14
127	27
127	32
127	45
127	66
127	71
127	82
127	113
127	114
127	165
128	4
128	20
128	78
128	85
128	86
128	93
128	101
128	131
128	170
128	174
129	13
129	26
129	37
129	64
129	73
129	82
129	92
129	144
129	164
129	167
130	52
130	82
130	113
130	135
130	142
130	143
130	168
130	174
130	176
130	179
131	18
131	67
131	71
131	128
131	138
131	151
131	158
131	164
131	166
131	176
132	21
132	41
132	42
132	48
132	65
132	74
132	106
132	116
132	173
132	179
133	17
133	26
133	29
133	43
133	49
133	77
133	95
133	103
133	141
133	144
134	9
134	47
134	55
134	60
134	104
134	123
134	138
134	139
134	156
134	172
135	45
135	85
135	104
135	121
135	123
135	130
135	141
135	157
135	159
135	162
136	1
136	2
136	3
136	22
136	26
136	76
136	86
136	95
136	142
136	166
137	30
137	48
137	73
137	77
137	115
137	149
137	151
137	161
137	170
137	172
138	13
138	17
138	46
138	71
138	93
138	106
138	118
138	131
138	134
138	169
139	53
139	57
139	59
139	60
139	74
139	80
139	88
139	105
139	119
139	134
140	5
140	14
140	16
140	57
140	88
140	90
140	94
140	108
140	125
140	145
140	178
141	2
141	21
141	22
141	49
141	65
141	72
141	76
141	101
141	133
141	135
141	146
142	2
142	3
142	12
142	41
142	76
142	82
142	86
142	130
142	136
142	146
142	170
143	6
143	29
143	34
143	46
143	52
143	125
143	130
143	150
143	154
143	155
143	174
144	18
144	21
144	23
144	48
144	61
144	107
144	109
144	115
144	129
144	133
144	146
145	42
145	45
145	71
145	72
145	99
145	112
145	140
145	148
145	163
145	169
145	179
146	1
146	65
146	86
146	88
146	110
146	141
146	142
146	144
146	158
146	170
146	178
147	5
147	32
147	61
147	62
147	80
147	94
147	101
147	103
147	113
147	156
147	158
148	39
148	60
148	64
148	72
148	82
148	99
148	117
148	119
148	145
148	171
148	178
149	10
149	25
149	58
149	64
149	98
149	113
149	125
149	137
149	150
149	167
149	174
150	24
150	49
150	54
150	70
150	77
150	122
150	124
150	126
150	143
150	149
150	155
151	34
151	39
151	67
151	68
151	80
151	87
151	112
151	131
151	137
151	168
151	176
152	9
152	28
152	34
152	37
152	56
152	62
152	80
152	96
152	156
152	158
152	170
153	24
153	42
153	47
153	54
153	78
153	100
153	101
153	112
153	115
153	170
153	176
154	15
154	36
154	37
154	40
154	53
154	56
154	63
154	98
154	118
154	143
154	173
155	9
155	44
155	67
155	102
155	107
155	108
155	110
155	126
155	143
155	150
155	167
156	3
156	51
156	76
156	77
156	80
156	94
156	124
156	126
156	134
156	147
156	152
157	6
157	15
157	16
157	33
157	37
157	118
157	135
157	160
157	162
157	164
157	165
158	62
158	69
158	80
158	109
158	122
158	131
158	146
158	147
158	152
158	175
158	178
159	10
159	35
159	49
159	60
159	78
159	97
159	126
159	135
159	160
159	168
159	171
160	10
160	33
160	37
160	53
160	55
160	89
160	91
160	95
160	118
160	157
160	159
161	14
161	27
161	43
161	48
161	56
161	86
161	99
161	109
161	137
161	171
161	174
162	3
162	11
162	25
162	28
162	35
162	104
162	119
162	123
162	135
162	157
162	171
163	5
163	12
163	23
163	48
163	85
163	88
163	91
163	111
163	114
163	145
163	177
164	3
164	59
164	62
164	78
164	94
164	96
164	129
164	131
164	157
164	168
164	175
165	11
165	16
165	42
165	68
165	70
165	79
165	102
165	123
165	127
165	157
165	168
166	2
166	16
166	20
166	30
166	59
166	64
166	72
166	74
166	116
166	131
166	136
167	14
167	16
167	26
167	58
167	64
167	80
167	82
167	107
167	129
167	149
167	155
168	34
168	55
168	65
168	87
168	90
168	112
168	130
168	151
168	159
168	164
168	165
168	176
169	6
169	8
169	31
169	38
169	44
169	50
169	55
169	63
169	69
169	119
169	138
169	145
170	26
170	32
170	47
170	100
170	103
170	116
170	128
170	137
170	142
170	146
170	152
170	153
171	10
171	17
171	35
171	36
171	37
171	57
171	91
171	148
171	159
171	161
171	162
171	174
172	12
172	21
172	29
172	38
172	54
172	74
172	92
172	108
172	115
172	134
172	137
172	179
173	9
173	29
173	38
173	41
173	79
173	81
173	89
173	105
173	114
173	132
173	154
173	179
174	12
174	25
174	52
174	58
174	68
174	97
174	128
174	130
174	143
174	149
174	161
174	171
175	3
175	5
175	8
175	17
175	28
175	59
175	75
175	90
175	117
175	123
175	158
175	164
176	46
176	53
176	58
176	75
176	87
176	106
176	122
176	130
176	131
176	151
176	153
176	168
177	8
177	11
177	12
177	21
177	40
177	52
177	69
177	100
177	110
177	111
177	114
177	163
178	20
178	27
178	61
178	71
178	83
178	93
178	116
178	119
178	140
178	146
178	148
178	158
179	9
179	29
179	40
179	51
179	58
179	66
179	89
179	130
179	132
179	145
179	172
179	173
