1	27
1	34
2	30
2	33
3	20
3	34
4	21
4	32
5	31
5	34
6	26
6	33
7	19
7	32
8	22
8	30
9	18
9	34
10	25
10	32
11	29
11	34
12	30
12	33
13	24
13	34
14	25
14	32
15	23
15	24
16	28
16	34
17	26
17	30
17	33
18	9
18	31
18	34
19	7
19	25
19	32
20	3
20	29
20	34
21	4
21	25
21	32
22	8
22	26
22	30
22	33
23	15
23	28
23	31
23	34
24	13
24	15
24	27
24	31
24	34
25	10
25	14
25	19
25	21
25	32
26	6
26	17
26	22
26	30
26	33
27	1
27	24
27	28
27	29
27	34
28	16
28	23
28	27
28	29
28	31
28	34
29	11
29	20
29	27
29	28
29	31
29	34
30	2
30	8
30	12
30	17
30	22
30	26
30	33
31	5
31	18
31	23
31	24
31	28
31	29
31	34
32	4
32	7
32	10
32	14
32	19
32	21
32	25
33	2
33	6
33	12
33	17
33	22
33	26
33	30
33	34
34	1
34	3
34	5
34	9
34	11
34	13
34	16
34	18
34	20
34	23
34	24
34	27
34	28
34	29
34	31
34	33
