1	9 
2	3 
3	5 
4	2 
5	6 
6	6 
7	10 
8	7 
9	6 
10	3 
11	4 
12	1 
13	7 
14	3 
15	2 
16	8 
17	8 
18	10 
19	7 
20	9 
21	4 
22	5 
23	8 
24	5 
25	6 
26	5 
27	9 
28	1 
29	10 
30	1 
31	3 
32	2 
33	1 
34	3 
35	2 
36	4 
37	10 
38	9 
39	8 
40	3 
41	4 
42	2 
43	9 
44	8 
45	6 
46	4 
47	7 
48	7 
49	1 
50	3 
51	9 
52	1 
53	3 
54	5 
55	10 
56	4 
57	4 
58	4 
59	1 
60	3 
