1	20
1	27
1	38
1	43
2	10
2	34
2	50
2	60
3	22
3	24
3	54
3	60
4	15
4	32
4	35
4	42
5	6
5	25
5	45
5	48
6	5
6	9
6	25
6	45
7	18
7	29
7	37
7	55
8	13
8	19
8	47
8	48
9	6
9	25
9	45
9	59
10	2
10	31
10	53
10	60
11	21
11	36
11	41
11	56
12	49
12	52
12	55
12	59
13	8
13	19
13	47
13	48
14	31
14	34
14	40
14	50
15	4
15	32
15	35
15	42
16	17
16	23
16	39
16	44
17	16
17	39
17	44
17	57
18	7
18	29
18	37
18	55
19	8
19	13
19	47
19	48
20	1
20	27
20	43
20	51
21	11
21	36
21	56
21	58
22	3
22	24
22	33
22	54
23	16
23	33
23	39
23	44
24	3
24	22
24	26
24	54
25	5
25	6
25	9
25	45
26	24
26	40
26	53
26	54
27	1
27	20
27	38
27	51
28	30
28	49
28	52
28	59
29	7
29	18
29	37
29	55
30	28
30	46
30	52
30	59
31	10
31	14
31	50
31	60
32	4
32	15
32	35
32	42
33	22
33	23
33	49
33	59
34	2
34	14
34	53
34	60
35	4
35	15
35	32
35	42
36	11
36	21
36	56
36	57
37	7
37	18
37	29
37	55
38	1
38	27
38	43
38	51
39	16
39	17
39	23
39	44
40	14
40	26
40	53
40	60
41	11
41	51
41	57
41	58
42	4
42	15
42	32
42	35
43	1
43	20
43	38
43	51
44	16
44	17
44	23
44	39
45	5
45	6
45	9
45	25
46	30
46	56
46	57
46	58
47	8
47	13
47	19
47	48
48	5
48	8
48	13
48	19
48	47
49	12
49	28
49	33
49	52
49	59
50	2
50	14
50	31
50	53
50	60
51	20
51	27
51	38
51	41
51	43
52	12
52	28
52	30
52	49
52	59
53	10
53	26
53	34
53	40
53	50
54	3
54	22
54	24
54	26
54	58
55	7
55	12
55	18
55	29
55	37
56	11
56	21
56	36
56	46
56	58
57	17
57	36
57	41
57	46
57	58
58	21
58	41
58	46
58	54
58	56
58	57
59	9
59	12
59	28
59	30
59	33
59	49
59	52
60	2
60	3
60	10
60	31
60	34
60	40
60	50
