1	3 
2	13 
3	7 
4	1 
5	2 
6	3 
7	1 
8	9 
9	3 
10	12 
11	5 
12	3 
13	5 
14	9 
15	8 
16	1 
17	6 
18	1 
19	8 
20	12 
21	2 
22	2 
23	10 
24	4 
25	4 
26	10 
27	13 
28	12 
29	10 
30	11 
31	4 
32	9 
33	13 
34	7 
35	10 
36	8 
37	5 
38	1 
39	8 
40	5 
41	3 
42	6 
43	11 
44	10 
45	3 
46	2 
47	8 
48	11 
49	7 
50	6 
51	3 
52	13 
53	3 
54	8 
55	5 
56	11 
57	11 
58	12 
59	8 
60	6 
61	5 
62	1 
63	8 
64	11 
65	11 
66	2 
67	4 
68	3 
69	7 
70	2 
71	13 
72	6 
73	13 
74	8 
75	13 
76	4 
77	4 
78	3 
79	12 
80	9 
81	7 
82	5 
83	13 
84	10 
85	6 
86	6 
87	11 
88	11 
89	4 
90	1 
91	13 
92	5 
93	6 
94	12 
95	9 
96	5 
97	1 
98	6 
99	8 
100	9 
101	6 
102	1 
103	4 
104	2 
105	12 
106	12 
107	11 
108	9 
109	1 
110	5 
111	7 
112	7 
113	12 
114	3 
115	4 
116	12 
117	6 
118	12 
119	1 
120	9 
121	13 
122	8 
123	2 
124	10 
125	13 
126	6 
127	4 
128	1 
129	8 
130	13 
131	2 
132	8 
133	12 
134	7 
135	11 
136	5 
137	10 
138	9 
139	12 
140	13 
141	2 
142	8 
143	11 
144	10 
145	11 
146	5 
147	3 
148	6 
149	7 
150	2 
151	2 
152	7 
153	13 
154	10 
155	11 
156	7 
157	4 
158	4 
159	13 
160	6 
161	12 
162	3 
163	9 
164	4 
165	1 
166	11 
167	1 
168	13 
169	7 
170	5 
171	1 
172	8 
173	2 
174	6 
175	9 
176	11 
177	3 
178	3 
179	12 
