degree distribution (probability density function of the degree in logarithmic bins) 
10	1.79561
11	0.348577
12	0.160713
13	0.031756
15	0.00900053

degree distribution (degree-occurrences) 
10	0.743017
11	0.156425
12	0.0782123
13	0.0167598
15	0.00558659


--------------------------------------
community distribution (size-occurrences)
11	0.214286
12	0.357143
13	0.214286
14	0.142857
19	0.0714286


--------------------------------------
mixing parameter
0.181818	0.00558659
0.2	0.145251
0.230769	0.00558659
0.25	0.0614525
0.266667	0.00558659
0.272727	0.134078
0.3	0.592179
0.307692	0.0111732
0.333333	0.0167598
0.363636	0.0167598
0.4	0.00558659

--------------------------------------
