1	4 
2	14 
3	10 
4	13 
5	8 
6	5 
7	1 
8	10 
9	2 
10	13 
11	6 
12	4 
13	2 
14	7 
15	9 
16	5 
17	1 
18	6 
19	8 
20	8 
21	9 
22	12 
23	2 
24	6 
25	6 
26	9 
27	1 
28	12 
29	9 
30	9 
31	11 
32	9 
33	1 
34	7 
35	12 
36	8 
37	4 
38	2 
39	11 
40	3 
41	14 
42	2 
43	14 
44	14 
45	4 
46	9 
47	4 
48	14 
49	2 
50	11 
51	11 
52	3 
53	14 
54	7 
55	9 
56	8 
57	7 
58	10 
59	8 
60	1 
61	3 
62	2 
63	14 
64	2 
65	4 
66	12 
67	11 
68	13 
69	12 
70	12 
71	4 
72	1 
73	6 
74	4 
75	13 
76	6 
77	8 
78	12 
79	5 
80	6 
81	9 
82	3 
83	4 
84	6 
85	8 
86	9 
87	13 
88	1 
89	3 
90	10 
91	2 
92	9 
93	10 
94	3 
95	1 
96	5 
97	3 
98	5 
99	9 
100	6 
101	3 
102	10 
103	6 
104	12 
105	13 
106	2 
107	3 
108	3 
109	5 
110	13 
111	6 
112	13 
113	2 
114	11 
115	9 
116	14 
117	14 
118	8 
119	4 
120	6 
121	6 
122	13 
123	2 
124	10 
125	2 
126	11 
127	12 
128	10 
129	10 
130	2 
131	9 
132	10 
133	10 
134	4 
135	11 
136	5 
137	2 
138	5 
139	5 
140	11 
141	3 
142	10 
143	13 
144	10 
145	2 
146	13 
147	14 
148	6 
149	12 
150	12 
151	11 
152	14 
153	13 
154	5 
155	6 
156	1 
157	13 
158	8 
159	7 
160	6 
161	7 
162	3 
163	7 
164	7 
165	8 
166	14 
167	5 
168	8 
169	7 
170	7 
171	1 
172	13 
173	13 
174	5 
175	13 
176	7 
177	4 
178	4 
179	1 
