degree distribution (probability density function of the degree in logarithmic bins) 
2	0.856432
3	0.264173
4	0.0719882
5	0.0882767
6	0.0721672
8	0.0196658
9	0.0160771
12	0.0262864
14.6667	0.0322341

degree distribution (degree-occurrences) 
2	0.382353
3	0.176471
4	0.0588235
5	0.0882353
6	0.0882353
8	0.0294118
9	0.0294118
12	0.0588235
14	0.0294118
15	0.0588235


--------------------------------------
community distribution (size-occurrences)
8	0.333333
10	0.333333
16	0.333333


--------------------------------------
mixing parameter
0.333333	0.0588235
0.4	0.0294118
0.5	0.529412
0.540741	0.0882353
0.577381	0.0588235
0.6	0.0588235
0.666667	0.0882353
0.75	0.0588235
1	0.0294118

--------------------------------------
