1	11 
2	11 
3	6 
4	3 
5	1 
6	8 
7	11 
8	1 
9	10 
10	1 
11	6 
12	12 
13	13 
14	4 
15	11 
16	12 
17	6 
18	8 
19	4 
20	4 
21	5 
22	8 
23	1 
24	3 
25	15 
26	15 
27	9 
28	1 
29	15 
30	9 
31	7 
32	5 
33	3 
34	12 
35	11 
36	6 
37	14 
38	1 
39	2 
40	4 
41	14 
42	9 
43	13 
44	14 
45	13 
46	7 
47	12 
48	11 
49	14 
50	5 
51	4 
52	8 
53	10 
54	4 
55	7 
56	8 
57	4 
58	12 
59	13 
60	9 
61	15 
62	1 
63	5 
64	6 
65	12 
66	15 
67	6 
68	7 
69	5 
70	3 
71	14 
72	9 
73	5 
74	5 
75	8 
76	14 
77	10 
78	11 
79	11 
80	6 
81	14 
82	12 
83	3 
84	15 
85	1 
86	7 
87	2 
88	7 
89	12 
90	1 
91	2 
92	7 
93	11 
94	9 
95	3 
96	5 
97	14 
98	10 
99	14 
100	3 
101	2 
102	11 
103	5 
104	3 
105	15 
106	2 
107	12 
108	2 
109	7 
110	11 
111	11 
112	8 
113	8 
114	1 
115	7 
116	15 
117	8 
118	9 
119	11 
120	12 
121	9 
122	5 
123	13 
124	10 
125	8 
126	10 
127	6 
128	11 
129	1 
130	10 
131	2 
132	6 
133	7 
134	3 
135	4 
136	6 
137	12 
138	3 
139	15 
140	2 
141	13 
142	14 
143	9 
144	13 
145	14 
146	13 
147	6 
148	8 
149	12 
150	9 
151	4 
152	12 
153	10 
154	2 
155	8 
156	14 
157	6 
158	7 
159	9 
160	6 
161	9 
162	5 
163	11 
164	6 
165	4 
166	7 
167	8 
168	13 
169	2 
170	10 
171	6 
172	10 
173	3 
174	5 
175	10 
176	8 
177	2 
178	13 
179	15 
