1	8 
2	6 
3	5 
4	3 
5	8 
6	14 
7	8 
8	2 
9	3 
10	12 
11	13 
12	11 
13	10 
14	6 
15	10 
16	7 
17	6 
18	2 
19	11 
20	10 
21	8 
22	5 
23	11 
24	7 
25	1 
26	8 
27	14 
28	7 
29	12 
30	9 
31	4 
32	8 
33	7 
34	11 
35	1 
36	1 
37	7 
38	13 
39	1 
40	6 
41	7 
42	7 
43	13 
44	1 
45	3 
46	5 
47	12 
48	12 
49	2 
50	12 
51	14 
52	4 
53	6 
54	6 
55	3 
56	14 
57	13 
58	5 
59	4 
60	12 
61	5 
62	10 
63	2 
64	3 
65	14 
66	11 
67	4 
68	4 
69	12 
70	9 
71	5 
72	13 
73	3 
74	9 
75	7 
76	7 
77	4 
78	13 
79	3 
80	2 
81	14 
82	5 
83	10 
84	7 
85	13 
86	10 
87	4 
88	11 
89	3 
90	9 
91	12 
92	13 
93	14 
94	9 
95	4 
96	14 
97	8 
98	8 
99	1 
100	12 
101	6 
102	4 
103	4 
104	6 
105	5 
106	9 
107	4 
108	7 
109	8 
110	1 
111	14 
112	10 
113	9 
114	14 
115	2 
116	7 
117	7 
118	5 
119	14 
120	9 
121	2 
122	7 
123	11 
124	11 
125	3 
126	1 
127	4 
128	11 
129	8 
130	2 
131	7 
132	13 
133	6 
134	4 
135	9 
136	1 
137	12 
138	6 
139	13 
140	9 
141	2 
142	1 
143	3 
144	10 
145	4 
146	14 
147	8 
148	5 
149	3 
150	13 
151	4 
152	12 
153	14 
154	3 
155	11 
156	1 
157	4 
158	10 
159	5 
160	9 
161	14 
162	10 
163	14 
164	1 
165	10 
166	8 
167	7 
168	5 
169	13 
170	2 
171	2 
172	5 
173	9 
174	6 
175	9 
176	1 
177	1 
178	1 
179	9 
