1	7
1	18
1	21
1	97
1	98
1	109
1	118
1	129
1	137
1	146
2	14
2	17
2	26
2	53
2	104
2	115
2	172
2	173
2	174
2	179
3	21
3	46
3	56
3	58
3	71
3	105
3	111
3	118
3	161
3	174
4	8
4	9
4	25
4	53
4	55
4	64
4	73
4	80
4	121
4	154
5	7
5	32
5	51
5	98
5	111
5	117
5	128
5	160
5	166
5	171
6	39
6	51
6	56
6	65
6	73
6	96
6	132
6	137
6	147
6	161
7	1
7	5
7	26
7	44
7	109
7	115
7	116
7	122
7	147
7	160
8	4
8	18
8	32
8	115
8	127
8	130
8	141
8	148
8	170
8	174
9	4
9	23
9	45
9	61
9	64
9	67
9	80
9	90
9	139
9	143
10	29
10	41
10	48
10	50
10	59
10	60
10	91
10	101
10	112
10	128
11	31
11	38
11	41
11	57
11	59
11	78
11	113
11	132
11	139
11	166
12	19
12	27
12	52
12	66
12	124
12	128
12	155
12	165
12	168
12	171
13	15
13	20
13	36
13	61
13	62
13	65
13	77
13	83
13	97
13	165
14	2
14	17
14	35
14	38
14	54
14	101
14	107
14	113
14	133
14	150
15	13
15	53
15	57
15	62
15	83
15	101
15	117
15	154
15	162
15	165
16	24
16	41
16	42
16	54
16	63
16	65
16	96
16	103
16	108
16	122
17	2
17	14
17	40
17	54
17	66
17	88
17	92
17	113
17	133
17	169
18	1
18	8
18	49
18	63
18	80
18	93
18	100
18	124
18	170
18	176
19	12
19	23
19	34
19	79
19	88
19	114
19	125
19	134
19	152
19	155
20	13
20	51
20	91
20	129
20	135
20	158
20	162
20	165
20	173
20	177
21	1
21	3
21	32
21	35
21	98
21	129
21	132
21	147
21	150
21	155
22	58
22	71
22	81
22	117
22	120
22	126
22	141
22	152
22	168
22	172
23	9
23	19
23	34
23	71
23	88
23	102
23	123
23	128
23	176
23	178
24	16
24	28
24	41
24	106
24	114
24	122
24	139
24	151
24	159
24	167
25	4
25	28
25	39
25	44
25	59
25	110
25	115
25	116
25	177
25	178
26	2
26	7
26	27
26	29
26	32
26	97
26	103
26	109
26	147
26	175
27	12
27	26
27	65
27	78
27	101
27	119
27	121
27	157
27	161
27	163
28	24
28	25
28	42
28	50
28	60
28	76
28	84
28	89
28	142
28	167
29	10
29	26
29	50
29	69
29	70
29	107
29	119
29	132
29	137
29	152
30	84
30	90
30	94
30	99
30	106
30	109
30	135
30	140
30	159
30	178
31	11
31	50
31	52
31	59
31	103
31	151
31	154
31	157
31	168
31	179
32	5
32	8
32	21
32	26
32	67
32	77
32	110
32	147
32	164
32	174
33	37
33	39
33	41
33	84
33	108
33	131
33	134
33	148
33	151
33	179
34	19
34	23
34	66
34	92
34	94
34	114
34	123
34	124
34	128
34	166
35	14
35	21
35	36
35	100
35	126
35	136
35	138
35	170
35	176
35	178
36	13
36	35
36	39
36	51
36	88
36	99
36	118
36	142
36	176
36	177
37	33
37	45
37	80
37	84
37	86
37	116
37	117
37	122
37	127
37	130
38	11
38	14
38	43
38	64
38	74
38	84
38	92
38	119
38	132
38	150
39	6
39	25
39	33
39	36
39	81
39	97
39	99
39	126
39	136
39	170
40	17
40	47
40	53
40	98
40	100
40	104
40	133
40	162
40	167
40	174
41	10
41	11
41	16
41	24
41	33
41	66
41	116
41	117
41	135
41	179
42	16
42	28
42	55
42	66
42	75
42	97
42	117
42	144
42	146
42	167
43	38
43	66
43	72
43	83
43	85
43	99
43	110
43	120
43	132
43	150
44	7
44	25
44	50
44	68
44	85
44	110
44	160
44	164
44	171
44	178
45	9
45	37
45	77
45	79
45	89
45	94
45	125
45	143
45	153
45	157
46	3
46	61
46	78
46	102
46	118
46	123
46	156
46	159
46	166
46	168
47	40
47	48
47	55
47	60
47	69
47	100
47	132
47	140
47	147
47	152
48	10
48	47
48	58
48	68
48	90
48	100
48	137
48	152
48	158
48	166
49	18
49	80
49	86
49	113
49	115
49	133
49	135
49	141
49	164
49	171
50	10
50	28
50	29
50	31
50	44
50	60
50	91
50	100
50	121
50	163
51	5
51	6
51	20
51	36
51	65
51	107
51	111
51	119
51	153
51	171
52	12
52	31
52	77
52	95
52	98
52	145
52	149
52	156
52	157
52	176
53	2
53	4
53	15
53	40
53	71
53	133
53	134
53	138
53	165
53	174
54	14
54	16
54	17
54	69
54	76
54	104
54	113
54	118
54	133
54	138
55	4
55	42
55	47
55	56
55	73
55	79
55	108
55	130
55	149
55	154
56	3
56	6
56	55
56	70
56	81
56	84
56	93
56	101
56	153
56	163
57	11
57	15
57	69
57	78
57	99
57	106
57	128
57	139
57	150
57	169
58	3
58	22
58	48
58	63
58	88
58	105
58	125
58	148
58	155
58	172
59	10
59	11
59	25
59	31
59	65
59	68
59	112
59	145
59	151
59	158
60	10
60	28
60	47
60	50
60	87
60	96
60	104
60	137
60	152
60	165
61	9
61	13
61	46
61	95
61	105
61	143
61	148
61	159
61	172
61	177
62	13
62	15
62	70
62	86
62	87
62	88
62	112
62	120
62	144
62	171
63	16
63	18
63	58
63	69
63	80
63	90
63	121
63	130
63	164
63	171
64	4
64	9
64	38
64	67
64	73
64	93
64	131
64	142
64	143
64	149
65	6
65	13
65	16
65	27
65	51
65	59
65	79
65	96
65	104
65	161
66	12
66	17
66	34
66	41
66	42
66	43
66	124
66	128
66	149
66	155
67	9
67	32
67	64
67	77
67	83
67	95
67	102
67	103
67	117
67	127
68	44
68	48
68	59
68	87
68	102
68	127
68	145
68	162
68	169
68	178
69	29
69	47
69	54
69	57
69	63
69	91
69	95
69	100
69	152
69	172
70	29
70	56
70	62
70	90
70	113
70	121
70	140
70	160
70	175
70	176
71	3
71	22
71	23
71	53
71	83
71	105
71	108
71	148
71	168
71	175
72	43
72	73
72	78
72	80
72	85
72	92
72	119
72	142
72	147
72	169
73	4
73	6
73	55
73	64
73	72
73	89
73	125
73	140
73	159
73	161
74	38
74	94
74	106
74	116
74	120
74	124
74	140
74	143
74	160
74	176
75	42
75	76
75	81
75	85
75	104
75	108
75	111
75	116
75	131
75	150
76	28
76	54
76	75
76	111
76	116
76	120
76	129
76	131
76	159
76	167
77	13
77	32
77	45
77	52
77	67
77	82
77	107
77	134
77	157
77	174
78	11
78	27
78	46
78	57
78	72
78	92
78	138
78	165
78	167
78	169
79	19
79	45
79	55
79	65
79	83
79	104
79	125
79	143
79	149
79	158
80	4
80	9
80	18
80	37
80	49
80	63
80	72
80	90
80	121
80	170
81	22
81	39
81	56
81	75
81	93
81	112
81	114
81	146
81	153
81	166
82	77
82	117
82	118
82	132
82	148
82	159
82	168
82	172
82	175
82	178
83	13
83	15
83	43
83	67
83	71
83	79
83	112
83	129
83	144
83	165
84	28
84	30
84	33
84	37
84	38
84	56
84	86
84	122
84	148
84	167
85	43
85	44
85	72
85	75
85	94
85	132
85	138
85	150
85	167
85	169
86	37
86	49
86	62
86	84
86	106
86	112
86	138
86	144
86	158
86	162
87	60
87	62
87	68
87	95
87	107
87	124
87	143
87	151
87	157
87	164
88	17
88	19
88	23
88	36
88	58
88	62
88	123
88	128
88	155
88	173
89	28
89	45
89	73
89	109
89	143
89	146
89	149
89	154
89	167
89	170
90	9
90	30
90	48
90	63
90	70
90	80
90	112
90	140
90	175
90	179
91	10
91	20
91	50
91	69
91	137
91	148
91	149
91	152
91	163
91	167
92	17
92	34
92	38
92	72
92	78
92	139
92	140
92	157
92	169
92	177
93	18
93	56
93	64
93	81
93	96
93	124
93	133
93	161
93	163
93	169
94	30
94	34
94	45
94	74
94	85
94	106
94	113
94	120
94	146
94	174
95	52
95	61
95	67
95	69
95	87
95	99
95	127
95	134
95	149
95	177
96	6
96	16
96	60
96	65
96	93
96	111
96	136
96	145
96	146
96	179
97	1
97	13
97	26
97	39
97	42
97	105
97	123
97	129
97	144
97	166
98	1
98	5
98	21
98	40
98	52
98	101
98	109
98	114
98	115
98	166
99	30
99	36
99	39
99	43
99	57
99	95
99	101
99	126
99	135
99	142
100	18
100	35
100	40
100	47
100	48
100	50
100	69
100	103
100	137
100	154
101	10
101	14
101	15
101	27
101	56
101	98
101	99
101	104
101	138
101	174
102	23
102	46
102	67
102	68
102	124
102	127
102	134
102	151
102	163
102	172
103	16
103	26
103	31
103	67
103	100
103	127
103	133
103	134
103	141
103	157
104	2
104	40
104	54
104	60
104	65
104	75
104	79
104	101
104	125
104	161
105	3
105	58
105	61
105	71
105	97
105	118
105	158
105	162
105	169
105	176
106	24
106	30
106	57
106	74
106	86
106	94
106	126
106	135
106	138
106	179
107	14
107	29
107	51
107	77
107	87
107	123
107	125
107	145
107	151
107	163
108	16
108	33
108	55
108	71
108	75
108	122
108	144
108	167
108	170
108	176
109	1
109	7
109	26
109	30
109	89
109	98
109	111
109	128
109	129
109	160
110	25
110	32
110	43
110	44
110	137
110	142
110	145
110	157
110	164
110	176
111	3
111	5
111	51
111	75
111	76
111	96
111	109
111	119
111	146
111	163
112	10
112	59
112	62
112	81
112	83
112	86
112	90
112	158
112	161
112	165
113	11
113	14
113	17
113	49
113	54
113	70
113	94
113	173
113	175
113	179
114	19
114	24
114	34
114	81
114	98
114	119
114	130
114	146
114	153
114	163
115	2
115	7
115	8
115	25
115	49
115	98
115	121
115	130
115	171
115	178
116	7
116	25
116	37
116	41
116	74
116	75
116	76
116	131
116	135
116	155
117	5
117	15
117	22
117	37
117	41
117	42
117	67
117	82
117	131
117	156
118	1
118	3
118	36
118	46
118	54
118	82
118	105
118	147
118	148
118	162
119	27
119	29
119	38
119	51
119	72
119	111
119	114
119	150
119	153
119	158
120	22
120	43
120	62
120	74
120	76
120	94
120	137
120	160
120	173
120	179
121	4
121	27
121	50
121	63
121	70
121	80
121	115
121	122
121	141
121	171
122	7
122	16
122	24
122	37
122	84
122	108
122	121
122	134
122	146
122	174
123	23
123	34
123	46
123	88
123	97
123	107
123	124
123	131
123	155
123	166
124	12
124	18
124	34
124	66
124	74
124	87
124	93
124	102
124	123
124	155
125	19
125	45
125	58
125	73
125	79
125	104
125	107
125	149
125	154
125	175
126	22
126	35
126	39
126	99
126	106
126	128
126	139
126	153
126	156
126	178
127	8
127	37
127	67
127	68
127	95
127	102
127	103
127	146
127	156
127	158
128	5
128	10
128	12
128	23
128	34
128	57
128	66
128	88
128	109
128	126
129	1
129	20
129	21
129	76
129	83
129	97
129	109
129	133
129	153
129	166
130	8
130	37
130	55
130	63
130	114
130	115
130	141
130	153
130	155
130	170
131	33
131	64
131	75
131	76
131	116
131	117
131	123
131	141
131	161
131	168
131	177
132	6
132	11
132	21
132	29
132	38
132	43
132	47
132	82
132	85
132	136
132	150
133	14
133	17
133	40
133	49
133	53
133	54
133	93
133	103
133	129
133	138
133	151
134	19
134	33
134	53
134	77
134	95
134	102
134	103
134	122
134	145
134	168
134	173
135	20
135	30
135	41
135	49
135	99
135	106
135	116
135	160
135	165
135	173
135	179
136	35
136	39
136	96
136	132
136	142
136	153
136	156
136	161
136	164
136	173
136	177
137	1
137	6
137	29
137	48
137	60
137	91
137	100
137	110
137	120
137	148
137	175
138	35
138	53
138	54
138	78
138	85
138	86
138	101
138	106
138	133
138	154
138	174
139	9
139	11
139	24
139	57
139	92
139	126
139	150
139	166
139	169
139	170
139	172
140	30
140	47
140	70
140	73
140	74
140	90
140	92
140	143
140	144
140	171
140	173
141	8
141	22
141	49
141	103
141	121
141	130
141	131
141	142
141	170
141	171
141	177
142	28
142	36
142	64
142	72
142	99
142	110
142	136
142	141
142	148
142	164
142	176
143	9
143	45
143	61
143	64
143	74
143	79
143	87
143	89
143	140
143	154
143	164
144	42
144	62
144	83
144	86
144	97
144	108
144	140
144	153
144	158
144	162
144	178
145	52
145	59
145	68
145	96
145	107
145	110
145	134
145	156
145	157
145	163
145	172
146	1
146	42
146	81
146	89
146	94
146	96
146	111
146	114
146	122
146	127
146	161
147	6
147	7
147	21
147	26
147	32
147	47
147	72
147	118
147	154
147	166
147	170
148	8
148	33
148	58
148	61
148	71
148	82
148	84
148	91
148	118
148	137
148	142
149	52
149	55
149	64
149	66
149	79
149	89
149	91
149	95
149	125
149	167
149	169
150	14
150	21
150	38
150	43
150	57
150	75
150	85
150	119
150	132
150	139
150	168
151	24
151	31
151	33
151	59
151	87
151	102
151	107
151	133
151	152
151	163
151	179
152	19
152	22
152	29
152	47
152	48
152	60
152	69
152	91
152	151
152	159
152	178
153	45
153	51
153	56
153	81
153	114
153	119
153	126
153	129
153	130
153	136
153	144
154	4
154	15
154	31
154	55
154	89
154	100
154	125
154	138
154	143
154	147
154	165
155	12
155	19
155	21
155	58
155	66
155	88
155	116
155	123
155	124
155	130
155	175
156	46
156	52
156	117
156	126
156	127
156	136
156	145
156	160
156	176
156	177
156	178
157	27
157	31
157	45
157	52
157	77
157	87
157	92
157	103
157	110
157	145
157	175
158	20
158	48
158	59
158	79
158	86
158	105
158	112
158	119
158	127
158	144
158	165
159	24
159	30
159	46
159	61
159	73
159	76
159	82
159	152
159	162
159	168
159	172
160	5
160	7
160	44
160	70
160	74
160	109
160	120
160	135
160	156
160	175
160	179
161	3
161	6
161	27
161	65
161	73
161	93
161	104
161	112
161	131
161	136
161	146
162	15
162	20
162	40
162	68
162	86
162	105
162	118
162	144
162	159
162	172
162	174
163	27
163	50
163	56
163	91
163	93
163	102
163	107
163	111
163	114
163	145
163	151
164	32
164	44
164	49
164	63
164	87
164	110
164	136
164	142
164	143
164	169
164	177
164	178
165	12
165	13
165	15
165	20
165	53
165	60
165	78
165	83
165	112
165	135
165	154
165	158
166	5
166	11
166	34
166	46
166	48
166	81
166	97
166	98
166	123
166	129
166	139
166	147
167	24
167	28
167	40
167	42
167	76
167	78
167	84
167	85
167	89
167	91
167	108
167	149
168	12
168	22
168	31
168	46
168	71
168	82
168	131
168	134
168	150
168	159
168	172
168	173
169	17
169	57
169	68
169	72
169	78
169	85
169	92
169	93
169	105
169	139
169	149
169	164
170	8
170	18
170	35
170	39
170	80
170	89
170	108
170	130
170	139
170	141
170	147
170	171
171	5
171	12
171	44
171	49
171	51
171	62
171	63
171	115
171	121
171	140
171	141
171	170
172	2
172	22
172	58
172	61
172	69
172	82
172	102
172	139
172	145
172	159
172	162
172	168
173	2
173	20
173	88
173	113
173	120
173	134
173	135
173	136
173	140
173	168
173	175
173	179
174	2
174	3
174	8
174	32
174	40
174	53
174	77
174	94
174	101
174	122
174	138
174	162
175	26
175	70
175	71
175	82
175	90
175	113
175	125
175	137
175	155
175	157
175	160
175	173
175	179
176	18
176	23
176	35
176	36
176	52
176	70
176	74
176	105
176	108
176	110
176	142
176	156
176	177
177	20
177	25
177	36
177	61
177	92
177	95
177	131
177	136
177	141
177	156
177	164
177	176
177	178
178	23
178	25
178	30
178	35
178	44
178	68
178	82
178	115
178	126
178	144
178	152
178	156
178	164
178	177
179	2
179	31
179	33
179	41
179	90
179	96
179	106
179	113
179	120
179	135
179	151
179	160
179	173
179	175
