1	29
1	30
2	13
2	25
3	22
3	28
4	28
4	33
5	22
5	32
6	18
6	26
7	15
7	21
8	31
8	32
9	25
9	33
10	32
10	34
11	31
11	33
12	20
12	24
13	2
13	32
14	23
14	33
15	7
15	34
16	25
16	31
17	23
17	32
18	6
18	27
19	22
19	26
20	12
20	24
20	27
21	7
21	23
21	29
22	3
22	5
22	19
23	14
23	17
23	21
24	12
24	20
24	27
24	33
25	2
25	9
25	16
25	34
26	6
26	19
26	29
26	30
27	18
27	20
27	24
27	30
28	3
28	4
28	31
28	34
29	1
29	21
29	26
29	30
30	1
30	26
30	27
30	29
31	8
31	11
31	16
31	28
31	34
32	5
32	8
32	10
32	13
32	17
33	4
33	9
33	11
33	14
33	24
33	34
34	10
34	15
34	25
34	28
34	31
34	33
