1	6 
2	7 
3	4 
4	2 
5	2 
6	5 
7	2 
8	6 
9	8 
10	10 
11	6 
12	1 
13	7 
14	5 
15	9 
16	8 
17	1 
18	4 
19	7 
20	12 
21	7 
22	3 
23	9 
24	8 
25	8 
26	4 
27	13 
28	1 
29	2 
30	7 
31	7 
32	5 
33	9 
34	13 
35	4 
36	2 
37	12 
38	10 
39	9 
40	11 
41	1 
42	9 
43	1 
44	1 
45	6 
46	3 
47	1 
48	11 
49	10 
50	2 
51	5 
52	3 
53	4 
54	3 
55	5 
56	2 
57	3 
58	12 
59	11 
60	7 
61	12 
62	6 
63	6 
64	12 
65	4 
66	10 
67	10 
68	11 
69	1 
70	12 
71	9 
72	11 
73	3 
74	7 
75	7 
76	1 
77	4 
78	8 
79	2 
80	13 
81	9 
82	7 
83	5 
84	5 
85	11 
86	11 
87	5 
88	7 
89	4 
90	10 
91	12 
92	4 
93	12 
94	1 
95	6 
96	13 
97	8 
98	9 
99	13 
100	12 
101	12 
102	8 
103	9 
104	2 
105	6 
106	3 
107	13 
108	9 
109	8 
110	2 
111	2 
112	6 
113	4 
114	1 
115	9 
116	2 
117	13 
118	3 
119	6 
120	1 
121	10 
122	13 
123	9 
124	7 
125	4 
126	11 
127	8 
128	6 
129	12 
130	5 
131	5 
132	10 
133	7 
134	3 
135	6 
136	9 
137	11 
138	3 
139	10 
140	11 
141	8 
142	6 
143	7 
144	2 
145	4 
146	4 
147	13 
148	1 
149	13 
150	12 
151	9 
152	4 
153	3 
154	7 
155	10 
156	10 
157	2 
158	13 
159	5 
160	10 
161	11 
162	3 
163	5 
164	5 
165	5 
166	12 
167	13 
168	4 
169	5 
170	12 
171	7 
172	6 
173	10 
174	5 
175	9 
176	8 
177	5 
178	6 
179	4 
