1	1 
2	3 
3	4 
4	11 
5	4 
6	6 
7	10 
8	7 
9	8 
10	12 
11	8 
12	9 
13	10 
14	8 
15	10 
16	7 
17	5 
18	6 
19	11 
20	12 
21	10 
22	6 
23	13 
24	10 
25	13 
26	5 
27	8 
28	9 
29	6 
30	4 
31	13 
32	3 
33	12 
34	13 
35	13 
36	3 
37	10 
38	2 
39	8 
40	11 
41	2 
42	2 
43	7 
44	13 
45	9 
46	7 
47	5 
48	1 
49	1 
50	8 
51	9 
52	13 
53	3 
54	9 
55	7 
56	5 
57	12 
58	2 
59	2 
60	10 
61	13 
62	7 
63	2 
64	10 
65	2 
66	1 
67	9 
68	2 
69	6 
70	4 
71	4 
72	10 
73	3 
74	4 
75	12 
76	12 
77	13 
78	6 
79	5 
80	7 
81	10 
82	2 
83	10 
84	7 
85	1 
86	13 
87	7 
88	9 
89	5 
90	13 
91	6 
92	4 
93	8 
94	2 
95	8 
96	7 
97	3 
98	11 
99	12 
100	1 
101	12 
102	2 
103	11 
104	11 
105	5 
106	3 
107	13 
108	5 
109	6 
110	3 
111	12 
112	11 
113	12 
114	11 
115	1 
116	12 
117	8 
118	2 
119	3 
120	9 
121	8 
122	7 
123	11 
124	4 
125	12 
126	11 
127	1 
128	2 
129	3 
130	4 
131	1 
132	11 
133	1 
134	1 
135	2 
136	13 
137	10 
138	6 
139	3 
140	5 
141	4 
142	11 
143	10 
144	7 
145	5 
146	10 
147	9 
148	4 
149	2 
150	8 
151	6 
152	1 
153	3 
154	5 
155	7 
156	12 
157	7 
158	1 
159	1 
160	8 
161	3 
162	9 
163	1 
164	4 
165	8 
166	11 
167	6 
168	10 
169	1 
170	4 
171	6 
172	8 
173	7 
174	11 
175	6 
176	13 
177	13 
178	11 
179	9 
