degree distribution (probability density function of the degree in logarithmic bins) 
10	1.87661
11	0.373476
12	0.0918359
13	0.0105853
15	0.00900053

degree distribution (degree-occurrences) 
10	0.776536
11	0.167598
12	0.0446927
13	0.00558659
15	0.00558659


--------------------------------------
community distribution (size-occurrences)
11	0.142857
12	0.285714
13	0.214286
14	0.357143


--------------------------------------
mixing parameter
0.2	0.234637
0.230769	0.00558659
0.25	0.0446927
0.266667	0.00558659
0.272727	0.167598
0.3	0.530726
0.4	0.0111732

--------------------------------------
