degree distribution (probability density function of the degree in logarithmic bins) 
1	0.0973882
2	0.976629
3	0.101666
4	0.0260281
5.2	0.0999538
8	0.0307077
10	0.0117924
12.5	0.0362286

degree distribution (degree-occurrences) 
1	0.0294118
2	0.5
3	0.0882353
4	0.0294118
5	0.117647
6	0.0294118
8	0.0588235
10	0.0294118
11	0.0294118
12	0.0294118
13	0.0294118
14	0.0294118


--------------------------------------
community distribution (size-occurrences)
15	0.5
19	0.5


--------------------------------------
mixing parameter
0	0.5
0.0714286	0.0294118
0.0839161	0.0588235
0.125	0.0588235
0.166667	0.0294118
0.2	0.0588235
0.25	0.0294118
0.333333	0.0588235
0.5	0.176471

--------------------------------------
