1	20
1	32
2	6
2	33
3	19
3	30
4	27
4	30
5	10
5	34
6	2
6	34
7	16
7	32
8	31
8	32
9	30
9	34
10	5
10	32
11	33
11	34
12	27
12	30
13	23
13	29
14	33
14	34
15	23
15	26
15	34
16	7
16	26
16	29
17	24
17	25
17	32
18	22
18	25
18	32
19	3
19	30
19	33
20	1
20	26
20	29
21	31
21	33
21	34
22	18
22	32
22	33
23	13
23	15
23	29
24	17
24	33
24	34
25	17
25	18
25	28
25	32
26	15
26	16
26	20
26	29
27	4
27	12
27	30
27	34
28	25
28	31
28	33
28	34
29	13
29	16
29	20
29	23
29	26
30	3
30	4
30	9
30	12
30	19
30	27
30	34
31	8
31	21
31	28
31	32
31	33
31	34
32	1
32	7
32	8
32	10
32	17
32	18
32	22
32	25
32	31
32	34
33	2
33	11
33	14
33	19
33	21
33	22
33	24
33	28
33	31
33	34
34	5
34	6
34	9
34	11
34	14
34	15
34	21
34	24
34	27
34	28
34	30
34	31
34	32
34	33
