1	2
1	49
1	58
1	103
1	109
1	116
1	118
1	135
1	141
1	171
2	1
2	42
2	52
2	56
2	72
2	96
2	112
2	137
2	170
2	172
3	50
3	69
3	72
3	83
3	97
3	103
3	130
3	135
3	160
3	173
4	11
4	27
4	78
4	81
4	82
4	95
4	125
4	137
4	142
4	145
5	20
5	61
5	89
5	117
5	123
5	139
5	143
5	148
5	150
5	179
6	30
6	55
6	57
6	66
6	71
6	92
6	109
6	113
6	136
6	152
7	84
7	90
7	99
7	107
7	119
7	134
7	140
7	143
7	160
7	171
8	31
8	55
8	93
8	95
8	104
8	132
8	154
8	156
8	162
8	173
9	64
9	78
9	81
9	82
9	98
9	108
9	111
9	134
9	149
9	162
10	28
10	40
10	53
10	63
10	65
10	75
10	87
10	115
10	132
10	178
11	4
11	12
11	55
11	56
11	82
11	111
11	118
11	142
11	145
11	162
12	11
12	48
12	64
12	74
12	82
12	85
12	111
12	134
12	142
12	174
13	47
13	49
13	52
13	61
13	70
13	77
13	99
13	100
13	149
13	166
14	15
14	18
14	22
14	28
14	80
14	84
14	87
14	98
14	115
14	126
15	14
15	29
15	37
15	47
15	100
15	111
15	129
15	138
15	149
15	166
16	42
16	54
16	67
16	102
16	105
16	114
16	124
16	132
16	160
16	164
17	19
17	26
17	51
17	69
17	85
17	110
17	133
17	165
17	172
17	175
18	14
18	80
18	86
18	87
18	120
18	126
18	147
18	155
18	161
18	178
19	17
19	20
19	48
19	61
19	91
19	107
19	125
19	127
19	150
19	179
20	5
20	19
20	37
20	48
20	106
20	117
20	156
20	158
20	174
20	177
21	25
21	39
21	57
21	88
21	100
21	106
21	114
21	129
21	149
21	166
22	14
22	24
22	36
22	102
22	114
22	121
22	149
22	165
22	167
22	178
23	40
23	47
23	76
23	82
23	116
23	125
23	141
23	151
23	171
23	176
24	22
24	42
24	102
24	104
24	105
24	114
24	155
24	176
24	177
24	178
25	21
25	29
25	39
25	70
25	73
25	96
25	99
25	100
25	113
25	129
26	17
26	43
26	54
26	58
26	133
26	152
26	155
26	165
26	169
26	172
27	4
27	37
27	45
27	67
27	68
27	108
27	141
27	167
27	173
27	176
28	10
28	14
28	35
28	50
28	65
28	75
28	110
28	126
28	131
28	147
29	15
29	25
29	60
29	68
29	94
29	126
29	129
29	132
29	149
29	166
30	6
30	66
30	114
30	130
30	132
30	144
30	148
30	152
30	163
30	173
31	8
31	33
31	43
31	80
31	93
31	95
31	122
31	127
31	173
31	176
32	33
32	61
32	77
32	92
32	127
32	128
32	129
32	156
32	157
32	163
33	31
33	32
33	77
33	92
33	93
33	131
33	133
33	156
33	157
33	167
34	40
34	50
34	56
34	60
34	101
34	114
34	123
34	128
34	167
34	174
35	28
35	63
35	73
35	86
35	103
35	116
35	126
35	139
35	145
35	177
36	22
36	54
36	71
36	88
36	90
36	114
36	144
36	145
36	164
36	167
37	15
37	20
37	27
37	38
37	45
37	67
37	68
37	108
37	131
37	141
38	37
38	49
38	54
38	71
38	105
38	114
38	117
38	164
38	167
38	169
39	21
39	25
39	47
39	61
39	94
39	108
39	129
39	149
39	165
39	166
40	10
40	23
40	34
40	65
40	103
40	115
40	122
40	126
40	147
40	178
41	53
41	68
41	71
41	107
41	108
41	120
41	135
41	152
41	156
41	173
42	2
42	16
42	24
42	71
42	101
42	102
42	105
42	109
42	171
42	178
43	26
43	31
43	46
43	73
43	92
43	95
43	127
43	159
43	162
43	179
44	46
44	54
44	89
44	119
44	134
44	135
44	140
44	143
44	158
44	169
45	27
45	37
45	53
45	74
45	93
45	107
45	120
45	136
45	146
45	173
46	43
46	44
46	90
46	119
46	135
46	140
46	143
46	146
46	157
46	169
47	13
47	15
47	23
47	39
47	70
47	75
47	94
47	99
47	112
47	147
48	12
48	19
48	20
48	61
48	90
48	91
48	117
48	119
48	150
48	179
49	1
49	13
49	38
49	109
49	110
49	116
49	141
49	146
49	155
49	157
50	3
50	28
50	34
50	63
50	86
50	98
50	130
50	135
50	160
50	168
51	17
51	56
51	79
51	83
51	121
51	128
51	150
51	157
51	158
51	174
52	2
52	13
52	85
52	96
52	104
52	138
52	153
52	162
52	169
52	170
53	10
53	41
53	45
53	67
53	69
53	72
53	120
53	152
53	168
53	173
54	16
54	26
54	36
54	38
54	44
54	105
54	138
54	164
54	175
54	178
55	6
55	8
55	11
55	62
55	71
55	83
55	136
55	144
55	152
55	163
56	2
56	11
56	34
56	51
56	67
56	83
56	91
56	121
56	123
56	128
57	6
57	21
57	62
57	67
57	93
57	136
57	148
57	152
57	163
57	167
58	1
58	26
58	69
58	85
58	93
58	133
58	153
58	154
58	155
58	165
59	73
59	97
59	103
59	113
59	140
59	156
59	160
59	164
59	169
59	177
60	29
60	34
60	68
60	79
60	101
60	119
60	121
60	123
60	133
60	161
61	5
61	13
61	19
61	32
61	39
61	48
61	106
61	117
61	157
61	158
62	55
62	57
62	104
62	111
62	115
62	130
62	136
62	144
62	152
62	163
63	10
63	35
63	50
63	88
63	103
63	113
63	144
63	172
63	175
63	177
64	9
64	12
64	74
64	78
64	81
64	88
64	98
64	102
64	117
64	123
65	10
65	28
65	40
65	75
65	82
65	103
65	118
65	122
65	126
65	142
66	6
66	30
66	81
66	94
66	96
66	144
66	148
66	152
66	159
66	163
67	16
67	27
67	37
67	53
67	56
67	57
67	94
67	120
67	131
67	168
68	27
68	29
68	37
68	41
68	60
68	80
68	108
68	131
68	138
68	168
69	3
69	17
69	53
69	58
69	85
69	121
69	124
69	128
69	155
69	172
70	13
70	25
70	47
70	73
70	94
70	100
70	124
70	127
70	149
70	162
71	6
71	36
71	38
71	41
71	42
71	55
71	114
71	124
71	167
71	178
72	2
72	3
72	53
72	85
72	104
72	138
72	151
72	153
72	170
72	171
73	25
73	35
73	43
73	59
73	70
73	86
73	97
73	148
73	175
73	177
74	12
74	45
74	64
74	78
74	88
74	105
74	108
74	111
74	145
74	175
75	10
75	28
75	47
75	65
75	78
75	80
75	87
75	117
75	147
75	174
76	23
76	105
76	110
76	116
76	125
76	139
76	145
76	146
76	154
76	176
77	13
77	32
77	33
77	95
77	115
77	127
77	132
77	140
77	149
77	156
78	4
78	9
78	64
78	74
78	75
78	82
78	88
78	139
78	161
78	163
79	51
79	60
79	83
79	97
79	103
79	121
79	123
79	153
79	160
79	161
80	14
80	18
80	31
80	68
80	75
80	115
80	122
80	140
80	147
80	148
81	4
81	9
81	64
81	66
81	84
81	98
81	142
81	145
81	147
81	179
82	4
82	9
82	11
82	12
82	23
82	65
82	78
82	92
82	117
82	142
83	3
83	51
83	55
83	56
83	79
83	99
83	101
83	105
83	161
83	174
84	7
84	14
84	81
84	90
84	119
84	124
84	134
84	140
84	166
84	169
85	12
85	17
85	52
85	58
85	69
85	72
85	102
85	154
85	155
85	165
86	18
86	35
86	50
86	73
86	92
86	131
86	135
86	143
86	175
86	177
87	10
87	14
87	18
87	75
87	106
87	115
87	116
87	122
87	137
87	169
88	21
88	36
88	63
88	64
88	74
88	78
88	104
88	111
88	142
88	145
89	5
89	44
89	91
89	99
89	106
89	115
89	117
89	119
89	150
89	158
90	7
90	36
90	46
90	48
90	84
90	105
90	134
90	143
90	169
90	170
91	19
91	48
91	56
91	89
91	95
91	106
91	117
91	128
91	158
91	179
92	6
92	32
92	33
92	43
92	82
92	86
92	95
92	121
92	132
92	159
93	8
93	31
93	33
93	45
93	57
93	58
93	127
93	156
93	157
93	163
94	29
94	39
94	47
94	66
94	67
94	70
94	99
94	107
94	130
94	149
95	4
95	8
95	31
95	43
95	77
95	91
95	92
95	121
95	132
95	162
96	2
96	25
96	52
96	66
96	104
96	116
96	138
96	151
96	153
96	165
97	3
97	59
97	73
97	79
97	113
97	130
97	134
97	136
97	167
97	175
98	9
98	14
98	50
98	64
98	81
98	109
98	111
98	138
98	142
98	145
99	7
99	13
99	25
99	47
99	83
99	89
99	94
99	100
99	129
99	147
100	13
100	15
100	21
100	25
100	70
100	99
100	119
100	141
100	171
100	172
101	34
101	42
101	60
101	83
101	121
101	123
101	128
101	161
101	164
101	174
102	16
102	22
102	24
102	42
102	64
102	85
102	111
102	164
102	170
102	178
103	1
103	3
103	35
103	40
103	59
103	63
103	65
103	79
103	113
103	160
104	8
104	24
104	52
104	62
104	72
104	88
104	96
104	137
104	151
104	170
105	16
105	24
105	38
105	42
105	54
105	74
105	76
105	83
105	90
105	164
106	20
106	21
106	61
106	87
106	89
106	91
106	131
106	150
106	161
106	179
107	7
107	19
107	41
107	45
107	94
107	108
107	120
107	129
107	131
107	168
108	9
108	27
108	37
108	39
108	41
108	68
108	74
108	107
108	134
108	168
109	1
109	6
109	42
109	49
109	98
109	110
109	118
109	146
109	171
109	178
110	17
110	28
110	49
110	76
110	109
110	141
110	166
110	168
110	171
110	176
111	9
111	11
111	12
111	15
111	62
111	74
111	88
111	98
111	102
111	133
112	2
112	47
112	128
112	133
112	137
112	138
112	151
112	153
112	166
112	170
113	6
113	25
113	59
113	63
113	97
113	103
113	135
113	139
113	154
113	158
114	16
114	21
114	22
114	24
114	30
114	34
114	36
114	38
114	71
114	135
115	10
115	14
115	40
115	62
115	77
115	80
115	87
115	89
115	147
115	165
116	1
116	23
116	35
116	49
116	76
116	87
116	96
116	129
116	146
116	176
117	5
117	20
117	38
117	48
117	61
117	64
117	75
117	82
117	89
117	91
118	1
118	11
118	65
118	109
118	125
118	141
118	146
118	165
118	171
118	176
119	7
119	44
119	46
119	48
119	60
119	84
119	89
119	100
119	140
119	143
120	18
120	41
120	45
120	53
120	67
120	107
120	127
120	159
120	170
120	173
121	22
121	51
121	56
121	60
121	69
121	79
121	92
121	95
121	101
121	174
122	31
122	40
122	65
122	80
122	87
122	125
122	126
122	147
122	163
122	171
123	5
123	34
123	56
123	60
123	64
123	79
123	101
123	142
123	161
123	177
124	16
124	69
124	70
124	71
124	84
124	133
124	154
124	155
124	165
124	172
125	4
125	19
125	23
125	76
125	118
125	122
125	141
125	146
125	150
125	171
126	14
126	18
126	28
126	29
126	35
126	40
126	65
126	122
126	154
126	175
127	19
127	31
127	32
127	43
127	70
127	77
127	93
127	120
127	159
127	162
127	173
128	32
128	34
128	51
128	56
128	69
128	91
128	101
128	112
128	161
128	168
128	174
129	15
129	21
129	25
129	29
129	32
129	39
129	99
129	107
129	116
129	166
129	178
130	3
130	30
130	50
130	62
130	94
130	97
130	135
130	160
130	166
130	175
130	179
131	28
131	33
131	37
131	67
131	68
131	86
131	106
131	107
131	156
131	173
131	177
132	8
132	10
132	16
132	29
132	30
132	77
132	92
132	95
132	157
132	159
132	162
133	17
133	26
133	33
133	58
133	60
133	111
133	112
133	124
133	154
133	155
133	172
134	7
134	9
134	12
134	44
134	84
134	90
134	97
134	108
134	140
134	143
134	169
135	1
135	3
135	41
135	44
135	46
135	50
135	86
135	113
135	114
135	130
135	139
136	6
136	45
136	55
136	57
136	62
136	97
136	142
136	144
136	148
136	151
136	152
137	2
137	4
137	87
137	104
137	112
137	138
137	140
137	150
137	151
137	153
137	170
138	15
138	52
138	54
138	68
138	72
138	96
138	98
138	112
138	137
138	153
138	170
139	5
139	35
139	76
139	78
139	113
139	135
139	160
139	172
139	174
139	175
139	177
140	7
140	44
140	46
140	59
140	77
140	80
140	84
140	119
140	134
140	137
140	169
141	1
141	23
141	27
141	37
141	49
141	100
141	110
141	118
141	125
141	153
141	176
142	4
142	11
142	12
142	65
142	81
142	82
142	88
142	98
142	123
142	136
142	179
143	5
143	7
143	44
143	46
143	86
143	90
143	119
143	134
143	147
143	158
143	169
144	30
144	36
144	55
144	62
144	63
144	66
144	136
144	148
144	151
144	152
144	157
145	4
145	11
145	35
145	36
145	74
145	76
145	81
145	88
145	98
145	149
145	164
146	45
146	46
146	49
146	76
146	109
146	116
146	118
146	125
146	168
146	170
146	176
147	18
147	28
147	40
147	47
147	75
147	80
147	81
147	99
147	115
147	122
147	143
148	5
148	30
148	57
148	66
148	73
148	80
148	136
148	144
148	150
148	162
148	163
149	9
149	13
149	15
149	21
149	22
149	29
149	39
149	70
149	77
149	94
149	145
150	5
150	19
150	48
150	51
150	89
150	106
150	125
150	137
150	148
150	158
150	179
151	23
151	72
151	96
151	104
151	112
151	136
151	137
151	144
151	153
151	154
151	170
152	6
152	26
152	30
152	41
152	53
152	55
152	57
152	62
152	66
152	136
152	144
153	52
153	58
153	72
153	79
153	96
153	112
153	137
153	138
153	141
153	151
153	159
154	8
154	58
154	76
154	85
154	113
154	124
154	126
154	133
154	151
154	165
154	172
155	18
155	24
155	26
155	49
155	58
155	69
155	85
155	124
155	133
155	172
155	179
156	8
156	20
156	32
156	33
156	41
156	59
156	77
156	93
156	131
156	157
156	159
157	32
157	33
157	46
157	49
157	51
157	61
157	93
157	132
157	144
157	156
157	159
158	20
158	44
158	51
158	61
158	89
158	91
158	113
158	143
158	150
158	160
158	179
159	43
159	66
159	92
159	120
159	127
159	132
159	153
159	156
159	157
159	162
159	176
160	3
160	7
160	16
160	50
160	59
160	79
160	103
160	130
160	139
160	158
160	175
161	18
161	60
161	78
161	79
161	83
161	101
161	106
161	123
161	128
161	166
161	174
162	8
162	9
162	11
162	43
162	52
162	70
162	95
162	127
162	132
162	148
162	159
163	30
163	32
163	55
163	57
163	62
163	66
163	78
163	93
163	122
163	148
163	172
164	16
164	36
164	38
164	54
164	59
164	101
164	102
164	105
164	145
164	167
164	168
165	17
165	22
165	26
165	39
165	58
165	85
165	96
165	115
165	118
165	124
165	154
166	13
166	15
166	21
166	29
166	39
166	84
166	110
166	112
166	129
166	130
166	161
167	22
167	27
167	33
167	34
167	36
167	38
167	57
167	71
167	97
167	164
167	178
168	50
168	53
168	67
168	68
168	107
168	108
168	110
168	128
168	146
168	164
168	173
169	26
169	38
169	44
169	46
169	52
169	59
169	84
169	87
169	90
169	134
169	140
169	143
170	2
170	52
170	72
170	90
170	102
170	104
170	112
170	120
170	137
170	138
170	146
170	151
171	1
171	7
171	23
171	42
171	72
171	100
171	109
171	110
171	118
171	122
171	125
171	176
172	2
172	17
172	26
172	63
172	69
172	100
172	124
172	133
172	139
172	154
172	155
172	163
173	3
173	8
173	27
173	30
173	31
173	41
173	45
173	53
173	120
173	127
173	131
173	168
174	12
174	20
174	34
174	51
174	75
174	83
174	101
174	121
174	128
174	139
174	161
174	177
175	17
175	54
175	63
175	73
175	74
175	86
175	97
175	126
175	130
175	139
175	160
175	177
176	23
176	24
176	27
176	31
176	76
176	110
176	116
176	118
176	141
176	146
176	159
176	171
177	20
177	24
177	35
177	59
177	63
177	73
177	86
177	123
177	131
177	139
177	174
177	175
178	10
178	18
178	22
178	24
178	40
178	42
178	54
178	71
178	102
178	109
178	129
178	167
179	5
179	19
179	43
179	48
179	81
179	91
179	106
179	130
179	142
179	150
179	155
179	158
