degree distribution (probability density function of the degree in logarithmic bins) 
4	2.67044
5	0.37723
6	0.205248
8	0.0290265

degree distribution (degree-occurrences) 
4	0.766667
5	0.133333
6	0.0833333
8	0.0166667


--------------------------------------
community distribution (size-occurrences)
4	0.1
5	0.5
6	0.1
8	0.2
9	0.1


--------------------------------------
mixing parameter
0.25	0.05
0.4	0.0166667
0.5	0.6
0.6	0.116667
0.625	0.0166667
0.666667	0.0333333
0.75	0.166667

--------------------------------------
