1	28
1	40
1	78
1	93
1	125
1	134
1	137
1	157
1	165
1	170
2	28
2	32
2	65
2	66
2	96
2	125
2	135
2	159
2	170
2	171
3	8
3	26
3	76
3	91
3	105
3	114
3	116
3	153
3	169
3	176
4	10
4	48
4	65
4	66
4	101
4	140
4	142
4	155
4	158
4	176
5	61
5	80
5	83
5	118
5	122
5	125
5	145
5	147
5	149
5	153
6	82
6	103
6	117
6	136
6	140
6	155
6	162
6	167
6	172
6	179
7	18
7	29
7	37
7	45
7	65
7	68
7	73
7	121
7	123
7	177
8	3
8	12
8	18
8	43
8	48
8	63
8	75
8	91
8	159
8	169
9	18
9	25
9	37
9	51
9	55
9	91
9	98
9	110
9	132
9	174
10	4
10	18
10	24
10	52
10	80
10	100
10	109
10	129
10	161
10	165
11	13
11	17
11	108
11	112
11	133
11	138
11	146
11	148
11	151
11	166
12	8
12	50
12	67
12	82
12	83
12	99
12	122
12	161
12	169
12	179
13	11
13	30
13	34
13	35
13	45
13	58
13	62
13	78
13	105
13	175
14	24
14	33
14	47
14	64
14	100
14	104
14	109
14	153
14	159
14	160
15	17
15	26
15	52
15	78
15	84
15	92
15	93
15	101
15	130
15	152
16	23
16	24
16	25
16	44
16	48
16	91
16	95
16	132
16	169
16	173
17	11
17	15
17	52
17	60
17	62
17	69
17	108
17	171
17	174
17	178
18	7
18	8
18	9
18	10
18	20
18	28
18	39
18	79
18	118
18	148
19	37
19	51
19	54
19	60
19	69
19	86
19	119
19	126
19	128
19	145
20	18
20	29
20	39
20	80
20	124
20	147
20	149
20	152
20	154
20	165
21	25
21	53
21	56
21	59
21	73
21	112
21	116
21	140
21	154
21	174
22	27
22	37
22	70
22	79
22	92
22	113
22	123
22	136
22	139
22	154
23	16
23	28
23	60
23	75
23	88
23	99
23	105
23	143
23	156
23	164
24	10
24	14
24	16
24	43
24	54
24	65
24	80
24	126
24	129
24	160
25	9
25	16
25	21
25	33
25	54
25	55
25	75
25	87
25	94
25	131
26	3
26	15
26	36
26	47
26	89
26	106
26	107
26	129
26	144
26	161
27	22
27	46
27	72
27	74
27	85
27	101
27	102
27	125
27	135
27	162
28	1
28	2
28	18
28	23
28	38
28	103
28	118
28	124
28	175
28	179
29	7
29	20
29	36
29	39
29	84
29	85
29	90
29	122
29	130
29	176
30	13
30	38
30	42
30	70
30	72
30	76
30	81
30	85
30	98
30	113
31	51
31	64
31	90
31	97
31	102
31	109
31	128
31	159
31	164
31	172
32	2
32	42
32	55
32	63
32	71
32	77
32	87
32	103
32	123
32	160
33	14
33	25
33	48
33	66
33	70
33	74
33	79
33	86
33	145
33	158
34	13
34	43
34	56
34	62
34	69
34	78
34	130
34	137
34	138
34	175
35	13
35	96
35	111
35	130
35	132
35	133
35	144
35	148
35	166
35	172
36	26
36	29
36	65
36	81
36	83
36	89
36	112
36	115
36	140
36	155
37	7
37	9
37	19
37	22
37	48
37	59
37	82
37	88
37	105
37	141
38	28
38	30
38	40
38	95
38	108
38	111
38	117
38	144
38	151
38	164
39	18
39	20
39	29
39	66
39	68
39	145
39	147
39	154
39	172
39	177
40	1
40	38
40	46
40	70
40	77
40	112
40	121
40	146
40	156
40	175
41	43
41	54
41	62
41	69
41	92
41	95
41	98
41	103
41	141
41	174
42	30
42	32
42	53
42	56
42	87
42	93
42	97
42	104
42	132
42	136
43	8
43	24
43	34
43	41
43	49
43	55
43	58
43	143
43	150
43	172
44	16
44	48
44	52
44	57
44	66
44	68
44	102
44	166
44	171
44	179
45	7
45	13
45	52
45	56
45	59
45	72
45	76
45	86
45	94
45	174
46	27
46	40
46	60
46	85
46	124
46	127
46	144
46	165
46	169
46	174
47	14
47	26
47	72
47	111
47	124
47	126
47	135
47	153
47	167
47	170
48	4
48	8
48	16
48	33
48	37
48	44
48	53
48	71
48	140
48	148
49	43
49	74
49	79
49	108
49	135
49	142
49	151
49	160
49	164
49	176
50	12
50	54
50	83
50	104
50	119
50	122
50	134
50	151
50	155
50	162
51	9
51	19
51	31
51	64
51	77
51	91
51	97
51	99
51	164
51	171
52	10
52	15
52	17
52	44
52	45
52	62
52	71
52	89
52	127
52	175
53	21
53	42
53	48
53	56
53	95
53	107
53	110
53	132
53	149
53	173
54	19
54	24
54	25
54	41
54	50
54	73
54	127
54	145
54	150
54	168
55	9
55	25
55	32
55	43
55	58
55	86
55	88
55	106
55	137
55	175
56	21
56	34
56	42
56	45
56	53
56	110
56	116
56	120
56	151
56	158
57	44
57	81
57	113
57	120
57	135
57	162
57	164
57	170
57	178
57	179
58	13
58	43
58	55
58	71
58	94
58	111
58	142
58	144
58	157
58	167
59	21
59	37
59	45
59	61
59	103
59	117
59	120
59	143
59	165
59	178
60	17
60	19
60	23
60	46
60	79
60	105
60	114
60	152
60	161
60	164
61	5
61	59
61	64
61	119
61	126
61	128
61	133
61	152
61	156
61	171
62	13
62	17
62	34
62	41
62	52
62	75
62	125
62	126
62	166
62	171
63	8
63	32
63	67
63	83
63	99
63	114
63	120
63	137
63	145
63	153
64	14
64	31
64	51
64	61
64	66
64	115
64	131
64	155
64	159
64	161
65	2
65	4
65	7
65	24
65	36
65	125
65	135
65	140
65	147
65	177
66	2
66	4
66	33
66	39
66	44
66	64
66	87
66	92
66	107
66	115
67	12
67	63
67	84
67	95
67	111
67	122
67	142
67	154
67	168
67	177
68	7
68	39
68	44
68	69
68	74
68	110
68	134
68	138
68	150
68	175
69	17
69	19
69	34
69	41
69	68
69	70
69	80
69	88
69	108
69	179
70	22
70	30
70	33
70	40
70	69
70	82
70	116
70	120
70	134
70	158
71	32
71	48
71	52
71	58
71	77
71	102
71	106
71	139
71	152
71	175
72	27
72	30
72	45
72	47
72	89
72	112
72	119
72	121
72	158
72	167
73	7
73	21
73	54
73	99
73	100
73	106
73	131
73	149
73	153
73	168
74	27
74	33
74	49
74	68
74	76
74	128
74	138
74	141
74	158
74	160
75	8
75	23
75	25
75	62
75	89
75	90
75	110
75	118
75	160
75	169
76	3
76	30
76	45
76	74
76	86
76	90
76	100
76	114
76	115
76	158
77	32
77	40
77	51
77	71
77	98
77	109
77	119
77	160
77	161
77	176
78	1
78	13
78	15
78	34
78	83
78	112
78	127
78	148
78	153
78	177
79	18
79	22
79	33
79	49
79	60
79	83
79	85
79	88
79	120
79	123
80	5
80	10
80	20
80	24
80	69
80	112
80	133
80	141
80	145
80	146
81	30
81	36
81	57
81	104
81	125
81	134
81	138
81	173
81	175
81	179
82	6
82	12
82	37
82	70
82	84
82	89
82	136
82	139
82	141
82	152
83	5
83	12
83	36
83	50
83	63
83	78
83	79
83	124
83	153
83	170
84	15
84	29
84	67
84	82
84	93
84	94
84	99
84	128
84	149
84	157
85	27
85	29
85	30
85	46
85	79
85	92
85	149
85	154
85	155
85	166
86	19
86	33
86	45
86	55
86	76
86	94
86	117
86	144
86	166
86	178
87	25
87	32
87	42
87	66
87	88
87	104
87	111
87	119
87	161
87	172
88	23
88	37
88	55
88	69
88	79
88	87
88	123
88	166
88	171
88	178
89	26
89	36
89	52
89	72
89	75
89	82
89	107
89	150
89	158
89	168
90	29
90	31
90	75
90	76
90	135
90	136
90	139
90	156
90	157
90	179
91	3
91	8
91	9
91	16
91	51
91	100
91	102
91	125
91	151
91	174
92	15
92	22
92	41
92	66
92	85
92	123
92	154
92	162
92	169
92	173
93	1
93	15
93	42
93	84
93	121
93	134
93	139
93	149
93	153
93	163
94	25
94	45
94	58
94	84
94	86
94	113
94	115
94	150
94	156
94	157
95	16
95	38
95	41
95	53
95	67
95	108
95	121
95	123
95	146
95	148
96	2
96	35
96	99
96	110
96	111
96	120
96	137
96	144
96	164
96	174
97	31
97	42
97	51
97	106
97	129
97	134
97	138
97	150
97	163
97	167
98	9
98	30
98	41
98	77
98	104
98	119
98	136
98	138
98	139
98	144
99	12
99	23
99	51
99	63
99	73
99	84
99	96
99	114
99	152
99	159
100	10
100	14
100	73
100	76
100	91
100	119
100	138
100	158
100	162
100	173
101	4
101	15
101	27
101	115
101	139
101	140
101	146
101	151
101	154
101	156
102	27
102	31
102	44
102	71
102	91
102	107
102	109
102	152
102	165
102	166
103	6
103	28
103	32
103	41
103	59
103	112
103	126
103	129
103	132
103	171
104	14
104	42
104	50
104	81
104	87
104	98
104	107
104	132
104	147
104	155
105	3
105	13
105	23
105	37
105	60
105	130
105	149
105	165
105	166
105	177
106	26
106	55
106	71
106	73
106	97
106	118
106	137
106	143
106	163
106	172
107	26
107	53
107	66
107	89
107	102
107	104
107	126
107	138
107	163
107	164
108	11
108	17
108	38
108	49
108	69
108	95
108	117
108	140
108	176
108	178
109	10
109	14
109	31
109	77
109	102
109	112
109	130
109	141
109	166
109	177
110	9
110	53
110	56
110	68
110	75
110	96
110	115
110	118
110	128
110	148
111	35
111	38
111	47
111	58
111	67
111	87
111	96
111	120
111	123
111	142
112	11
112	21
112	36
112	40
112	72
112	78
112	80
112	103
112	109
112	148
113	22
113	30
113	57
113	94
113	117
113	124
113	127
113	153
113	154
113	169
114	3
114	60
114	63
114	76
114	99
114	143
114	159
114	168
114	169
114	173
115	36
115	64
115	66
115	76
115	94
115	101
115	110
115	150
115	152
115	175
116	3
116	21
116	56
116	70
116	120
116	125
116	130
116	132
116	165
116	177
117	6
117	38
117	59
117	86
117	108
117	113
117	142
117	157
117	167
117	174
118	5
118	18
118	28
118	75
118	106
118	110
118	124
118	165
118	167
118	168
119	19
119	50
119	61
119	72
119	77
119	87
119	98
119	100
119	131
119	159
120	56
120	57
120	59
120	63
120	70
120	79
120	96
120	111
120	116
120	126
121	7
121	40
121	72
121	93
121	95
121	143
121	156
121	171
121	172
121	176
122	5
122	12
122	29
122	50
122	67
122	139
122	143
122	168
122	169
122	170
123	7
123	22
123	32
123	79
123	88
123	92
123	95
123	111
123	127
123	178
124	20
124	28
124	46
124	47
124	83
124	113
124	118
124	133
124	155
124	170
125	1
125	2
125	5
125	27
125	62
125	65
125	81
125	91
125	116
125	129
126	19
126	24
126	47
126	61
126	62
126	103
126	107
126	120
126	136
126	150
127	46
127	52
127	54
127	78
127	113
127	123
127	144
127	146
127	163
127	167
128	19
128	31
128	61
128	74
128	84
128	110
128	141
128	152
128	175
128	178
129	10
129	24
129	26
129	97
129	103
129	125
129	133
129	141
129	148
129	162
130	15
130	29
130	34
130	35
130	105
130	109
130	116
130	144
130	148
130	165
131	25
131	64
131	73
131	119
131	145
131	153
131	160
131	161
131	166
131	168
132	9
132	16
132	35
132	42
132	53
132	103
132	104
132	116
132	170
132	179
133	11
133	35
133	61
133	80
133	124
133	129
133	145
133	147
133	178
133	179
134	1
134	50
134	68
134	70
134	81
134	93
134	97
134	136
134	154
134	172
135	2
135	27
135	47
135	49
135	57
135	65
135	90
135	138
135	149
135	162
136	6
136	22
136	42
136	82
136	90
136	98
136	126
136	134
136	140
136	149
136	167
137	1
137	34
137	55
137	63
137	96
137	106
137	138
137	143
137	147
137	156
137	173
138	11
138	34
138	68
138	74
138	81
138	97
138	98
138	100
138	107
138	135
138	137
139	22
139	71
139	82
139	90
139	93
139	98
139	101
139	122
139	155
139	157
139	159
140	4
140	6
140	21
140	36
140	48
140	65
140	101
140	108
140	136
140	147
140	178
141	37
141	41
141	74
141	80
141	82
141	109
141	128
141	129
141	146
141	176
141	178
142	4
142	49
142	58
142	67
142	111
142	117
142	146
142	156
142	167
142	170
142	176
143	23
143	43
143	59
143	106
143	114
143	121
143	122
143	137
143	151
143	161
143	164
144	26
144	35
144	38
144	46
144	58
144	86
144	96
144	98
144	127
144	130
144	178
145	5
145	19
145	33
145	39
145	54
145	63
145	80
145	131
145	133
145	162
145	168
146	11
146	40
146	80
146	95
146	101
146	127
146	141
146	142
146	151
146	169
146	176
147	5
147	20
147	39
147	65
147	104
147	133
147	137
147	140
147	150
147	170
147	171
148	11
148	18
148	35
148	48
148	78
148	95
148	110
148	112
148	129
148	130
148	177
149	5
149	20
149	53
149	73
149	84
149	85
149	93
149	105
149	135
149	136
149	179
150	43
150	54
150	68
150	89
150	94
150	97
150	115
150	126
150	147
150	173
150	174
151	11
151	38
151	49
151	50
151	56
151	91
151	101
151	143
151	146
151	156
151	176
152	15
152	20
152	60
152	61
152	71
152	82
152	99
152	102
152	115
152	128
152	165
153	3
153	5
153	14
153	47
153	63
153	73
153	78
153	83
153	93
153	113
153	131
154	20
154	21
154	22
154	39
154	67
154	85
154	92
154	101
154	113
154	134
154	177
155	4
155	6
155	36
155	50
155	64
155	85
155	104
155	124
155	139
155	163
155	179
156	23
156	40
156	61
156	90
156	94
156	101
156	121
156	137
156	142
156	151
156	163
157	1
157	58
157	84
157	90
157	94
157	117
157	139
157	160
157	163
157	173
157	179
158	4
158	33
158	56
158	70
158	72
158	74
158	76
158	89
158	100
158	168
158	176
159	2
159	8
159	14
159	31
159	64
159	99
159	114
159	119
159	139
159	171
159	174
160	14
160	24
160	32
160	49
160	74
160	75
160	77
160	131
160	157
160	170
160	171
161	10
161	12
161	26
161	60
161	64
161	77
161	87
161	131
161	143
161	168
161	177
162	6
162	27
162	50
162	57
162	92
162	100
162	129
162	135
162	145
162	173
162	174
163	93
163	97
163	106
163	107
163	127
163	155
163	156
163	157
163	164
163	167
163	179
164	23
164	31
164	38
164	49
164	51
164	57
164	60
164	96
164	107
164	143
164	163
165	1
165	10
165	20
165	46
165	59
165	102
165	105
165	116
165	118
165	130
165	152
165	170
166	11
166	35
166	44
166	62
166	85
166	86
166	88
166	102
166	105
166	109
166	131
166	177
167	6
167	47
167	58
167	72
167	97
167	117
167	118
167	127
167	136
167	142
167	163
167	172
168	54
168	67
168	73
168	89
168	114
168	118
168	122
168	131
168	145
168	158
168	161
168	176
169	3
169	8
169	12
169	16
169	46
169	75
169	92
169	113
169	114
169	122
169	146
169	172
170	1
170	2
170	47
170	57
170	83
170	122
170	124
170	132
170	142
170	147
170	160
170	165
171	2
171	17
171	44
171	51
171	61
171	62
171	88
171	103
171	121
171	147
171	159
171	160
172	6
172	31
172	35
172	39
172	43
172	87
172	106
172	121
172	134
172	167
172	169
172	173
173	16
173	53
173	81
173	92
173	100
173	114
173	137
173	150
173	157
173	162
173	172
173	175
174	9
174	17
174	21
174	41
174	45
174	46
174	91
174	96
174	117
174	150
174	159
174	162
174	178
175	13
175	28
175	34
175	40
175	52
175	55
175	68
175	71
175	81
175	115
175	128
175	173
175	177
176	3
176	4
176	29
176	49
176	77
176	108
176	121
176	141
176	142
176	146
176	151
176	158
176	168
177	7
177	39
177	65
177	67
177	78
177	105
177	109
177	116
177	148
177	154
177	161
177	166
177	175
178	17
178	57
178	59
178	86
178	88
178	108
178	123
178	128
178	133
178	140
178	141
178	144
178	174
179	6
179	12
179	28
179	44
179	57
179	69
179	81
179	90
179	132
179	133
179	149
179	155
179	157
179	163
