1	9 
2	4 
3	3 
4	8 
5	11 
6	5 
7	10 
8	2 
9	3 
10	9 
11	8 
12	4 
13	6 
14	5 
15	3 
16	4 
17	3 
18	7 
19	5 
20	1 
21	4 
22	8 
23	9 
24	4 
25	11 
26	1 
27	9 
28	8 
29	5 
30	6 
31	6 
32	5 
33	6 
34	4 
35	2 
36	7 
37	8 
38	9 
39	9 
40	8 
41	11 
42	1 
43	10 
44	3 
45	8 
46	11 
47	1 
48	3 
49	10 
50	5 
51	9 
52	5 
53	4 
54	7 
55	4 
56	9 
57	7 
58	8 
59	9 
60	9 
61	5 
62	2 
63	4 
64	10 
65	6 
66	11 
67	11 
68	1 
69	2 
70	10 
71	5 
72	9 
73	1 
74	5 
75	6 
76	2 
77	4 
78	1 
79	8 
80	7 
81	6 
82	7 
83	9 
84	5 
85	1 
86	9 
87	4 
88	1 
89	7 
90	5 
91	7 
92	10 
93	11 
94	3 
95	8 
96	8 
97	2 
98	5 
99	9 
100	5 
101	2 
102	1 
103	4 
104	9 
105	8 
106	2 
107	10 
108	7 
109	9 
110	7 
111	5 
112	6 
113	8 
114	4 
115	11 
116	10 
117	4 
118	5 
119	11 
120	11 
121	10 
122	4 
123	10 
124	9 
125	6 
126	5 
127	1 
128	10 
129	2 
130	1 
131	8 
132	8 
133	5 
134	11 
135	8 
136	4 
137	4 
138	2 
139	9 
140	3 
141	4 
142	10 
143	8 
144	4 
145	1 
146	6 
147	4 
148	1 
149	4 
150	9 
151	5 
152	8 
153	5 
154	2 
155	3 
156	8 
157	2 
158	1 
159	8 
160	3 
161	1 
162	7 
163	9 
164	6 
165	11 
166	9 
167	1 
168	5 
169	5 
170	9 
171	9 
172	7 
173	11 
174	8 
175	7 
176	3 
177	10 
178	10 
179	10 
180	6 
181	8 
182	6 
183	5 
184	9 
185	7 
186	2 
187	4 
188	4 
189	7 
190	3 
191	4 
192	1 
193	11 
194	1 
195	6 
196	6 
197	2 
198	9 
199	9 
200	3 
201	11 
202	2 
203	8 
204	7 
205	6 
206	8 
207	9 
208	4 
209	7 
210	6 
211	11 
212	7 
213	1 
214	4 
215	1 
216	3 
217	2 
218	6 
219	7 
220	9 
221	11 
222	3 
223	11 
224	3 
225	2 
226	4 
227	8 
228	9 
229	3 
230	1 
231	3 
232	7 
233	5 
234	2 
235	8 
236	2 
237	8 
238	9 
239	9 
240	6 
241	3 
242	7 
243	4 
244	8 
245	8 
246	6 
247	9 
248	7 
249	2 
250	2 
251	5 
252	6 
253	8 
254	6 
255	6 
256	2 
257	4 
258	4 
259	2 
260	6 
261	8 
262	8 
263	7 
264	1 
265	6 
266	4 
267	9 
268	6 
269	5 
270	2 
271	1 
272	5 
273	5 
274	8 
275	1 
276	1 
277	1 
278	2 
279	1 
280	6 
281	8 
282	6 
283	9 
284	9 
285	8 
286	2 
287	2 
288	6 
289	1 
290	5 
291	6 
292	6 
293	8 
294	4 
295	2 
296	5 
297	6 
298	5 
299	8 
300	4 
