degree distribution (probability density function of the degree in logarithmic bins) 
2	1.07163
3	0.245663
4	0.122236
5	0.0337899
6	0.140109
7	0.0464765
8	0.0192714
9	0.0159816
13	0.010991

degree distribution (degree-occurrences) 
2	0.441176
3	0.147059
4	0.0882353
5	0.0294118
6	0.147059
7	0.0588235
8	0.0294118
9	0.0294118
13	0.0294118


--------------------------------------
community distribution (size-occurrences)
5	0.25
7	0.25
9	0.25
13	0.25


--------------------------------------
mixing parameter
0	0.588235
0.0769231	0.0294118
0.111111	0.0294118
0.133929	0.0588235
0.166667	0.0882353
0.2	0.0294118
0.333333	0.0588235
0.5	0.117647

--------------------------------------
