N,k,maxk,mu,t1,key,value,path
300,20,40,0.3,2.5,N,50,N/N1
300,20,40,0.3,2.5,N,100,N/N2
300,20,40,0.3,2.5,N,150,N/N3
300,20,40,0.3,2.5,N,200,N/N4
300,20,40,0.3,2.5,N,250,N/N5
300,20,40,0.3,2.5,N,300,N/N6
300,20,40,0.3,2.5,N,350,N/N7
300,20,40,0.3,2.5,N,400,N/N8
300,20,40,0.3,2.5,N,450,N/N9
300,20,40,0.3,2.5,N,500,N/N10
300,20,40,0.3,2.5,k,5,k/k1
300,20,40,0.3,2.5,k,10,k/k2
300,20,40,0.3,2.5,k,15,k/k3
300,20,40,0.3,2.5,k,20,k/k4
300,20,40,0.3,2.5,k,25,k/k5
300,20,40,0.3,2.5,k,30,k/k6
300,20,40,0.3,2.5,k,35,k/k7
300,20,40,0.3,2.5,k,40,k/k8
300,20,40,0.3,2.5,maxk,20,maxk/maxk1
300,20,40,0.3,2.5,maxk,40,maxk/maxk2
300,20,40,0.3,2.5,maxk,60,maxk/maxk3
300,20,40,0.3,2.5,maxk,80,maxk/maxk4
300,20,40,0.3,2.5,maxk,100,maxk/maxk5
300,20,40,0.3,2.5,mu,0.1,mu/mu1
300,20,40,0.3,2.5,mu,0.15000000000000002,mu/mu2
300,20,40,0.3,2.5,mu,0.2,mu/mu3
300,20,40,0.3,2.5,mu,0.25,mu/mu4
300,20,40,0.3,2.5,mu,0.30000000000000004,mu/mu5
300,20,40,0.3,2.5,mu,0.35,mu/mu6
300,20,40,0.3,2.5,mu,0.4,mu/mu7
300,20,40,0.3,2.5,mu,0.45000000000000007,mu/mu8
300,20,40,0.3,2.5,mu,0.5,mu/mu9
300,20,40,0.3,2.5,t1,2,t1/t11
300,20,40,0.3,2.5,t1,2.5,t1/t12
300,20,40,0.3,2.5,t1,3,t1/t13
300,20,40,0.3,2.5,t1,3.5,t1/t14
300,20,40,0.3,2.5,t1,4,t1/t15
