1	12
1	14
1	36
1	47
2	27
2	39
2	42
2	43
3	26
3	30
3	47
3	50
4	14
4	23
4	39
4	53
5	6
5	9
5	29
5	46
6	5
6	20
6	30
6	54
7	16
7	20
7	40
7	51
8	16
8	18
8	23
8	32
9	5
9	30
9	46
9	50
10	15
10	25
10	37
10	57
11	16
11	29
11	31
11	44
12	1
12	15
12	26
12	57
13	35
13	37
13	48
13	49
14	1
14	4
14	21
14	58
15	10
15	12
15	33
15	60
16	7
16	8
16	11
16	18
17	33
17	40
17	47
17	49
18	8
18	16
18	29
18	54
19	30
19	32
19	42
19	54
20	6
20	7
20	50
20	53
21	14
21	36
21	44
21	58
22	48
22	50
22	56
22	57
23	4
23	8
23	44
23	58
24	25
24	32
24	45
24	60
25	10
25	24
25	26
25	60
26	3
26	12
26	25
26	53
27	2
27	31
27	43
27	52
28	48
28	51
28	53
28	59
29	5
29	11
29	18
29	38
30	3
30	6
30	9
30	19
31	11
31	27
31	39
31	56
32	8
32	19
32	24
32	54
33	15
33	17
33	35
33	45
34	36
34	41
34	56
34	57
35	13
35	33
35	38
35	45
36	1
36	21
36	34
36	53
37	10
37	13
37	52
37	55
38	29
38	35
38	52
38	55
39	2
39	4
39	31
39	43
40	7
40	17
40	44
40	51
41	34
41	46
41	49
41	51
42	2
42	19
42	46
42	54
43	2
43	27
43	39
43	58
44	11
44	21
44	23
44	40
45	24
45	33
45	35
45	56
46	5
46	9
46	41
46	42
47	1
47	3
47	17
47	51
47	52
48	13
48	22
48	28
48	49
48	60
49	13
49	17
49	41
49	48
49	59
50	3
50	9
50	20
50	22
50	60
51	7
51	28
51	40
51	41
51	47
52	27
52	37
52	38
52	47
52	55
53	4
53	20
53	26
53	28
53	36
54	6
54	18
54	19
54	32
54	42
55	37
55	38
55	52
55	58
55	59
56	22
56	31
56	34
56	45
56	59
57	10
57	12
57	22
57	34
57	59
58	14
58	21
58	23
58	43
58	55
59	28
59	49
59	55
59	56
59	57
60	15
60	24
60	25
60	48
60	50
