1	17
1	34
1	47
1	60
2	6
2	16
2	31
2	45
3	6
3	15
3	53
3	59
4	36
4	38
4	52
4	53
5	18
5	28
5	31
5	57
6	2
6	3
6	13
6	59
7	10
7	19
7	20
7	25
8	9
8	10
8	25
8	30
9	8
9	48
9	50
9	58
10	7
10	8
10	41
10	43
11	19
11	29
11	41
11	56
12	25
12	42
12	52
12	54
13	6
13	22
13	40
13	60
14	33
14	49
14	56
14	58
15	3
15	16
15	21
15	23
16	2
16	15
16	29
16	59
17	1
17	27
17	39
17	60
18	5
18	33
18	36
18	44
19	7
19	11
19	41
19	55
20	7
20	30
20	43
20	52
21	15
21	30
21	45
21	59
22	13
22	32
22	38
22	60
23	15
23	24
23	46
23	54
24	23
24	34
24	42
24	52
25	7
25	8
25	12
25	43
26	31
26	44
26	55
26	57
27	17
27	32
27	39
27	60
28	5
28	29
28	37
28	55
29	11
29	16
29	28
29	37
30	8
30	20
30	21
30	43
31	2
31	5
31	26
31	57
32	22
32	27
32	34
32	44
33	14
33	18
33	44
33	57
34	1
34	24
34	32
34	40
35	38
35	47
35	51
35	53
36	4
36	18
36	47
36	53
37	28
37	29
37	54
37	55
38	4
38	22
38	35
38	47
39	17
39	27
39	45
39	59
40	13
40	34
40	49
40	60
41	10
41	11
41	19
41	55
41	60
42	12
42	24
42	46
42	54
42	60
43	10
43	20
43	25
43	30
43	59
44	18
44	26
44	32
44	33
44	57
45	2
45	21
45	39
45	48
45	59
46	23
46	42
46	52
46	54
46	59
47	1
47	35
47	36
47	38
47	53
48	9
48	45
48	50
48	51
48	58
49	14
49	40
49	51
49	56
49	58
50	9
50	48
50	56
50	57
50	58
51	35
51	48
51	49
51	56
51	58
52	4
52	12
52	20
52	24
52	46
53	3
53	4
53	35
53	36
53	47
54	12
54	23
54	37
54	42
54	46
55	19
55	26
55	28
55	37
55	41
56	11
56	14
56	49
56	50
56	51
56	58
57	5
57	26
57	31
57	33
57	44
57	50
58	9
58	14
58	48
58	49
58	50
58	51
58	56
59	3
59	6
59	16
59	21
59	39
59	43
59	45
59	46
60	1
60	13
60	17
60	22
60	27
60	40
60	41
60	42
