1	10
1	14
1	19
1	40
2	16
2	30
2	39
2	45
3	24
3	28
3	37
3	52
4	26
4	31
4	33
4	55
5	43
5	46
5	48
5	53
6	9
6	21
6	36
6	54
7	15
7	19
7	34
7	46
8	30
8	35
8	48
8	53
9	6
9	21
9	42
9	50
10	1
10	13
10	16
10	39
11	13
11	28
11	38
11	53
12	13
12	44
12	45
12	59
13	10
13	11
13	12
13	32
14	1
14	18
14	29
14	60
15	7
15	17
15	26
15	34
16	2
16	10
16	30
16	43
17	15
17	34
17	37
17	41
18	14
18	29
18	54
18	60
19	1
19	7
19	28
19	56
20	22
20	25
20	42
20	56
21	6
21	9
21	36
21	42
22	20
22	29
22	54
22	60
23	33
23	41
23	50
23	58
24	3
24	34
24	49
24	59
25	20
25	27
25	32
25	56
26	4
26	15
26	35
26	60
27	25
27	32
27	52
27	56
28	3
28	11
28	19
28	58
29	14
29	18
29	22
29	53
30	2
30	8
30	16
30	36
31	4
31	35
31	38
31	40
32	13
32	25
32	27
32	56
33	4
33	23
33	51
33	58
34	7
34	15
34	17
34	24
35	8
35	26
35	31
35	40
36	6
36	21
36	30
36	42
37	3
37	17
37	49
37	52
38	11
38	31
38	57
38	59
39	2
39	10
39	43
39	54
40	1
40	31
40	35
40	44
41	17
41	23
41	45
41	52
42	9
42	20
42	21
42	36
43	5
43	16
43	39
43	58
44	12
44	40
44	47
44	57
45	2
45	12
45	41
45	49
46	5
46	7
46	48
46	53
47	44
47	51
47	57
47	59
48	5
48	8
48	46
48	59
49	24
49	37
49	45
49	52
50	9
50	23
50	51
50	55
50	60
51	33
51	47
51	50
51	55
51	58
52	3
52	27
52	37
52	41
52	49
53	5
53	8
53	11
53	29
53	46
54	6
54	18
54	22
54	39
54	60
55	4
55	50
55	51
55	57
55	58
56	19
56	20
56	25
56	27
56	32
57	38
57	44
57	47
57	55
57	59
58	23
58	28
58	33
58	43
58	51
58	55
59	12
59	24
59	38
59	47
59	48
59	57
60	14
60	18
60	22
60	26
60	50
60	54
