1	14
1	28
2	16
2	18
3	8
3	12
4	26
4	31
5	10
5	34
6	20
6	34
7	17
7	30
8	3
8	32
9	29
9	34
10	5
10	22
11	12
11	21
12	3
12	11
13	22
13	33
13	34
14	1
14	17
14	28
15	23
15	29
15	34
16	2
16	18
17	7
17	14
17	19
18	2
18	16
18	30
19	17
19	29
19	34
20	6
20	27
20	34
21	11
21	27
21	30
21	33
22	10
22	13
22	32
22	34
23	15
23	24
23	27
23	33
24	23
24	27
24	32
24	33
25	31
25	32
25	33
26	4
26	29
26	31
26	33
27	20
27	21
27	23
27	24
27	33
28	1
28	14
28	30
28	32
28	34
29	9
29	15
29	19
29	26
29	34
30	7
30	18
30	21
30	28
30	31
30	32
30	33
31	4
31	25
31	26
31	30
31	32
31	33
31	34
32	8
32	22
32	24
32	25
32	28
32	30
32	31
32	33
32	34
33	13
33	21
33	23
33	24
33	25
33	26
33	27
33	30
33	31
33	32
34	5
34	6
34	9
34	13
34	15
34	19
34	20
34	22
34	28
34	29
34	31
34	32
