1	2 
2	1 
3	9 
4	3 
5	5 
6	5 
7	6 
8	2 
9	9 
10	5 
11	8 
12	3 
13	7 
14	9 
15	9 
16	8 
17	6 
18	7 
19	3 
20	5 
21	4 
22	7 
23	7 
24	2 
25	6 
26	4 
27	6 
28	9 
29	1 
30	7 
31	5 
32	6 
33	8 
34	1 
35	1 
36	6 
37	8 
38	7 
39	6 
40	2 
41	9 
42	3 
43	1 
44	9 
45	2 
46	7 
47	9 
48	6 
49	8 
50	3 
51	4 
52	2 
53	1 
54	4 
55	4 
56	6 
57	5 
58	3 
59	2 
60	9 
