degree distribution (probability density function of the degree in logarithmic bins) 
4	5.03467
5	0.657726
6	0.139813

degree distribution (degree-occurrences) 
4	0.833333
5	0.133333
6	0.0333333


--------------------------------------
community distribution (size-occurrences)
4	0.111111
6	0.444444
7	0.111111
8	0.222222
9	0.111111


--------------------------------------
mixing parameter
0.4	0.0333333
0.5	0.833333
0.6	0.1
0.75	0.0333333

--------------------------------------
