degree distribution (probability density function of the degree in logarithmic bins) 
2	1.00018
3	0.442193
4	0.162981
5	0.0337899
8	0.0192714
9.33333	0.0479449
13	0.0219821

degree distribution (degree-occurrences) 
2	0.411765
3	0.264706
4	0.117647
5	0.0294118
8	0.0294118
9	0.0588235
10	0.0294118
13	0.0588235


--------------------------------------
community distribution (size-occurrences)
3	0.2
5	0.2
6	0.2
7	0.2
13	0.2


--------------------------------------
mixing parameter
0	0.0588235
0.333333	0.0882353
0.5	0.441176
0.538462	0.0294118
0.605128	0.0882353
0.625	0.0294118
0.666667	0.205882
0.763889	0.0588235

--------------------------------------
