degree distribution (probability density function of the degree in logarithmic bins) 
13.5479	0.157356
15.3778	0.0866887
17.5	0.0723082
19.4783	0.0353879
21.52	0.034376
23.8485	0.0405525
27.2667	0.0164734
30.125	0.0157036
33.4615	0.0114028
37.4	0.0117584

degree distribution (degree-occurrences) 
13	0.11
14	0.133333
15	0.0933333
16	0.0566667
17	0.07
18	0.07
19	0.04
20	0.0366667
21	0.04
22	0.0433333
23	0.0466667
24	0.0333333
25	0.03
26	0.01
27	0.0166667
28	0.0233333
29	0.01
30	0.0266667
31	0.0166667
32	0.0166667
33	0.00333333
34	0.01
35	0.0133333
36	0.0166667
37	0.0133333
38	0.00666667
39	0.01
40	0.00333333


--------------------------------------
community distribution (size-occurrences)
14	0.0833333
15	0.0833333
20	0.0833333
21	0.0833333
23	0.166667
25	0.166667
29	0.0833333
31	0.0833333
36	0.0833333
38	0.0833333


--------------------------------------
mixing parameter
0.213033	0.01
0.230769	0.00666667
0.25	0.01
0.265633	0.06
0.272727	0.0166667
0.278458	0.0666667
0.286895	0.193333
0.296816	0.163333
0.306704	0.18
0.313438	0.106667
0.319787	0.06
0.333333	0.1
0.356543	0.0233333
0.375	0.00333333

--------------------------------------
