degree distribution (probability density function of the degree in logarithmic bins) 
3	0.154808
4	2.40511
5	0.667069
6	0.124439

degree distribution (degree-occurrences) 
3	0.0333333
4	0.683333
5	0.233333
6	0.05


--------------------------------------
community distribution (size-occurrences)
7	0.142857
8	0.285714
9	0.428571
10	0.142857


--------------------------------------
mixing parameter
0	0.8
0.166667	0.0333333
0.2	0.05
0.25	0.116667

--------------------------------------
