1	13
1	15
1	34
1	35
1	91
1	104
1	116
1	123
1	128
1	147
2	3
2	19
2	47
2	64
2	78
2	88
2	98
2	102
2	138
2	176
3	2
3	8
3	27
3	37
3	56
3	64
3	71
3	94
3	102
3	176
4	14
4	62
4	66
4	70
4	78
4	82
4	120
4	125
4	132
4	164
5	55
5	77
5	95
5	129
5	133
5	134
5	154
5	166
5	168
5	177
6	9
6	20
6	31
6	52
6	72
6	100
6	104
6	144
6	163
6	165
7	12
7	16
7	37
7	41
7	44
7	84
7	92
7	126
7	163
7	178
8	3
8	54
8	55
8	59
8	67
8	97
8	103
8	121
8	122
8	158
9	6
9	31
9	32
9	35
9	36
9	101
9	113
9	118
9	163
9	166
10	18
10	29
10	42
10	43
10	66
10	83
10	112
10	123
10	126
10	178
11	12
11	51
11	54
11	58
11	81
11	135
11	156
11	167
11	173
11	178
12	7
12	11
12	39
12	44
12	49
12	91
12	136
12	149
12	156
12	178
13	1
13	15
13	18
13	34
13	41
13	89
13	94
13	109
13	147
13	164
14	4
14	21
14	28
14	47
14	53
14	57
14	62
14	105
14	115
14	129
15	1
15	13
15	94
15	108
15	109
15	126
15	137
15	140
15	148
15	153
16	7
16	41
16	51
16	58
16	73
16	78
16	84
16	91
16	128
16	169
17	29
17	38
17	39
17	86
17	92
17	116
17	138
17	144
17	175
17	178
18	10
18	13
18	75
18	85
18	96
18	101
18	117
18	136
18	158
18	159
19	2
19	24
19	37
19	53
19	64
19	73
19	98
19	102
19	113
19	176
20	6
20	68
20	87
20	92
20	106
20	122
20	127
20	143
20	155
20	179
21	14
21	28
21	47
21	54
21	58
21	79
21	99
21	115
21	129
21	159
22	49
22	60
22	69
22	77
22	100
22	101
22	121
22	145
22	146
22	165
23	45
23	68
23	75
23	85
23	88
23	103
23	130
23	141
23	148
23	159
24	19
24	64
24	71
24	93
24	98
24	102
24	139
24	141
24	142
24	176
25	40
25	61
25	74
25	100
25	101
25	108
25	137
25	151
25	160
25	169
26	42
26	45
26	66
26	83
26	112
26	126
26	144
26	155
26	156
26	170
27	3
27	86
27	90
27	104
27	105
27	124
27	138
27	139
27	144
27	175
28	14
28	21
28	47
28	53
28	57
28	62
28	75
28	93
28	125
28	142
29	10
29	17
29	105
29	107
29	114
29	138
29	144
29	172
29	175
29	178
30	62
30	78
30	82
30	88
30	114
30	120
30	142
30	150
30	162
30	165
31	6
31	9
31	36
31	59
31	72
31	79
31	80
31	99
31	111
31	118
32	9
32	36
32	72
32	79
32	80
32	118
32	140
32	141
32	163
32	164
33	71
33	74
33	79
33	84
33	107
33	119
33	130
33	137
33	151
33	169
34	1
34	13
34	35
34	67
34	96
34	116
34	119
34	128
34	147
34	153
35	1
35	9
35	34
35	94
35	128
35	140
35	147
35	151
35	153
35	163
36	9
36	31
36	32
36	56
36	72
36	79
36	95
36	104
36	120
36	163
37	3
37	7
37	19
37	57
37	71
37	93
37	98
37	109
37	128
37	176
38	17
38	80
38	90
38	98
38	107
38	114
38	138
38	145
38	168
38	175
39	12
39	17
39	41
39	44
39	51
39	58
39	70
39	114
39	167
39	178
40	25
40	61
40	82
40	90
40	108
40	115
40	124
40	130
40	137
40	174
41	7
41	13
41	16
41	39
41	47
41	51
41	73
41	89
41	135
41	156
42	10
42	26
42	43
42	58
42	77
42	83
42	112
42	123
42	152
42	155
43	10
43	42
43	58
43	66
43	83
43	123
43	126
43	166
43	170
43	172
44	7
44	12
44	39
44	81
44	84
44	135
44	153
44	156
44	167
44	177
45	23
45	26
45	71
45	75
45	87
45	103
45	112
45	117
45	136
45	167
46	50
46	63
46	106
46	127
46	128
46	132
46	134
46	160
46	173
46	179
47	2
47	14
47	21
47	28
47	41
47	57
47	69
47	99
47	125
47	129
48	74
48	99
48	108
48	109
48	113
48	119
48	133
48	169
48	174
48	179
49	12
49	22
49	60
49	77
49	98
49	121
49	124
49	145
49	146
49	179
50	46
50	65
50	71
50	95
50	115
50	134
50	154
50	161
50	168
50	171
51	11
51	16
51	39
51	41
51	91
51	99
51	106
51	108
51	135
51	167
52	6
52	60
52	79
52	80
52	100
52	118
52	127
52	152
52	154
52	163
53	14
53	19
53	28
53	61
53	79
53	99
53	115
53	125
53	129
53	176
54	8
54	11
54	21
54	55
54	67
54	74
54	80
54	97
54	122
54	158
55	5
55	8
55	54
55	56
55	59
55	67
55	97
55	142
55	158
55	176
56	3
56	36
56	55
56	59
56	97
56	101
56	122
56	131
56	156
56	158
57	14
57	28
57	37
57	47
57	99
57	115
57	125
57	129
57	150
57	154
58	11
58	16
58	21
58	39
58	42
58	43
58	91
58	155
58	167
58	178
59	8
59	31
59	55
59	56
59	62
59	67
59	78
59	122
59	131
59	158
60	22
60	49
60	52
60	74
60	76
60	77
60	126
60	142
60	145
60	165
61	25
61	40
61	53
61	64
61	74
61	119
61	121
61	137
61	151
61	176
62	4
62	14
62	28
62	30
62	59
62	133
62	148
62	150
62	162
62	172
63	46
63	68
63	92
63	111
63	117
63	121
63	129
63	143
63	160
63	173
64	2
64	3
64	19
64	24
64	61
64	71
64	82
64	93
64	102
64	124
65	50
65	89
65	103
65	110
65	134
65	154
65	159
65	161
65	168
65	177
66	4
66	10
66	26
66	43
66	73
66	83
66	123
66	153
66	155
66	170
67	8
67	34
67	54
67	55
67	59
67	122
67	131
67	147
67	157
67	158
68	20
68	23
68	63
68	92
68	106
68	117
68	127
68	136
68	143
68	179
69	22
69	47
69	76
69	78
69	80
69	82
69	88
69	132
69	150
69	164
70	4
70	39
70	86
70	90
70	97
70	105
70	114
70	121
70	124
70	138
71	3
71	24
71	33
71	37
71	45
71	50
71	64
71	93
71	98
71	143
72	6
72	31
72	32
72	36
72	80
72	100
72	104
72	106
72	144
72	155
73	16
73	19
73	41
73	66
73	84
73	91
73	132
73	156
73	167
73	178
74	25
74	33
74	48
74	54
74	60
74	61
74	100
74	113
74	130
74	173
75	18
75	23
75	28
75	45
75	95
75	96
75	122
75	136
75	141
75	170
76	60
76	69
76	89
76	103
76	111
76	139
76	142
76	146
76	149
76	165
77	5
77	22
77	42
77	49
77	60
77	87
77	89
77	90
77	149
77	165
78	2
78	4
78	16
78	30
78	59
78	69
78	132
78	148
78	162
78	164
79	21
79	31
79	32
79	33
79	36
79	52
79	53
79	104
79	118
79	168
80	31
80	32
80	38
80	52
80	54
80	69
80	72
80	93
80	100
80	163
81	11
81	44
81	85
81	87
81	96
81	101
81	133
81	136
81	161
81	166
82	4
82	30
82	40
82	64
82	69
82	85
82	120
82	152
82	172
82	173
83	10
83	26
83	42
83	43
83	66
83	123
83	144
83	155
83	160
83	170
84	7
84	16
84	33
84	44
84	73
84	108
84	154
84	156
84	158
84	178
85	18
85	23
85	81
85	82
85	87
85	91
85	101
85	122
85	155
85	159
86	17
86	27
86	70
86	108
86	114
86	124
86	140
86	168
86	172
86	175
87	20
87	45
87	77
87	81
87	85
87	101
87	103
87	112
87	125
87	166
88	2
88	23
88	30
88	69
88	132
88	145
88	148
88	152
88	162
88	169
89	13
89	41
89	65
89	76
89	77
89	121
89	139
89	145
89	146
89	165
90	27
90	38
90	40
90	70
90	77
90	105
90	107
90	114
90	124
90	144
91	1
91	12
91	16
91	51
91	58
91	73
91	85
91	135
91	146
91	178
92	7
92	17
92	20
92	63
92	68
92	106
92	111
92	143
92	173
92	179
93	24
93	28
93	37
93	64
93	71
93	80
93	102
93	125
93	161
93	176
94	3
94	13
94	15
94	35
94	98
94	109
94	116
94	118
94	140
94	153
95	5
95	36
95	50
95	75
95	102
95	157
95	168
95	169
95	171
95	177
96	18
96	34
96	75
96	81
96	113
96	117
96	159
96	166
96	177
96	179
97	8
97	54
97	55
97	56
97	70
97	122
97	131
97	157
97	160
97	178
98	2
98	19
98	24
98	37
98	38
98	49
98	71
98	94
98	156
98	176
99	21
99	31
99	47
99	48
99	51
99	53
99	57
99	115
99	125
99	129
100	6
100	22
100	25
100	52
100	72
100	74
100	80
100	104
100	118
100	149
101	9
101	18
101	22
101	25
101	56
101	81
101	85
101	87
101	141
101	159
102	2
102	3
102	19
102	24
102	64
102	93
102	95
102	107
102	158
102	176
103	8
103	23
103	45
103	65
103	76
103	87
103	134
103	136
103	141
103	166
104	1
104	6
104	27
104	36
104	72
104	79
104	100
104	118
104	163
104	167
105	14
105	27
105	29
105	70
105	90
105	107
105	114
105	118
105	144
105	169
106	20
106	46
106	51
106	68
106	72
106	92
106	127
106	143
106	161
106	173
107	29
107	33
107	38
107	90
107	102
107	105
107	120
107	144
107	150
107	175
108	15
108	25
108	40
108	48
108	51
108	84
108	86
108	119
108	151
108	174
109	13
109	15
109	37
109	48
109	94
109	140
109	147
109	153
109	159
109	174
110	65
110	133
110	136
110	146
110	154
110	157
110	168
110	171
110	174
110	175
111	31
111	63
111	76
111	92
111	127
111	143
111	147
111	160
111	173
111	179
112	10
112	26
112	42
112	45
112	87
112	123
112	126
112	135
112	155
112	174
113	9
113	19
113	48
113	74
113	96
113	118
113	130
113	137
113	151
113	174
114	29
114	30
114	38
114	39
114	70
114	86
114	90
114	105
114	144
114	145
115	14
115	21
115	40
115	50
115	53
115	57
115	99
115	125
115	129
115	178
116	1
116	17
116	34
116	94
116	128
116	140
116	147
116	150
116	162
116	177
117	18
117	45
117	63
117	68
117	96
117	141
117	152
117	157
117	159
117	166
118	9
118	31
118	32
118	52
118	79
118	94
118	100
118	104
118	105
118	113
119	33
119	34
119	48
119	61
119	108
119	126
119	130
119	151
119	169
119	175
120	4
120	30
120	36
120	82
120	107
120	150
120	152
120	164
120	172
120	174
121	8
121	22
121	49
121	61
121	63
121	70
121	89
121	139
121	146
121	149
122	8
122	20
122	54
122	56
122	59
122	67
122	75
122	85
122	97
122	131
123	1
123	10
123	42
123	43
123	66
123	83
123	112
123	149
123	170
123	175
124	27
124	40
124	49
124	64
124	70
124	86
124	90
124	138
124	171
124	175
125	4
125	28
125	47
125	53
125	57
125	87
125	93
125	99
125	115
125	147
126	7
126	10
126	15
126	26
126	43
126	60
126	112
126	119
126	155
126	170
127	20
127	46
127	52
127	68
127	106
127	111
127	141
127	160
127	164
127	179
128	1
128	16
128	34
128	35
128	37
128	46
128	116
128	140
128	147
128	171
129	5
129	14
129	21
129	47
129	53
129	57
129	63
129	99
129	115
129	170
130	23
130	33
130	40
130	74
130	113
130	119
130	138
130	139
130	145
130	169
131	56
131	59
131	67
131	97
131	122
131	151
131	158
131	162
131	166
131	172
132	4
132	46
132	69
132	73
132	78
132	88
132	150
132	151
132	164
132	172
133	5
133	48
133	62
133	81
133	110
133	134
133	154
133	157
133	161
133	177
134	5
134	46
134	50
134	65
134	103
134	133
134	156
134	157
134	161
134	171
135	11
135	41
135	44
135	51
135	91
135	112
135	149
135	162
135	167
135	170
136	12
136	18
136	45
136	68
136	75
136	81
136	103
136	110
136	141
136	146
137	15
137	25
137	33
137	40
137	61
137	113
137	139
137	153
137	169
137	174
138	2
138	17
138	27
138	29
138	38
138	70
138	124
138	130
138	160
138	175
139	24
139	27
139	76
139	89
139	121
139	130
139	137
139	145
139	149
139	165
140	15
140	32
140	35
140	86
140	94
140	109
140	116
140	128
140	153
140	168
141	23
141	24
141	32
141	75
141	101
141	103
141	117
141	127
141	136
141	166
142	24
142	28
142	30
142	55
142	60
142	76
142	145
142	149
142	152
142	165
143	20
143	63
143	68
143	71
143	92
143	106
143	111
143	157
143	160
143	162
143	179
144	6
144	17
144	26
144	27
144	29
144	72
144	83
144	90
144	105
144	107
144	114
145	22
145	38
145	49
145	60
145	88
145	89
145	114
145	130
145	139
145	142
145	146
146	22
146	49
146	76
146	89
146	91
146	110
146	121
146	136
146	145
146	149
146	153
147	1
147	13
147	34
147	35
147	67
147	109
147	111
147	116
147	125
147	128
147	153
148	15
148	23
148	62
148	78
148	88
148	150
148	152
148	161
148	162
148	164
148	173
149	12
149	76
149	77
149	100
149	121
149	123
149	135
149	139
149	142
149	146
149	165
150	30
150	57
150	62
150	69
150	107
150	116
150	120
150	132
150	148
150	152
150	175
151	25
151	33
151	35
151	61
151	108
151	113
151	119
151	131
151	132
151	171
151	174
152	42
152	52
152	82
152	88
152	117
152	120
152	142
152	148
152	150
152	162
152	172
153	15
153	34
153	35
153	44
153	66
153	94
153	109
153	137
153	140
153	146
153	147
154	5
154	50
154	52
154	57
154	65
154	84
154	110
154	133
154	171
154	177
154	179
155	20
155	26
155	42
155	58
155	66
155	72
155	83
155	85
155	112
155	126
155	170
156	11
156	12
156	26
156	41
156	44
156	56
156	73
156	84
156	98
156	134
156	167
157	67
157	95
157	97
157	110
157	117
157	133
157	134
157	143
157	161
157	168
157	177
158	8
158	18
158	54
158	55
158	56
158	59
158	67
158	84
158	102
158	131
158	167
159	18
159	21
159	23
159	65
159	85
159	96
159	101
159	109
159	117
159	166
159	177
160	25
160	46
160	63
160	83
160	97
160	111
160	127
160	138
160	143
160	173
160	179
161	50
161	65
161	81
161	93
161	106
161	133
161	134
161	148
161	157
161	171
161	177
162	30
162	62
162	78
162	88
162	116
162	131
162	135
162	143
162	148
162	152
162	172
163	6
163	7
163	9
163	32
163	35
163	36
163	52
163	80
163	104
163	164
163	176
164	4
164	13
164	32
164	69
164	78
164	120
164	127
164	132
164	148
164	163
164	172
165	6
165	22
165	30
165	60
165	76
165	77
165	89
165	139
165	142
165	149
165	170
166	5
166	9
166	43
166	81
166	87
166	96
166	103
166	117
166	131
166	141
166	159
167	11
167	39
167	44
167	45
167	51
167	58
167	73
167	104
167	135
167	156
167	158
168	5
168	38
168	50
168	65
168	79
168	86
168	95
168	110
168	140
168	157
168	177
169	16
169	25
169	33
169	48
169	88
169	95
169	105
169	119
169	130
169	137
169	174
170	26
170	43
170	66
170	75
170	83
170	123
170	126
170	129
170	135
170	155
170	165
171	50
171	95
171	110
171	124
171	128
171	134
171	151
171	154
171	161
171	177
171	179
172	29
172	43
172	62
172	82
172	86
172	120
172	131
172	132
172	152
172	162
172	164
173	11
173	46
173	63
173	74
173	82
173	92
173	106
173	111
173	148
173	160
173	179
174	40
174	48
174	108
174	109
174	110
174	112
174	113
174	120
174	137
174	151
174	169
175	17
175	27
175	29
175	38
175	86
175	107
175	110
175	119
175	123
175	124
175	138
175	150
176	2
176	3
176	19
176	24
176	37
176	53
176	55
176	61
176	93
176	98
176	102
176	163
177	5
177	44
177	65
177	95
177	96
177	116
177	133
177	154
177	157
177	159
177	161
177	168
177	171
178	7
178	10
178	11
178	12
178	17
178	29
178	39
178	58
178	73
178	84
178	91
178	97
178	115
179	20
179	46
179	48
179	49
179	68
179	92
179	96
179	111
179	127
179	143
179	154
179	160
179	171
179	173
