1	2
1	30
2	1
2	17
3	11
3	20
4	20
4	26
5	33
5	34
6	12
6	31
7	25
7	31
8	33
8	34
9	22
9	31
10	24
10	30
11	3
11	20
12	6
12	31
13	27
13	30
14	29
14	30
15	21
15	23
15	31
16	32
16	33
16	34
17	2
17	27
17	30
18	23
18	25
18	31
19	32
19	33
19	34
20	3
20	4
20	11
21	15
21	25
21	31
22	9
22	33
22	34
23	15
23	18
23	25
23	31
24	10
24	27
24	30
24	32
25	7
25	18
25	21
25	23
25	31
26	4
26	28
26	32
26	33
26	34
27	13
27	17
27	24
27	30
27	34
28	26
28	29
28	32
28	33
28	34
29	14
29	28
29	32
29	33
29	34
30	1
30	10
30	13
30	14
30	17
30	24
30	27
30	34
31	6
31	7
31	9
31	12
31	15
31	18
31	21
31	23
31	25
31	32
32	16
32	19
32	24
32	26
32	28
32	29
32	31
32	33
32	34
33	5
33	8
33	16
33	19
33	22
33	26
33	28
33	29
33	32
33	34
34	5
34	8
34	16
34	19
34	22
34	26
34	27
34	28
34	29
34	30
34	32
34	33
