degree distribution (probability density function of the degree in logarithmic bins) 
10	1.79561
11	0.398374
12	0.103315
13	0.031756
14	0.00976082
15	0.00900053

degree distribution (degree-occurrences) 
10	0.743017
11	0.178771
12	0.0502793
13	0.0167598
14	0.00558659
15	0.00558659


--------------------------------------
community distribution (size-occurrences)
11	0.153846
12	0.153846
13	0.0769231
14	0.153846
15	0.307692
16	0.153846


--------------------------------------
mixing parameter
0	0.106145
0.0666667	0.00558659
0.0769231	0.0111732
0.0833333	0.0391061
0.0909091	0.173184
0.1	0.631285
0.142857	0.00558659
0.153846	0.00558659
0.166667	0.00558659
0.2	0.0167598

--------------------------------------
