1	2 
2	6 
3	7 
4	1 
5	6 
6	7 
7	2 
8	9 
9	8 
10	8 
11	1 
12	10 
13	9 
14	9 
15	5 
16	10 
17	3 
18	3 
19	7 
20	2 
21	7 
22	5 
23	7 
24	9 
25	2 
26	6 
27	6 
28	4 
29	10 
30	5 
31	4 
32	6 
33	4 
34	3 
35	8 
36	10 
37	3 
38	2 
39	1 
40	10 
41	9 
42	8 
43	1 
44	4 
45	1 
46	10 
47	8 
48	9 
49	8 
50	2 
51	10 
52	8 
53	10 
54	4 
55	3 
56	5 
57	5 
58	9 
59	9 
60	5 
