degree distribution (probability density function of the degree in logarithmic bins) 
13.4103	0.172231
15.3636	0.0870476
17.619	0.074446
19.3333	0.0381146
21.7778	0.0256118
23.5385	0.0331459
26.8	0.0342661
29.25	0.00818694
33.1111	0.0165041
37	0.004929
39	0.00441618

degree distribution (degree-occurrences) 
13	0.153333
14	0.106667
15	0.0933333
16	0.0533333
17	0.0533333
18	0.0866667
19	0.0533333
20	0.0266667
21	0.0133333
22	0.0466667
23	0.0533333
24	0.02
25	0.0133333
26	0.0466667
27	0.0266667
28	0.0266667
29	0.02
30	0.00666667
32	0.02
33	0.0133333
34	0.0266667
35	0.00666667
38	0.0133333
39	0.02


--------------------------------------
community distribution (size-occurrences)
16	0.166667
20	0.166667
21	0.166667
25	0.166667
29	0.166667
39	0.166667


--------------------------------------
mixing parameter
0.1875	0.00666667
0.230769	0.02
0.25	0.00666667
0.263158	0.0133333
0.266987	0.0533333
0.276941	0.0933333
0.285499	0.113333
0.294356	0.106667
0.302723	0.1
0.308933	0.246667
0.317941	0.12
0.333333	0.0933333
0.355042	0.0266667

--------------------------------------
