1	22
1	24
2	31
2	34
3	20
3	31
4	5
4	22
5	4
5	34
6	23
6	34
7	12
7	29
8	31
8	32
9	32
9	33
10	32
10	34
11	18
11	34
12	7
12	23
13	22
13	30
14	25
14	31
14	33
15	16
15	28
15	30
16	15
16	29
16	33
17	25
17	29
17	30
18	11
18	23
18	30
19	28
19	30
19	34
20	3
20	32
20	34
21	29
21	32
21	33
21	34
22	1
22	4
22	13
22	28
23	6
23	12
23	18
23	32
23	33
24	1
24	25
24	30
24	33
24	34
25	14
25	17
25	24
25	33
26	27
26	31
26	32
26	33
27	26
27	29
27	31
27	33
27	34
28	15
28	19
28	22
28	29
28	30
28	32
28	34
29	7
29	16
29	17
29	21
29	27
29	28
29	30
30	13
30	15
30	17
30	18
30	19
30	24
30	28
30	29
30	33
30	34
31	2
31	3
31	8
31	14
31	26
31	27
31	33
31	34
32	8
32	9
32	10
32	20
32	21
32	23
32	26
32	28
32	33
32	34
33	9
33	14
33	16
33	21
33	23
33	24
33	25
33	26
33	27
33	30
33	31
33	32
33	34
34	2
34	5
34	6
34	10
34	11
34	19
34	20
34	21
34	24
34	27
34	28
34	30
34	31
34	32
34	33
