1	6 
2	7 
3	2 
4	13 
5	4 
6	3 
7	3 
8	4 
9	14 
10	13 
11	11 
12	7 
13	3 
14	5 
15	8 
16	8 
17	3 
18	7 
19	2 
20	9 
21	1 
22	4 
23	1 
24	2 
25	10 
26	11 
27	13 
28	11 
29	1 
30	12 
31	8 
32	8 
33	13 
34	13 
35	11 
36	1 
37	7 
38	13 
39	1 
40	8 
41	5 
42	12 
43	3 
44	14 
45	9 
46	12 
47	4 
48	14 
49	13 
50	10 
51	9 
52	4 
53	4 
54	6 
55	2 
56	1 
57	4 
58	4 
59	10 
60	5 
61	4 
62	9 
63	13 
64	14 
65	12 
66	4 
67	10 
68	14 
69	7 
70	10 
71	14 
72	4 
73	2 
74	1 
75	9 
76	2 
77	10 
78	9 
79	5 
80	11 
81	2 
82	6 
83	10 
84	14 
85	14 
86	10 
87	11 
88	11 
89	5 
90	10 
91	5 
92	3 
93	14 
94	9 
95	8 
96	14 
97	10 
98	10 
99	4 
100	6 
101	4 
102	13 
103	13 
104	4 
105	13 
106	14 
107	9 
108	4 
109	6 
110	13 
111	8 
112	14 
113	6 
114	6 
115	8 
116	2 
117	14 
118	3 
119	1 
120	8 
121	13 
122	1 
123	5 
124	11 
125	5 
126	4 
127	1 
128	8 
129	2 
130	8 
131	5 
132	1 
133	10 
134	2 
135	8 
136	1 
137	14 
138	13 
139	1 
140	4 
141	13 
142	10 
143	13 
144	10 
145	8 
146	1 
147	14 
148	10 
149	10 
150	10 
