degree distribution (probability density function of the degree in logarithmic bins) 
2	0.699843
3	0.516772
4	0.102283
5	0.0276931
6	0.0674814
7	0.0365413
11.6667	0.0361624
16	0.00795276

degree distribution (degree-occurrences) 
2	0.323529
3	0.294118
4	0.0882353
5	0.0294118
6	0.0882353
7	0.0588235
11	0.0294118
12	0.0588235
16	0.0294118


--------------------------------------
community distribution (size-occurrences)
4	0.2
5	0.2
8	0.4
9	0.2


--------------------------------------
mixing parameter
0	0.0588235
0.333333	0.235294
0.428571	0.0294118
0.454545	0.0294118
0.5	0.441176
0.585714	0.0588235
0.666667	0.147059

--------------------------------------
