1	29
1	32
2	3
2	6
3	2
3	34
4	8
4	23
5	19
5	32
6	2
6	26
7	25
7	30
8	4
8	30
9	27
9	31
10	32
10	33
11	32
11	33
12	22
12	32
13	17
13	28
14	27
14	33
15	28
15	33
16	25
16	33
17	13
17	33
18	24
18	25
18	31
19	5
19	31
19	34
20	32
20	33
20	34
21	23
21	28
21	34
22	12
22	25
22	32
23	4
23	21
23	29
24	18
24	32
24	33
24	34
25	7
25	16
25	18
25	22
26	6
26	30
26	33
26	34
27	9
27	14
27	29
27	34
28	13
28	15
28	21
28	29
29	1
29	23
29	27
29	28
29	31
29	34
30	7
30	8
30	26
30	31
30	32
30	33
31	9
31	18
31	19
31	29
31	30
31	32
31	34
32	1
32	5
32	10
32	11
32	12
32	20
32	22
32	24
32	30
32	31
32	34
33	10
33	11
33	14
33	15
33	16
33	17
33	20
33	24
33	26
33	30
33	34
34	3
34	19
34	20
34	21
34	24
34	26
34	27
34	29
34	31
34	32
34	33
