1	9
1	21
2	29
2	33
3	10
3	21
4	28
4	34
5	9
5	12
6	29
6	32
7	23
7	29
8	20
8	30
9	1
9	5
10	3
10	33
11	28
11	30
12	5
12	16
13	33
13	34
14	33
14	34
15	16
15	34
16	12
16	15
17	23
17	24
17	29
18	30
18	33
18	34
19	26
19	28
19	30
20	8
20	27
20	30
21	1
21	3
21	31
22	32
22	33
22	34
23	7
23	17
23	29
24	17
24	32
24	33
24	34
25	26
25	28
25	30
25	34
26	19
26	25
26	30
26	32
27	20
27	31
27	32
27	33
27	34
28	4
28	11
28	19
28	25
28	30
29	2
29	6
29	7
29	17
29	23
29	34
30	8
30	11
30	18
30	19
30	20
30	25
30	26
30	28
30	31
31	21
31	27
31	30
31	32
31	33
31	34
32	6
32	22
32	24
32	26
32	27
32	31
32	33
32	34
33	2
33	10
33	13
33	14
33	18
33	22
33	24
33	27
33	31
33	32
33	34
34	4
34	13
34	14
34	15
34	18
34	22
34	24
34	25
34	27
34	29
34	31
34	32
34	33
