1	25
1	32
2	16
2	31
3	15
3	21
4	32
4	34
5	15
5	22
6	33
6	34
7	19
7	31
8	9
8	25
9	8
9	34
10	24
10	28
10	34
11	26
11	31
11	33
12	19
12	26
12	34
13	30
13	31
13	34
14	20
14	29
14	33
15	3
15	5
15	32
16	2
16	32
16	34
17	21
17	25
17	33
18	28
18	30
18	32
19	7
19	12
19	32
19	33
20	14
20	26
20	28
20	34
21	3
21	17
21	23
21	31
22	5
22	25
22	29
22	33
23	21
23	28
23	30
23	31
23	32
24	10
24	26
24	29
24	32
24	33
25	1
25	8
25	17
25	22
25	27
25	33
26	11
26	12
26	20
26	24
26	31
26	33
27	25
27	29
27	31
27	32
27	33
27	34
28	10
28	18
28	20
28	23
28	31
28	34
29	14
29	22
29	24
29	27
29	30
29	34
30	13
30	18
30	23
30	29
30	31
30	33
30	34
31	2
31	7
31	11
31	13
31	21
31	23
31	26
31	27
31	28
31	30
31	34
32	1
32	4
32	15
32	16
32	18
32	19
32	23
32	24
32	27
32	33
32	34
33	6
33	11
33	14
33	17
33	19
33	22
33	24
33	25
33	26
33	27
33	30
33	32
33	34
34	4
34	6
34	9
34	10
34	12
34	13
34	16
34	20
34	27
34	28
34	29
34	30
34	31
34	32
34	33
